ഒടുവിൽ ആ ദിവസമെത്തുന്നു. വായനശാലയുടെ സമീപത്തു്, കൊയ്ത്തു കഴിഞ്ഞ പാടത്തു പന്തലുയരുന്നു. വിവിധ വർണ്ണങ്ങളിലുള്ള നോട്ടീസുകൾ വിതരണം ചെയ്യുന്നു. മഹാകവി കുട്ടമത്തിന്റെ ബാലഗോപാലം നാടകം അരങ്ങേറുന്ന ദിവസത്തിന്റെ അറിയിപ്പുണ്ടാവുന്നു. പന്തലിന്നകത്തു കടക്കണമെങ്കിൽ, നാടകം കാണണമെങ്കിൽ, ടിക്കറ്റു വാങ്ങണം. അതും പുതിയ അനുഭവം തന്നെ. പ്രവർത്തകർക്കു സംശയമുണ്ടായിരുന്നു. ടിക്കറ്റെടുത്തു നാടകം കാണുന്ന ശീലമില്ലാത്ത ജനങ്ങളാണു്. ഒടുവിൽ ആരും വന്നില്ലെങ്കിൽ മാനം കെടും. പ്രബലനായൊരു ജന്മിയോടു് ഏറ്റുമുട്ടി ബലപരീക്ഷ നടത്തി നേടിയെടുത്ത വിജയം പൂർണ്ണമാകണമെങ്കിൽ നാടകം വിജയിക്കണം. വിജയിക്കണമെങ്കിൽ കാശുമുടക്കി ടിക്കറ്റെടുത്തു പ്രേക്ഷകർ അകത്തു കയറണം. പ്രവർത്തകരുടെ സംശയം അസ്ഥാനത്തായിരുന്നു. സന്ധ്യയോടൊപ്പം ജനങ്ങൾ ഒഴുകിയെത്തി. നിറഞ്ഞ സദസ്സു്. നാടകം ഇരമ്പി. രണ്ടഭിപ്രായമില്ല. അന്നോളം അത്ര നല്ലൊരു നാടകം കാണാൻ കഴിഞ്ഞിട്ടില്ലെന്നു പ്രേക്ഷകർ പറഞ്ഞുകേട്ടപ്പോൾ പ്രവർത്തകരുടെ മനസ്സു് നിറഞ്ഞു.
നൈഷധംപോലെ, രുഗ്മാംഗദചരിതം പോലെ, ചില പുരാണ നാടകങ്ങൾ—അതും അപൂർവ്വാവസരങ്ങളിൽ മാത്രം—കാണാനുള്ള സൗകര്യമേ സാധാരണജനങ്ങൾക്കു് അന്നുണ്ടായിരുന്നുള്ളു. അത്തരം നാടകങ്ങളിൽനിന്നെല്ലാം വളരെ വ്യത്യസ്തമായിരുന്നു ബാലഗോപാലം. ഭാഷാനാടകങ്ങളിൽ സാധാരണക്കാരന്റെ ദാരിദ്ര്യദുഃഖം ശക്തിമത്തായി പ്രതിഫലിപ്പിച്ച ആദ്യത്തെ നാടകമാണു് ബാലഗോപാലമെന്നു പറഞ്ഞാൽ വലിയ തെറ്റാവില്ല. അനാഥയായ ഒരു വിധവയുടേയും മകന്റെയും കഥ. നിത്യവൃത്തിക്കുള്ള വകപോലും യാചിച്ചുണ്ടാക്കണമെന്ന ഗതികേടിൽ പുലരുന്ന കുടുംബം. കുറഞ്ഞ കഥാപാത്രങ്ങൾ. വക്രതയൊന്നും ഇല്ലാത്ത കഥാകഥനരീതി. നേരെ ജനഹൃദയങ്ങളിൽ കടന്നുചെല്ലാൻ കഴിവുള്ള ഗാനങ്ങളും സംഭാഷണങ്ങളും നിരന്തരമായ ആരാധനയിലൂടെ, വ്രതചര്യകളിലൂടെ, തപസ്സിലൂടെ മനുഷ്യനെ ദൈവസന്നിധിയിലേക്കുയർത്തുന്ന പതിവു് വിട്ടു്, ദൈവം മണ്ണിലേക്കിറങ്ങിവന്നു ഒരനാഥ ബാലനോടൊപ്പം കളിക്കുകയും ചിരിക്കുകയും അവന്റെ ജ്യേഷ്ഠനായി അഭിനയിക്കുകയും ജ്യേഷ്ഠനെന്ന വിശ്വാസത്തിനു പോറലേല്പിക്കാത്തവിധം പെരുമാറുകയും ചെയ്യുന്ന ഒരു പുതിയ രീതി അവലംബിച്ചു എന്നതാണു് ഈ നാടകത്തിന്റെ പ്രത്യേകത. പണ്ഡിതനേയും പാമരനേയും ഒരുപോലെ രസിപ്പിക്കാനുള്ള കഴിവു് ആ നാടകത്തിനുണ്ടു്. ജനങ്ങളൊന്നടങ്കം നല്ലതെന്നു വിധിയെഴുതാനുള്ള കാരണവും അതു തന്നെ.
…
കളി കഴിഞ്ഞു വീട്ടിലെത്തി ഉറങ്ങാൻ കിടക്കുമ്പോഴും ശ്രീകൃഷ്ണനെപ്പറ്റിയാണു് ചിന്ത. എവിടെയാകും കിടക്കുന്നതു് ? നല്ല മെത്തയുണ്ടോ? മേടച്ചൂടിൽ വീശിക്കൊടുക്കാനാളുണ്ടോ? ആലോചിച്ചാലോചിച്ചു് ഉറങ്ങിപ്പോകും. രാവിലെ ഉണർന്നെണീറ്റാൽ വേഗം സന്ധ്യയാവാനുള്ള പ്രാർത്ഥനയാണു്. സന്ധ്യയായാൽ നേരത്തെ ചെന്നു മുമ്പിൽത്തന്നെ സ്ഥലം പിടിക്കും. അങ്ങനെ ഒരിക്കൽ നാലു തറവാടുകളിൽ കയറിയിറങ്ങി, മുടങ്ങാതെ മുപ്പത്തിരണ്ടു കളി ഞാൻ കാണുകയുണ്ടായി. അതോർക്കുമ്പോൾ ഇന്നും കണ്ണു നനയുന്നു. കൃഷ്ണനെയോർത്തും കൃഷ്ണാട്ടത്തെയോർത്തുമല്ല. ഇന്നത്തെ കുട്ടികളെയോർത്തു്. അവരറിയാതെ, അവരുടെ കുറ്റം കൊണ്ടല്ലാതെ, അവർക്കു നഷ്ടപ്പെട്ടുപോയ സൗഭാഗ്യം. കൃഷ്ണാട്ടം അവർക്കു തിരിച്ചുകിട്ടുമാറാകട്ടെ എന്നു പ്രാർത്ഥിക്കാൻ ഇന്നു വയ്യ. അപ്പോൾ സാമൂതിരി വാഴ്ചയും സാമന്ത പ്രഭുത്വവും ജന്മിത്വവും എട്ടുകെട്ടും നാലുകെട്ടും തറവാടും സ്ഥാനമാനങ്ങളുമൊക്കെ തിരിച്ചുവരട്ടെ എന്നും പ്രാർത്ഥിക്കേണ്ടിവരില്ലേ? അതിനി ഒട്ടും വയ്യല്ലോ.
—അരങ്ങുകാണാത്ത നടൻ
1. അമ്മേ! ‘ദേവകി’ ദേവി! തന്നരുളി നീ
നൽ ‘ബാലഗോപാല’നിൽ
ശമ്മേ നേർന്ന സുശീല പോൽ മയി മുല-
പ്പാലും മുകുന്ദേച്ഛയും,
ഉന്മേഷത്തോടവന്നു ഹന്ത ഭഗവാൻ
പ്രത്യക്ഷനായി!! കനി-
ഞ്ഞെന്മേൽ വെച്ചതു തൽകഥാപരിമളം
മാത്രം ജഗന്നായകൻ.
2. ജന്മം പൂണ്ടന്യമാതൃസ്തനകലശമെനി
ക്കേകിടാതിന്നു നീന്തും
നിന്മംഗല്യസ്തനപ്പാല്ക്കടൽ നടുവിൽ മുകു-
ന്ദൈക്യമുണ്ടാക്കുവാനായ്
തന്മഞ്ജൂ പ്രേമവക്ത്രം സ്വജനനികഴലിൽ
‘ബാലഗോപാലകൻ’ പോ-
ലെന്മാതാവേ! തവംഘ്രിത്തളിരിലിത സമർ-
പ്പിച്ചു ഞാനിപ്രബന്ധം.

കുട്ടമത്തു്
99 കുംഭം 24-ാം നു
ഗ്രന്ഥകർത്താവു്:
20-ാം ശ്രാദ്ധദിനം
ആലംബം നാലുവേദത്തിനു,മഖിലജഗൽ-
സാക്ഷി വേദാന്തികൾക്കും,
ലോലംബം യോഗികൾക്കും ഹൃദയകുവലയ-
ത്തിങ്കലാതങ്കഹീനം
കാലൻ കംസാദികൾക്കും പലതുമിതുവിധം
കേളിയാടും യശോദാ-
ബാലൻ ഗോപാലകൃഷ്ണൻ
തിരുവടി കരുണാ-
പാംഗമിങ്ങേകിടട്ടെ!
(സൂത്രധാരനും നടനും പ്രവേശിക്കുന്നു)
(രാഗം ഇംഗ്ലീഷ് നോട്ടു് ചതുരശ്രജതി ത്രിപട)
ആടണം! ലീലയാടണം!
കോടക്കാർവ്വർണ്ണൻ പിടിച്ചോടക്കുഴലും പാടി
ഓടിവന്നരങ്ങതിൽ ചാഞ്ചാടി (ആടണം)
വെണ്ണ കവർന്നു
ഗോപപ്പെണ്ണുങ്ങൾക്കുള്ള താപ-
ഖണ്ഡനംചെയ്ത ദേവ! നിർല്ലേപ! (ആടണം)
ഭക്തന്മാർക്കെന്നും ചിത്തേ
വ്യക്തമാം സച്ചിന്മൂർത്തേ!
മുക്തിസ്വരൂപ! കൃഷ്ണ! സല്കീർത്തേ! (ആടണം)
മാന്യസമാജികന്മാർക്കു വന്ദനം.
“അനന്യാശ്ചിന്തയന്തോ മാം
യേ ജനാഃ പര്യുപാസതേ;
തേഷാം നിത്യാഭിയുക്താനാം
യോഗക്ഷേമം വഹാമ്യഹം.”

യാതൊരു ജനങ്ങളാണു് അന്യദേവതമാരെ ഉപാസിക്കാതെ എന്നേത്തന്നെ ചിന്തിക്കുന്നവരായി ഇടവിടാതെ ഉപാസിക്കുന്നതു്? എപ്പോഴും എന്റെ നിഷ്ഠയിലിരിക്കുന്ന അവരുടെ യോഗക്ഷേമത്തെ ഞാൻ വഹിക്കുന്നു എന്നാണല്ലോ ഇതിന്റെ സാരം.
അതുകൊണ്ടു് നമ്മുടെ സകലവിചാരങ്ങളെയും ഭഗവാങ്കൽ സമർപ്പിച്ചു് ആ ദിവ്യമംഗളവിഗ്രഹം പ്രത്യക്ഷമാക്കിത്തരുവാൻ വിളിച്ചു് കരയുകയായിരുന്നു നമ്മുടെ കർത്തവ്യകർമ്മം. ഇങ്ങനെയുള്ള ഒരു ചെറുകഥയെ അഭിനയിച്ചു നമ്മുടെയും ഭഗവൽഭക്തന്മാരായ ഈ മാന്യസഭ്യന്മാരുടെയും ഭക്തിയെ നല്ലവണ്ണം വിശദീകരിപ്പാൻ തന്നെയാണു് നമ്മുടെ ഇപ്പോഴത്തെ ഉദ്യമം.
പണ്ടത്രേതായുഗം ദ്വാപരയുഗമിതുര-
ണ്ടിങ്കലും ബ്രഹ്മതത്ത്വം
മണ്ടക്കേശാത്താ മർത്ത്യപ്പരിഷ കലിയുഗ-
ത്തിങ്കലും മർത്ത്യരായി
ശണ്ഠക്കായ്ത്തന്മതം വിട്ടുഴലുമളവിലാ-
രാമകൃഷ്ണാവതാരം
രണ്ടങ്ങൊന്നായെടുത്തീടിന പരമകൃപാ-
ധാമമീ രാമകൃഷ്ണൻ.

ആ ഭഗവൽപൂജ്യപാദങ്ങൾക്കായി സഹസ്രം സഹസ്രം നമസ്കാരം. അതുകൊണ്ടു്
ഭ്രരികല്യാണി—ചതുരശ്രജാതി ത്രിപട
പ്രത്യക്ഷമായ് പ്രത്യക്ഷമായ്
നിസ്തുല്യമിക്കഥാവസ്തു (പ്രത്യക്ഷ)
ഏതൊന്നു ഗുണം നോക്കി
ചേതസ്സിൽ ഞങ്ങളാക്കി
ഭേദംവിട്ടായതോർക്കിൽ
മോദാൽനിങ്ങടെ വാക്കിൽ (പ്രത്യക്ഷ)
എന്നും സശീലാചിത്തേ
മിന്നും കൃഷ്ണരൂപത്തെ
നന്നായ്ത്തൻ പുത്രൻകുട്ടിയന്നന്നു
കാണും മട്ടിൽ (പ്രത്യക്ഷ)
ബാലഗോപാലൻ എന്ന കുട്ടിയുടെ അമ്മ സുശീലാദേവി മഹാദരിദ്രയാണെങ്കിലും പാതിവ്രത്യം, വിശേഷിച്ചു് അളവില്ലാത്ത ഭഗവൽഭക്തി ഇവയെ അപരസ്ത്രീകളിൽ പാഠമാക്കിത്തീർക്കുന്ന രണ്ടാമത്തെ യശോദാ ദേവി ആ ശ്രീകൃഷ്ണ ഭഗവാന്റെ പ്രിയപ്പെട്ട മാതാവുതന്നെയാണു്. ആ അമ്മയുടെ വൈധവ്യത്തിനുശേഷം ബാലഗോപാലന്റെ പാഠശാലാപ്രവേശം മുതല്ക്കുള്ള കഥയിലേക്കു് മാത്രമേ മാന്യ സദസ്യരുടെ മനസ്സിനെ ഞങ്ങൾ ക്ഷണിക്കുന്നുള്ളൂ.
(അണിയറയിൽ സുശീല)
ആനന്ദഭൈരവി—ആദിതാളം
കർമ്മ സാക്ഷിയായി നീ ശ്രീപതേ!
വാസനപോലെ
കർമ്മമോരോന്നെ ചെയ്യിപ്പുതെ.
സ്നാനംചെയ്തു പുലർച്ചയിൽ പതിവുപോ-
ലാനന്ദചിന്മൂർത്തിയെ
ധ്യാനംചെയ്തഥ, പാഠശാലയിലയ-
ച്ചാനന്ദനൻ ബാലനെ
താനന്നന്നിരവായ് ലഭിച്ചൊരരിവെ-
ച്ചൂനം വരാതിസ്തവം
ഗാനംചെയ്തു സുശീല വാഴ്‌വു തന്നയാ
യാനം കൊതിച്ചിങ്ങിനേ.

അതുകൊണ്ടു് അണിയറയിൽ വേണ്ടുന്ന സാമഗ്രികൾ ഒരുക്കുവാൻ ഞങ്ങൾ നിങ്ങളുടെ സന്നിധാനത്തെ വിടേണ്ടി വന്നിരിക്കുന്നു.
ഭയനിവേദനം
ഒരു വീടിന്റെ ഉമ്മറം സുശീലാദേവി പ്രവേശിക്കുന്നു.
ആനന്ദഭൈരവി—ആദിതാളം
കർമ്മസാക്ഷിയായി നീ ശ്രീപതേ!
വാസനപോലെ
കർമ്മമോരോന്നേ ചെയ്യിപ്പുതെ
നിർമ്മലം നിരുപാധികം
നിജധർമ്മമേതുമകന്നിടാതജ! (കർമ്മ)
പ്രാണിചിത്തമിരുമ്പിൻകമ്പി
കാന്തംകൊണ്ടുള്ളൊ-
രാണി നിയ്യാണതിന്നു പിമ്പിൽ
കാണുവാൻ കഴിയാതെ നീ പരമാണുവിൽ-
പരമാണുവായ് പര!
വാണു മനസ്സിനിളക്കമണ-
പ്പളവാണു ജഗത്തിതുദിച്ചതു നിഷ്കള! (കർമ്മ)
ഹരേ കൃഷ്ണ! വാസുദേവാ! ഇപ്പോഴത്തെ വെപ്പു പണിയും മറ്റു ഗൃഹകൃത്യങ്ങളും എല്ലാം കഴിഞ്ഞു. ഇനി എന്റെ ഓമനത്തമ്പാൻ ഉച്ചക്കത്തെ കഞ്ഞികുടിക്കാൻ വരുന്നതുവരെ ഭഗവാനെ ധ്യാനിച്ചുകൊണ്ടുതന്നെ ഇവിടെ ഇരിക്കാം. (ഇരുന്നിട്ടു്) കഷ്ടം! നിരന്തരം ഭഗവൽധ്യാനത്തിന്നു് എനിക്കു് ദാരിദ്ര്യമാണല്ലോ പ്രതിബന്ധമായിത്തീർന്നതു്! ഓമനത്തമ്പാനെ കഞ്ഞി കൊടുത്തു പറഞ്ഞയച്ചതിനു ശേഷം ഇതാ, നാളത്തെ കഞ്ഞിക്കുവേണ്ടതിന്നു് ഇരക്കുവാൻ പുറപ്പെടുവാനുമായല്ലോ.
(ഓർമ്മനടിച്ചു വ്യസനത്തോടെ) എന്റെ കുട്ടിയുടെ അച്ഛൻ ജീവിച്ചിരുന്നുവെങ്കിൽ ഞാനിത്ര കഷ്ടപ്പെടേണ്ടിയിരുന്നില്ല. (ഞെട്ടിക്കരഞ്ഞു് ഉത്തരീയം കൊണ്ടു് കണ്ണുനീർ ഒപ്പിക്കൊണ്ടു്) കഷ്ടം ഞാനെന്തിനു കരയുന്നു! ഈ വൈധവ്യ ദുഃഖവും മഹാദാരിദ്ര്യവും ഭഗവാങ്കൽ ഭക്തി വർദ്ധിപ്പാൻ ഭഗവാൻ തന്നെ എനിക്കു തന്നതാണല്ലൊ. “ശാന്ത്യർത്ഥം ഹി ശ്രാന്തിദോസി സ്വകാനാം” എന്നല്ലേ മഹദ്വചനം. ഹരേ! കൃഷ്ണ! നാരായണ! ഈ വൈധവ്യ ദുഃഖവും ഈ മഹാദാരിദ്ര്യവും തന്നെയാണു് അങ്ങയിങ്കൽ ഭക്തിവർദ്ധനയ്ക്കുള്ള കാരണം.
ചതുർവിധാ ഭജന്തേ മാം
ജനാസ്സുകൃതിനോർജ്ജുന!
ആർത്തോ ജിജ്ഞാസുരർത്ഥാർത്ഥീ
ജ്ഞാനീ ച ഭാരതർഷഭ!
എന്നു് അങ്ങുന്നുതന്നെ ഉപദേശിച്ചിട്ടുള്ളതാണല്ലോ. ഈ പറഞ്ഞ നാലു തരക്കാരിൽ ഞാൻ മഹാദരിദ്രയാണെങ്കിലും ദാരിദ്ര്യ ശമനത്തിന്നുവേണ്ടി ഞാൻ അങ്ങയോടു് അപേക്ഷിക്കുകയില്ല. അങ്ങയുടെ ആ ദിവ്യമംഗള വിഗ്രഹം പ്രത്യക്ഷമാക്കിത്തരേണമെന്നു മാത്രമേ എനിക്കപേക്ഷയുള്ളു. അതുകൊണ്ടു് എന്റെ സർവ്വ സംസാര ദുഃഖവും നശിക്കട്ടെ. നശിക്കും. സംശയമില്ല. (ഭക്തിപരവശയായി കണ്ണുനീർ തൂകിക്കൊണ്ടു്)
ഭഗവൻ, ദേവകീനന്ദന!
സാവേരി—ആദിതാളം
സമാധിസാരം സാക്ഷാൽക്കാരം
സപദി തരാൻ ചതുരം
പ്രമാദ വിധുരം ബാഹ്യ
വിചാരം പ്രാണിക്കാധികരം
കുളം പരക്കേ പായൽ കണക്കേ
ചിത്തത്തിൽ നിരക്കേ
വളർന്നൊരുൾക്കേടിനാൽ കനക്കേ
വ്യാമോഹം നിൽക്കേ
തെളിഞ്ഞൊരമൃതം കാണാഞ്ഞനൃതം
തോന്നീടാം ത്വരിതം
കിളർന്ന സുകൃതം കൊണ്ടതിൽ
നിഭൃതം മുങ്ങാമപരിമിതം
മുകുന്ദ! തൽ തേ പ്രണവ
സുമത്തേനൊഴുകും രൂപത്തെ
അഖണ്ഡ മൂർത്തേ! കാട്ടുക ചിത്തേ
നിരുപമ സുഖപൂർത്തേ!
(ധ്യാനിച്ചു കണ്ണടച്ചനങ്ങാതെ ഇരിക്കുന്നു)
(അണിയറയിൽ ബാലഗോപാലൻ)
അമ്മേ! അമ്മേ!
ചിൽപ്പൂരുഷങ്കലിളകാതമരുന്നൊരെൻന-
ല്ലുൾപൂപിടിച്ചുപിറകോട്ടുവലിപ്പതെന്തോ?
(മനസ്സിലാക്കീട്ടു്)
മൽപൂർവ്വ പുണ്യഫല ചന്ദനമല്ലി?
(തഴുകിക്കൊണ്ടു്…) പച്ച-
ക്കർപ്പൂരമല്ലി? (മുഖം നോക്കിക്കൊണ്ടു്)
… പനിനീർ പുതുപുഷ്പമല്ലി?

(പ്രകാശം) പൊന്മകനേ! (ചുംബിക്കുന്നു) (ബാലഗോപാലന്റെ മുഖം നോക്കിക്കൊണ്ടു്)
സ്ഫുടം ഹിമത്തുള്ളികൾ ചേർന്നു നിർഭരം
വിടർന്ന നൽചെങ്കമലം കണക്കിനേ
നടന്നു വെയിലേറ്റു
വിയർത്തൊരിക്കവിൾത്തടം
വിളങ്ങുന്നു വിശിഷ്ട ശോഭമായ്.
വെയിൽകൊണ്ടു തളർന്നുവല്ലോ മകനെ!

(ഉത്തരീയംകൊണ്ടു മുഖം തുടച്ചു വീണ്ടും ചുംബിക്കുന്നു)
ഇളം തളിർച്ചുണ്ടിതിൽമുത്തുതോറ്റ മ-
ഞ്ജുളസ്മിതംചേർന്ന മുഖേന്ദു സുന്ദരം
അളന്നു നൽക്കണ്മുനകൊണ്ടെനിക്കെഴും
വളർന്ന വാത്സല്യ സമുദ്രമൊക്കെയും!

(പ്രകാശം) ഇതെന്തൊരു മന്ദഹാസമാണു് പൊന്മകനെ!
ചെറുപുരികമിതിൽ
ചേർന്നെത്തിനോക്കുന്നൊരോമൽ-
ക്കുറുനിരകളിടംകൈത്തണ്ടായാൽ തട്ടിനീക്കി
നറുമലർ വിരൽകൊണ്ടിപ്പെൻസിൽ
കുത്തിപ്പിടിച്ചുൾ-
ത്തിറമൊടെഴുതി നന്നായോമലെൻ
നാമധേയം.

“കരാരവിന്ദേന പദാരവിന്ദം
മുഖാരവിന്ദേ വിനിവേശയന്തം”
അതിന്നപ്പുറം എന്താണമ്മേ! ഒരക്ഷരം പറഞ്ഞാൽ മതി.
വടസ്യ പത്രസ്യ പുടേ ശയാനം
ബാലം മുകുന്ദം മനസാ സ്മരാമി.
ഉണ്ണി! നിൻ മൃദുകഴൽക്കു ചേർന്ന ചെ-
മ്മണ്ണിവൾക്കു നവകുങ്കുമപ്പൊടി
വിണ്ണിലും സുഖമിതിൽ പരം കയൽ-
ക്കണ്ണിമാരനുഭവിപ്പതല്ലഹോ!

നാട്ടക്കുറഞ്ഞി—ചതുരശ്രജാതി ഏകതാളം.
എന്തറിഞ്ഞിതെന്നുണ്ണി
ഹന്തയെൻകണ്ണിലുണ്ണീ
അന്തരംഗത്തിലേതും
ചിന്തയാല്ലാതോമലുണ്ണീ (എന്ത)
അമ്മിഞ്ഞപോലെയെല്ലാമമ്മനൽകുമെന്നല്ലാ-
തെന്മകനുള്ളിലില്ലാ
നിർമലനോടെന്തുചൊല്ലാം (എന്ത)
പിച്ചയാൽ നാൾകഴിപ്പൂ
തുച്ഛയായ് ഞാനിരിപ്പൂ
മെച്ചപ്രഭു നടപ്പൂ പച്ചക്കുട്ടിയോർത്തുനിൽപ്പൂ.
(എന്ത)
എന്തുഞാൻ ചൊല്ലിടേണ്ടു
പിന്തുണയ്ക്കാരെക്കണ്ടു
എൻതനയനേ വീണ്ടുമുന്തിയങ്ങയച്ചീടേണ്ടു
(എന്ത)
ഭഗവൻ യശോദാനന്ദന!
നീലക്കാർവർണ്ണാ! നിന്നെ
ആലംബമാക്കിത്തന്നെ
ബാലനെൻ പുത്രൻതന്നെ
പാലനത്തിന്നേല്പിക്കുന്നെൻ.

പാഠശാല (ചെറിയ പാഠശാല)
(നാലു കുട്ടികൾ കൽപലകയിൽ എഴുതിക്കൊണ്ടിരിക്കുന്നു)
ഭൈരവി—ആദിതാളം
കേശിനിഷൂദന! കേശവ! ജനാർദ്ദന!
ക്ലേശവിനാശന! ശൈശവമോഹന!
കുണ്ഡലം, നൂൽ, മോതിരം,
സ്വർണ്ണജമാണിത്തരം
നിർണ്ണയം ചരാചരം കണ്ണ!
നിൻ ഖണ്ഡാകാരം
കാലിമേച്ചും നീയണിപ്പീലിധരിച്ചും ഫണി-
മേലിൽ കളിച്ചും
പ്രാണിപാലകന്മാർക്കഗ്രണി
ചേലിൽ നിന്നാജ്ഞയാലി
ബ്ബാലപാഠക ജോലി
നീലവർണ്ണ! നിൻകാലിലാളിടും ഭക്തി കൂലി!
(കേശി)
(ആസനത്തിലിരുന്നിട്ടു് പ്രകാശം)
എന്റെ കുട്ടികളെ! ഞാൻ പറഞ്ഞു തന്ന വാക്കുകൾ നിങ്ങൾ പുസ്തകത്തിൽ നോക്കി എഴുതിയോ?
(ആത്മഗതം അയ്യോ സാധുക്കുട്ടി!)
പൊടി പറ്റാത്ത പൈമ്പാലായ്
കുടികൊളളും മനോഗതം
വടിവിൽ പുറമേ കാട്ടും
സ്ഫടികക്കുപ്പിയാണിവൻ.

ഇവനെപ്പോലെ ദരിദ്രൻ ഈ കൂട്ടത്തിൽ ആരുമില്ല. (ബാലഗോപാലനെ നോക്കികൊണ്ടു്) എങ്കിലും
പരപ്പേറും മാറും, നിടിലവടിവും,
നൽപുരികവും,
പരപ്രേമം കാട്ടിച്ചെവികളോടിണങ്ങും
മിഴികളും,
സ്ഫുരൽ പ്രാഗത്ഭ്യം കാട്ടിടുമൊരു
ചുറുക്കും, നിലകളും,
നരപ്രൗഢത്വത്തെപ്പെറുമരിയ
ചിഹ്നങ്ങളിവനിൽ!

(പ്രകാശം) കുഞ്ഞെ! ബാലഗോപാല! നീ ഇപ്പോൾ കഞ്ഞികുടിച്ചാൽ മതി. അമ്മ തന്നെ നിനക്കുവഴിയെ ചോറു തന്നുകൊള്ളും.വായിക്കൂ!
“കരാരവിന്ദേന പദാരവിന്ദം
മുഖാരവിന്ദേ വിനിവേശയന്തം;
വടസ്യ പത്രസ്യ പുടേ ശയാനം
ബാലം മുകന്ദം മനസാ സ്മരാമി.”
“സുഹൃത്യ ലോകാൻ വടപത്ര മദ്ധ്യേ
ശയാനമാദ്യന്തവിഹീനരൂപം;
സർവേശ്വരം സർവഹിതാവതാരം
ബാലം മുകുന്ദം മനസാ സ്മരാമി.”!
“ആലോക്യമാതുർമുഖമാദരേണ
സ്തന്യം പിബദ്ധം സരസീരുഹാക്ഷം!
സച്ചിന്മയം ദേവമനന്തരൂപം
ബാലം മുകുന്ദം മനസാ സ്മരാമി.”
“ശിക്യേ നിധായാജ്യ പയോദധീനി
കാര്യാൽ ഗതായാ വ്രജനായി കായാം;
ഭുക്ത്വാ യഥേഷ്ടം കപടേ ന സുപ്തം
ബാലം മുകുന്ദം മനസാ സ്മരാമി.”
(അണിയറയിൽ)
പ്രാതഃസ്നാനം കഴിച്ചങ്ങുദയഗിരിവിയ-
ന്മദ്ധ്യപീഠങ്ങളേറി
പ്രീതൻ സന്മാർഗ്ഗ പാഠം കനിവൊടു നിഖില-
പ്രാണി ശിഷ്യർക്കു നല്കി
ചൈതന്യം കാട്ടി ശിഷ്യ വ്രജമൊടുമനുരാ-
ഗത്തൊടും യാത്രചൊല്ലി-
പ്പൂതൻ പോകുന്നു സായന്തനവിധികൾ നട-
ത്തീടുവാൻ വേദമൂർത്തി!

ഹിന്തുസ്ഥാനി തോടി—ചതുരശ്രജാതി ഏകതാളം.
കോമളൻ ഗോപികാമുകൻ ശ്യാമളൻ
സർവ്വതോമുഖൻ
പ്രേമ പീയൂഷവർഷം ചെയ്തു
ജാതരോമഹർഷം
കാമിതം നൽകി ദോഷം തീർത്തു
കാത്തു കൊൾക ഞങ്ങളെ.(കോമളൻ)
“കളവേണുരവഃ കളായനീലഃ
കമലാ ചുംബനലമ്പടേതിരമ്യഃ
അളി പോത ഇവാരവിന്ദമദ്ധ്യേ
രമതാം മേ ഹൃദി ദേവകീ കിശോരഃ”
കായാമ്പൂനിറം പോലെ ദേഹകാന്തിയുള്ളവനും കയ്യിൽ മുരളി പിടിച്ചൂതി പാട്ടു പാടുന്നവനും സമ്പൽസ്വരൂപിണിയായ ലക്ഷ്മീ ഭഗവതിയെ ലാളിപ്പാൻ അതിസമർത്ഥനും ദേവകീ ദേവിയുടെ ഓമനത്തമ്പാനും ആയ ഭഗവാൻ ശ്രീകൃഷ്ണൻ താമരപ്പൂവിന്റെ നടുവിൽ വണ്ടിൻകുട്ടി എന്ന പോലെ എന്റെ—എന്നു മാത്രമല്ല നിങ്ങളുടേയും മനസ്സിൽ കളിച്ചു കൊണ്ടിരിക്കട്ടെ.
(എല്ലാവരും ശാന്തരായി നിൽക്കുന്നു).
(എല്ലാവരും പോയി)
ഭയനിവാരണം
(ഒരു ചെറിയ കാടു്)
ഹിന്ദുസ്ഥാനി ചെഞ്ചുരുട്ടി—ചതുരശ്രജാതി ത്രിപട
ആകാശം ചുകന്നു മേന്മേൽ—ആകമാനമേ.
ആകാ നോക്കാൻ കണ്ണറച്ചു
പോക കൊണ്ടുമേ (ആകാ)
പച്ചയില കുറഞ്ഞു, തെച്ചിക്കാടു വിരിഞ്ഞു
മെച്ചമാം പൂ നിറഞ്ഞു, മിന്നുംപോലെ (ആകാ)
ചെങ്കുന്നിക്കുരു വീട്ടിൽ അങ്കണത്തിങ്കൽകൂട്ടി
ഞാൻകളിക്കുന്ന മട്ടിൽ ഭംഗികാട്ടി. (ആകാ)
ആകാശം കാൺമാൻ നല്ല ഭംഗിയുണ്ടു്. (നാലുഭാഗവും നോക്കിക്കൊണ്ടു്) നാലുപാടും നോക്കുമ്പോൾ അയ്യോ! പേടിയാകുന്നു. (വീണ്ടും പടിഞ്ഞാറു് നോക്കിക്കൊണ്ടു്) ഹാ! ഹാ! ഇതാ സൂര്യനെ കാണുന്നു.
അടിച്ചമ്മവീട്ടിൽ പുലർച്ചക്കഗണ്ഡം
വടിച്ചുള്ള നൽപ്പിച്ചളക്കൊച്ചുകിണ്ണം
പടിഞ്ഞാറ്റയിൽ ചാരിവെച്ചുള്ള വണ്ണം
പടിഞ്ഞാറു സൂര്യൻ വിളങ്ങുന്നു തിണ്ണം

സൂര്യൻ താണുതാണു പോയ്ത്തുടങ്ങി. അതുനോക്കിക്കൊണ്ടിരിക്കുമ്പോൾ പേടിയാകുന്നു. (അണിയറയിൽ കാക്ക കരയുന്നു).
(മേല്പോട്ടു് നോക്കീട്ടു്) കാക്കകൾ ഇതാ പാറി അവരവരുടെ കൂടുകളിലേക്കു പോകുന്നു. ഇതാ ചെറിയ പക്ഷികൾ.
ഇടക്കിടേ ചലചലനെച്ചിലച്ചുപ-
ച്ചടക്കപോൽ ചെറുവുടലാണ്ട പക്ഷികൾ
മടക്കമായവരവർ വീട്ടിലേക്കിരു-
ട്ടടയ്ക്കുമേ മിഴികളെയെന്ന പേടിയാൽ!

ഞാനും വേഗം നടക്കട്ടെ! (ചുറ്റും നോക്കീട്ടു്) അയ്യോ! ഞാനിപ്പോൾ ഈ കാട്ടിൽ എത്തീട്ടേയുള്ളു. പകൽവെളിച്ചം ഈ കാട്ടിൽ നന്നേക്കുറഞ്ഞുവല്ലോ!
ഹിന്ദുസ്ഥാനി തോടി—ചതുരശ്രജാതി ത്രിപട
വഴികാണാതാകുമേ—വേഗം പോകാമേ
ഊഴിയുള്ളിങ്കൽ വല്ലാതുഴറ്റീടുമിരുളല്ലാ-
തില്ലെന്നായ് വരുമല്ലൽ കൈവരും
മെല്ലേ ചെല്ലുകിൽ (വഴി)
(വേഗം നടന്നുകൊണ്ടു്). അയ്യോ! ഇരുട്ടു് എത്തിപ്പോയി.
ഹതപ്രഭം പരമിരുളാം കരിമ്പട-
പ്പുതപ്പിനെ വിപിനതലം ധരിക്കയാൽ
ഹിതപ്രദം ജനനികരം കണക്കിനേ
ധൃതഭ്രമം പെരുവഴി തപ്പിടുന്നു ഞാൻ

(വീണ്ടും വേഗം നടക്കുന്നു.)
(അണിയറയിൽ കുറുക്കൻ കരയുന്നു.)
ബിഹാക്ക്—ചതുരശ്രജാതി ത്രിപട
പാരം പേടി വളരുന്നുമേ
വന്നെന്മേൽ ഒന്നമ്മെയ്യൂന്നമ്മേ! (പാരംപേടി)
ചാടി ഞാനെങ്ങിനെ കാടിതിൽതാനേ
ചടചട പാഞ്ഞിടേണ്ടു! (പാഞ്ഞുനിന്നിട്ടു്)
തടയുന്നു മുള്ളുകൊണ്ടു്.
(മുള്ളുപറിച്ചെടുക്കുന്ന സമയം ഇലകൾ അനങ്ങുന്ന ശബ്ദം കേട്ടിട്ടു്)
തേടിക്കൊണ്ടു് കൂടെയൊന്നുണ്ടു
(അണിയറയിൽ ക്രൂ ക്രൂ)
അരണ്ടു മുറണ്ടു
(പാരം പേടി)
(രണ്ടുവട്ടം പാഞ്ഞുനിന്നിട്ടു്)
എന്റെ ജ്യേഷ്ഠൻ ഈ കാട്ടിൽ ഉണ്ടെന്നു് അമ്മ പറഞ്ഞുവല്ലൊ.
(അണിയറയിൽ പിന്നേയും കുറുക്കൻ കരയുന്നു).
അയ്യോ! പേടിയാകുന്നു! അയ്യോ! പേടിയാകുന്നു! ജ്യേഷ്ഠാ! എന്റെ പശു മേയ്ക്കുന്ന ജ്യേഷ്ഠാ! എനിക്കു പേടിയാകുന്നു.
(എന്നു ചാടിപ്പോകുന്നു.)
പശ്ചാത്താപം
(ഒരു ചെറിയ വീട്ടിലെ ഉമ്മറം).
ശങ്കരാഭരണം—ചതുരശ്രജാതി രൂപകം
കരുണാകര! കഞ്ജലോചന! നരക മഥന! (കാരുണാ)
സാരസാസനസേവ്യമാന!
ശാരദശശി ചാരുവദന! (കരുണാ)
ശരണാഗത ശോകഹരണ!
പരമഗതി നിൻ പാദതാരിണ
ശാന്ത മൃദുളഹാസ!
ബാണദർപ്പശമന സർപ്പശയന! (കരുണാ)
(എഴുന്നേറ്റു് കിഴക്കു നോക്കീട്ടു്) ഓഹോ! നേരം നാലുനാഴിക പുലർന്നു. ഓമനത്തമ്പാനെ എഴുത്തുപള്ളിക്കു പറഞ്ഞയക്കാറായി. പുസ്തകവും കൽപലകയും കെട്ടിവെക്കട്ടെ! (അങ്ങിനെ ചെയ്തിട്ടു്) എന്റെ തമ്പാൻ കഞ്ഞികുടിച്ചു് എവിടെ പോയി? (വിളിക്കുന്നു) തമ്പാനേ! ഓമനത്തമ്പാനേ!
ഗുൽറോജ—ചതുരശ്രജാതി ത്രിപട
ഇന്നാണിവനൊരുത്സവം അമ്മേ! (ഇന്നാ)
ഇന്നു വാഴനല്ലിളം കന്നുപെറ്റു കോമളം
നന്നു കാൺമോളം,
കൊടുക്കുന്നു ഞാൻ വളം! (ഇന്നാ)
ഉണ്ണി! വരികെന്നോമനേ!
വെണ്ണതോറ്റ കയ്യിനെ മണ്ണിലാഴ്ത്തിയിങ്ങിനേ
ദണ്ഡിക്കായ്കയെന്നാർത്തിനണ്ണുന്നെങ്ങിനെ
(ഉണ്ണി)
അച്ചിവാഴ നീയമ്മേ! കൊച്ചുവാഴ
ഞാൻ ചെമ്മേ
മെച്ചമിസ്സുഖമൊരുമിച്ചു വന്നു മേ! (ഇന്നാ)
ശരിയാണു് പൊന്മകനെ!
അച്ചിവാഴയുടെ മടിയിൽ
കൊച്ചുവാഴ ഇരിക്കും പോലെ
ഏന്മടിയിലിക്ഷണം പൊന്മകനിരിക്കണം
നന്മയിൽ പുണർന്നിവളുമ്മവെക്കണം. (ഉണ്ണി)
ഹരിരതി, മമ ഭർത്തൃപ്രേമ,മീവൃത്തിരണ്ടിൻ
പരിണതിയിലുദിച്ചു പാവനം രണ്ടുരൂപം.
കരിമുകിലൊളിവർണ്ണൻ കണ്ണനാണെന്നു,മറ്റി-
പ്പരിമള ശിശിര ശ്രീചന്ദനം നന്ദനൻ നീ!
(കുടുമ്മ മിനുക്കിക്കെട്ടുന്നു)

(പ്രകാശം) മകനേ! എഴുത്തുപള്ളിക്കു പോകാറായില്ലെ?
ഇടയച്ചെറുക്കരുടെ കണ്ണിനുത്സവ-
ച്ഛടയാക്കിവെച്ച തവ ദിവ്യവിഗ്രഹം
കടൽ വർണ്ണ!
മത്സുതനുമൊന്നുകാണുവാനി-
ടയാക്കിടാഞ്ഞതുകടുപ്പമല്ലയോ?കൃഷ്ണ!

(ഞെട്ടിക്കരഞ്ഞുകൊണ്ടു്) അല്ലെങ്കിൽ എന്തിനു അങ്ങയോടു പരിഭവം പറയുന്നു? അങ്ങയെ കാണണമെന്നു് എന്റെ മകനെ ധരിപ്പിക്കാത്തതു് എന്റെ കുറ്റമല്ലേ?
“യാദൃശീ ഭാവനാ യസ്യ തസ്യ സിദ്ധിസ്തു താദൃശീ” എന്നല്ലേ മഹദ്വചനം?
(പാന)
സീമവിട്ടു സമാധിയിലെന്നെനീ
സോമശീതളയാക്കുന്ന പൂമേനി
താമരക്കണ്ണ! കാട്ടേണമേ കനി-
ഞ്ഞോമനക്കു ധ്രുവന്നെന്നപോലിനി.

(തിരശ്ശീല വീഴുന്നു)
ഭഗവൽ പ്രത്യക്ഷം
(ഒരു ചെറിയ കാടു്)
(ബാലഗോപാലൻ പുസ്തകക്കെട്ടു് കക്ഷത്തിൽതാങ്ങിപ്പിടിച്ചു് ഉത്സാഹത്തോടെ ചാഞ്ചാടി പ്രവേശിക്കുന്നു).
“ഉലൂഖലേ ബദ്ധമുദാരചൗര്യ-
മുത്തുംഗ യുഗ്മാർജ്ജുന ഭംഗലീലം
ഉൽഫുല്ല പത്മായത ചാരുനേത്രം
ബാലം മുകുന്ദം മനസാ സ്മരാമി.”

ഈ ശ്ലോകം നല്ല രസമുണ്ടു്! (വീണ്ടും ചൊല്ലിച്ചാഞ്ചാടി നടന്നിട്ടു്).
ഇതിന്റെ അർത്ഥം അമ്മപറഞ്ഞുതന്നുവല്ലൊ! ശ്രീകൃഷ്ണൻ വെണ്ണയും പാലും കട്ടുതിന്നു. അതുകൊണ്ടു് അമ്മ ശ്രീകൃഷ്ണനെ ഉരലോടു പിടിച്ചു കെട്ടി—അതെ! കക്കുന്ന കുട്ടിയെ അമ്മ പിടിച്ചുകെട്ടുകയില്ലേ? എന്നിട്ടോ ശ്രീകൃഷ്ണൻ പോക്കിരി! അമ്മേ! ഗജപോക്കിരി!! ഉരലോടുകൂടി ഉരുണ്ടു പിരണ്ടു ഏഞ്ഞു വലിഞ്ഞു പോയി രണ്ടു വലിയ മരുതുമരങ്ങളുടെ ഇടയിൽക്കൂടി ഉരൽ തിക്കിവലിച്ചു. അപ്പോൾ അതാ, മരങ്ങൾ: വലിയ തൊണ്ടു മരങ്ങൾ!! ഠീം. ഠീം. പൊട്ടിവീഴുന്നു! (കൈകൊട്ടി ചിരിച്ചും കൊണ്ടു്) ഹാ! ഹാ! രസം തന്നെ! ബഹുരസം. എന്നിട്ടോ, ശ്രീകൃഷ്ണന്റെ മേൽ ഒന്നും വീണതുമില്ല! അതല്ലെ സൂത്രം? അങ്ങനെയാണു് വേണ്ടതു്. “ബാലം മുകുന്ദം മനസാ സ്മരാമി”
(വീണ്ടും ചാഞ്ചാടി നോക്കിനിന്നിട്ടു്) ഇതാ! ജ്യേഷ്ഠൻ പശുക്കളെ മേയ്ക്കുന്ന കാടല്ലെ ഇതു്! (അണിയറയിൽ മധുര സ്വരം).
(കേട്ടതായി നടിച്ചു്) ഒരു പാട്ടു കേൾക്കുന്നുണ്ടല്ലോ? അമ്മ പറഞ്ഞില്ലേ ജ്യേഷ്ഠന്നു പാട്ടറിയാമെന്നു് (വീണ്ടും അണിയറയിൽ മധുര സ്വരം).
തോടി—ചതുരശ്രജാതി ത്രിപട
പാട്ടു കേൾക്കാറായി
പവിത്രനഗ്രജനുടെ പാട്ടുകൾ കേൾക്കയായ്
ശരി ജ്യേഷ്ഠന്നു് ഒരു ഓടക്കുഴലും ഉണ്ടു്. അമ്മ പറഞ്ഞില്ലേ! (അണിയറയിൽ വീണ്ടും മധുര സ്വരം).
പാട്ടു കേള്‍ക്കയായ്
പരമസുഖം തരുമെൻ പവിത്രനഗ്രജനുടെ (പാട്ടു)
ഓടക്കുഴലൂത്തിതു കൂടെക്കൂടെകേൾപ്പിതു?
ചാടിച്ചെന്നു ഞാനങ്ങതു
മേടിച്ചിടാം ചൊല്ലാം വാതു. (പാട്ടു)
(ഒരു ഓട്ടം ഓടി മേൽപോട്ടു നോക്കീട്ടു്) ഇവിടെ നിന്നു നല്ല വണ്ണം കേൾക്കുന്നുണ്ടു്. (വീണ്ടും നോക്കീട്ടു്) ഇതാ! ഈ മരത്തിന്റെ മുകളിൽ നിന്നാണു് ജ്യേഷ്ഠൻ പാട്ടു പാടുന്നതു്. (സൂക്ഷിച്ചു നോക്കിക്കൊണ്ടു് വ്യസനത്തോടെ) അയ്യോ! ജ്യേഷ്ഠനെ ഇവിടെ കാണുന്നില്ലല്ലോ! (അണിയറയിൽ വീണ്ടും മധുര സ്വരം). പാട്ടിതാ പിന്നെയും കേൾക്കുന്നു! ജ്യേഷ്ഠൻ ഈ മരത്തിന്മേൽ ഇലകളിൽ ഒളിച്ചു നില്ക്കുന്നുണ്ടു്. ഞാൻ കണ്ടുപിടിക്കട്ടെ! (വീണ്ടും മേല്പോട്ടു നോക്കി വ്യസനിച്ചുകൊണ്ടു്) ഓ! ഈ പാട്ടു പാടുന്നതു് ഒരു കുയിലാണു്. ജ്യേഷ്ഠൻ ഇവിടെ ഇല്ല. (വീണ്ടും വ്യസനിച്ചു മുമ്പോട്ടു നോക്കി പരിഭ്രമത്തോടെ) ഉണ്ടു്, അതാ അങ്ങു ദൂരെ അതാ! കാലികളുടെ കൂട്ടത്തിൽ ഒരു പീലിമുടി കാണുന്നു. ജ്യേഷ്ഠന്നു് പീലിക്കിരീടമുണ്ടെന്നു അമ്മ പറഞ്ഞില്ലേ? (അണിയറയിൽ ചിലമ്പിന്റെശബ്ദം) ഉണ്ടു്, കാൽച്ചിലമ്പിന്റെ ഒച്ചയും കേൾക്കുന്നുണ്ടു്.
കാലിൽ ചിലമ്പുകളണിഞ്ഞു
കൊണിഞ്ഞു കൊഞ്ചി
കാലിക്കിടാങ്ങളുമൊത്തു കളിക്കയാവാം.
നീലിച്ചു കാണ്മതിതു കാലികൾ തന്നിടക്കായ്
പീലിക്കിരീട,മതിനില്ലൊരു സംശയം മേ.

ഇനിയൊരു ചാട്ടം ചാടിയാൽ അടുത്തു കാണാം. (ചാടി പോയിട്ടു്) ജ്യേഷ്ഠൻ എവിടെ? (പരിഭ്രമത്തോടെ) ജ്യേഷ്ഠൻ എവിടെ? ഓ, ഇല്ല. ഇവിടെയും ഇല്ല. കാലികളുടെ കൂട്ടത്തിൽ ഈ മയിലിനെയാണു് ഞാൻ ദൂരെനിന്നു കണ്ടതു്. ചിലമ്പിന്റെ ഒച്ച കേട്ടുവല്ലോ! (അല്പം ചുറ്റി നടന്നു മറുഭാഗത്തേക്കു് നോക്കീട്ടു്) ഓ ഹൊ! ഇതാ ഒരു താമരക്കുളം! ഇതിൽനിന്നാണു് ചിലമ്പിന്റെ ഒച്ച കേൾക്കുന്നതു്. ജ്യേഷ്ഠൻ ഇവിടെയുണ്ടു്. തുള്ളിത്തുള്ളിക്കളിക്കുകയാണു്. ഞാൻ ചെന്നുനോക്കട്ടെ! (ചുറ്റി നടന്നു് നോക്കീട്ടു്) വ്യസനത്തോടെ ഇല്ല; ഇവിടെയും ഇല്ല.
ചെലം ചെലം ചെഞ്ചലമെന്നഹോ പൊൻ-
ചിലമ്പൊലിക്കൊത്തരയന്നമത്രേ
സ്ഥലംപിടിച്ചിക്കമലങ്ങളിൽ പോ-
യ്ക്കലമ്പു കൂട്ടുന്നതു ചേട്ടനല്ല.
ഈ താമരക്കുളത്തിന്റെ മരണത്തിന്റെയും ഈ കുറ്റിക്കാടുകളും എനിക്കു കളിപ്പാൻ നല്ല സ്ഥലമായിരുന്നു. കഷ്ടം, ജ്യേഷ്ഠനില്ലാതെ ഞാൻ എങ്ങിനെ കളിക്കും? ഇനിയും ഞാൻ എന്റെ ജ്യേഷ്ഠനെ കണ്ടില്ലല്ലോ! (വ്യസനിച്ചു വീണ്ടും ദൂരെ നോക്കി പരിഭ്രമത്തോടെ) ജ്യേഷ്ഠനല്ലേ ഈ താമരക്കുളത്തിന്റെ അങ്ങേക്കരെയിൽ അങ്ങു ദൂരത്തു ആകാട്ടിൽ നില്ക്കുന്നതു്? അതെ, സംശയമില്ല.
കല്യാണി—ചതുരശ്രജാതി ത്രിപട.
കണ്ണിണക്കെന്തു കൗതുകം കൂടക്കൂടെ മമ (കണ്ണിണ)
വെൺനിലാവിൻ കൊഴുപ്പും
വണ്ണിക്കുമിത്തണുപ്പും
വർണ്ണവുമമ്മ പറഞ്ഞിതു, മഞ്ജിമ
നണ്ണുകിലണ്ണനതാണു ദൃഢം മമ (കണ്ണിണ)
കുശലമേകുമിവനെ കൂറെഴും ജ്യേഷ്ഠൻ നന്നെ
കുളിരെഴും കരം നീട്ടിക്കൊണ്ടു തന്നെ
കുതുകമാർന്നിതാ താനെ കുഞ്ഞനുജനാമെന്നെ
കൂടക്കൂടെവിളിക്കുന്നു കൂടെച്ചേർന്നുകൂടാം ചെന്നു.
പാടിയുമാടിയുമോടിയുമിങ്ങനെ. (കണ്ണിണ)
(വീണ്ടും ദീർഘമായി ഒരു ഓട്ടം ഓടി നാലു ഭാഗവും നോക്കി പരിഭ്രമത്തോടെ) ജ്യേഷ്ഠൻ എവിടെ? ജ്യേഷ്ഠൻ എവിടെ? അയ്യോ കഷ്ടം! നീലവർണ്ണമായിക്കണ്ടതു് ഈ കായാമ്പൂക്കളേയാണു്. കാറ്റത്താടുന്ന ഇല്ലിക്കൊമ്പുകളെയാണു് ജ്യേഷ്ഠന്റെ കൈകൾ എന്നു് എനിക്കു തോന്നിപ്പോയതു്. അയ്യോ! ഞാനോടിയോടി നന്നെ തളർന്നുവല്ലൊ. (കരഞ്ഞു കൊണ്ടു്) അമ്മ പറഞ്ഞില്ലേ ഇന്നു് തീർച്ചയായും ജ്യേഷ്ഠനെ കാണുമെന്നു്! (ഞെട്ടി ഞെട്ടിക്കരഞ്ഞു നിലവിളിച്ചുംകൊണ്ടു്) ജ്യേഷ്ഠാ! എന്റെ പശുമേക്കുന്ന ജ്യേഷ്ഠാ!
ആനന്ദഭൈരവി—തിസ്രജാതിത്രിപട.
പഴുതെ നിൽപ്പതെന്തെൻ പൊന്നുണ്ണി! കഷ്ടം!
ഉഴന്നിങ്ങിനെ ഭയംനണ്ണി?
മുഴുത്തുപോയ് വെയിൽ ഘോരം
എഴുത്തുപള്ളിയോ ദൂരം
പഴുത്തപൂഴി സഞ്ചാരം കഴൽനീറ്റും പാരം (പഴുതെ)
പഴുതെ നില്ക്കയല്ല കാർവ്വർണ്ണ! നിന്നെ
തഴുകേണമൊരുക്കുറി കണ്ടുഞാനണ്ണാ!
ഒഴുക്കി നീ മൊഴിപ്പാലെ
അഴലാറ്റി നിനിക്കാലെ
മിഴികൾക്കഞ്ജനം ചാലേ പൊഴിക്കുടലാലെ (പഴുതേ)
അനുജാ! മാതൃശാസനം
നിനച്ചപോകയന്യൂനം
ജനനീ ശാസനം നൂനം തനയർക്കുമാനം (പഴുതെ)
(ശ്രീകൃഷ്ണപാദാദികേശസ്തവം)
19. കാലിണക്കരിയ പൊൻചിലമ്പരയി-
ലോലുമക്കനകനൂലുതൻ-
മേലിടഞ്ഞ ഘനകിങ്കിണി ക്വണിതി
കോലുമക്കനക ചേലയും
ചേലിയന്ന തിരുമാറിൽ മുത്തുമണി-
മാലയും പുലി നഖങ്ങൾ പൊൻ-
താലിയും തുളസിമാലയും വിലസി-
ഞേലുമച്ഛ വനമാലയും.
20. മാലകറ്റുമിരുകൈകളിൽ കനക-
കങ്കണം കലിതരിംഘണം
കാലിമേയ്ക്കുമൊരു കോലുമിക്കരള-
ലിച്ചിടും മുരളിനാളിയും
നീലമേഘ തിരുമെയ്ക്കു പൃഷ്ഠമര-
യോളമാളുമതികാളിമ-
ശ്രീലസച്ചികുരജാലവും ഭ്രമര-
ലോലയാം കുസുമമാലയും.
21. കർണ്ണലംബിമണിമണ്ഡിതം മകര-
കുണ്ഡലം തടവിടുന്ന നിൻ
ഗണ്ഡലക്ഷ്മിയുമുയർന്ന രമ്യതര-
നാസയുംമധുരഹാസവും
പുണ്ഡരീക നയനങ്ങളും പ്രകൃതി-
സുന്ദരം പുരികഭംഗിയും
ഖണ്ഡ ചന്ദ്രനിടിലസ്ഥലീ വിലസ-
ദൂർദ്ധ്വപുണ്ഡ്രപരിശോഭയും.
22. പൂർണ്ണചന്ദ്രമുഖകാന്തി തന്നുപരി-
നീന്തിമിന്നുമതി മഞ്ജുളം
ചൂർണ്ണകുന്തള വിലാസവും മണി-
സുവർണ്ണസുന്ദരകിരീടവും
താണ്ഡവത്തിലതിഘൂർണ്ണമാനമകു-
ടാഗ്രപിഞ്ഛനിരയും സമുൽ-
ഗീർണ്ണധാമവുമിയന്ന കോമളക-
ളായ മേനി കണികാണണം.
(തിരശ്ശീല പതുക്കെപ്പതുക്കെ പൊങ്ങിത്തുടങ്ങുന്നു).
(അണിയറയിൽ അച്യുതാനന്ദ ഗോവിന്ദ! അച്യുതാനന്ദ ഗോവിന്ദ! എന്നു് നാമസങ്കീർത്തനവും ശംഖനാദവും പെരുമ്പറനാദവും മുഴങ്ങുന്നു.)
(അണിയറയിൽ പെരുമ്പറനാദം, ശംഖനാദം, പുഷ്പവർഷം, നാമ സങ്കീർത്തനം)
അച്യുതം കേശവം രാമനാരായണം
കൃഷ്ണദാമോദരം വാസുദേവം ഭജേ
ശ്രീധരം മാധവം ഗോപികാവല്ലഭം
ജാനകിനായകം രാമചന്ദ്രം ഹരിം (1)
അച്യുതം കേശവം സത്യഭാമാധവം
മാധവം ശ്രീധരം രാധികാരാധനം
ഇന്ദിരാമന്ദിരം തേജസാ സുന്ദരം
ദേവകീ നന്ദനം നന്ദജം സന്ദധെ (2)
വിഷ്ണവേ ജിഷ്ണവേ ശംഖിനെ ചക്രിണേ
രുഗ്മിണീ രാഗിണേ ജാനകീജാനയേ
വല്ലവീ വല്ലഭായാജിതായാത്മനേ
കംസവിദ്ധ്വംസിനേ വംശിനേ തേ നമഃ (3)
കൃഷ്ണ! ഗോവിന്ദ! ഹേ രാമ!നാരായണ
ശ്രീപതേ വാസുദേവാച്യുത! ശ്രീനിധേ!
അച്യുതാനന്ദ! ഹേ മാധവാധോക്ഷജ!
ദ്വാരകനായക! ദ്രൗപതിരക്ഷക! (4)
രാക്ഷസക്ഷോഭിതസ്സീതയാശോഭിതോ
ദണ്ഡകാരണ്യപുണ്യതാകാരണം
ലക്ഷ്മണനാന്വിതോ വാനരൈസ്സേവിതോ-
ഗസ്തിനാപൂജിതോരാഘവഃ പാതു മാം (5)
ധേനുകാരിഷ്ടകാനിഷ്ട കൃദ്വേഷിണാം
കേശിഹാ കംസഹൃദ്വംശികവാദകഃ
പൂതനശോഷകഃ സൂരജാഖേലനോ
ബാലഗോപാലകഃ പാതു മാം സർവ്വദാ. (6)
വൈദ്യുതദ്യോതസാ സംസ്ഫുരദ്വാസസാ
പ്രാവൃഡംഭോദവൽപ്രോലസദ്വിഗ്രഹം
വൈജയന്തീപ്രഭാ ശോഭിതോരഃസ്ഥലം
ലോഹിതാംഘ്രിദ്വയം വാരിജാക്ഷം ഭജേ (7)
കുഞ്ചിതൈഃ കുന്തളൈർഭ്രാജമാനാനനം
രത്നമൗലിം ലസൽകുണ്ഡലം ഗണ്ഡയോഃ
ഹാരകേയൂരിണം കങ്കണ പ്രോജ്വലം
കിങ്ങിണീമഞ്ജുളം ശ്യാമളം ഭാവയെ (8)

പ്രത്യക്ഷം.
(രണ്ടു ഉപനിഷൽദേവിമാരുടെ മധ്യത്തിൽ ഉയർന്ന നിലയിൽ വലത്തേക്കാൽ പിണച്ചുവെച്ചും കിരീട കുണ്ഡലാദ്യലങ്കാരങ്ങളോടുകൂടി ഭ്രൂവിക്ഷേപത്തോടും, ഓടക്കുഴലൂതിക്കൊണ്ടു് ഭഗവാൻ പ്രത്യക്ഷപ്പെടുന്നു).
ഉപനിഷൽദേവിമാർ (സ്തുതിക്കുന്നു)
ചെഞ്ചുരുട്ടി ചതുരശ്രജാതി ത്രിപട
ജയജനാനന്ദന! നന്ദനന്ദന!
ജയജയ ജനാർദ്ദന! ജലജവിലോചന!
ജനിമൃതിഭയമോചന! കൃഷ്ണ! (ജയ)
അകലുഷജനപ്രിയ! സകലജഗദാശ്രയ!
സകലവിഗ്രഹ ചിന്മയ! കൃഷ്ണ! (ജയ)
(സ്തുതി കഴിഞ്ഞു ദേവിമാർ മറയുന്നു)
(ഭഗവാൻ ചുറ്റും നോക്കി വീഴാൻ ഭാവിക്കുന്ന ബാലഗോപാലനെ പെട്ടെന്നു കണ്ടു ഞെട്ടി, തുള്ളിച്ചാടി എടുത്തു മടിയിൽ ഇരുത്തി ഇടങ്കയ്യിൽ താങ്ങി വലം കൈകൊണ്ടു് ചിംബുകം പിടിച്ചു ചുംബിച്ചുകൊണ്ടു്)
കാമാശി—തിസ്രജാതി ത്രിപട
എന്നോമലനുജ! ബാല! മോഹനശീല!
(എന്നോമൽ)
വന്നു ഞാനിതാ! ലോലസുന്ദരമിഴിലീല!
മന്ദഹാസമഞ്ജുള! തന്നാലുംസുകപോല!
(എന്നോമൽ)
(വീണ്ടും ചുംബിക്കുന്നു)
ശങ്കരാഭരണം—ചതുരശ്രജാതി ത്രിപട,
കണ്ടുതേ കണ്ടുതേ!
കാരുണ്യാമൃതക്കടലാമെന്നഗ്രജനെ
(കണ്ടുതേ)
പണ്ടമ്മപറഞ്ഞതിലുമധികമോടി
പൂണ്ടുകാണ്മൂ കുതുകം വിലസുംപടി
(കണ്ടുതേ)
(വീണ്ടും വീണ്ടും ഭഗവാനെ ആലിംഗനം ചെയ്യുന്നു)
(ഭഗവാനെ കെട്ടിപ്പിടിച്ചുകൊണ്ടു്)
ഭാഗ്യമേ ഭാഗ്യമേ!
ഭുവനമോദനം മൃദുഭജംകൊണ്ടിപ്പരിഷ്വംഗം
(ഭാഗ്യമേ)
ശ്ലാഘ്യയാം ജനനിതന്നാനുജ്ഞയാൽ നാം
ഭാഗ്യവാരിധികളായ് ഗുണശോഭന!
(ഭാഗ്യമേ)

(വീണ്ടും കെട്ടിപ്പിടിക്കുന്നു)
അളിച്ചാർത്തുവർണ്ണ! ജ്യേഷ്ഠ! വെറുതെകാട്ടി-
ലൊളിച്ചു നീയിതുവരെ കഴിച്ചുകൂട്ടി
വെളിച്ചത്തു വരാനെത്ര കുഴപ്പംകൂട്ടി!
കിട്ടി ഞാനര മിനുട്ടു വിടില്ലിനി. (കണ്ടുതേ)
(ചാടി പിന്നെയും കെട്ടിപ്പിടിക്കുന്നു)
ഒളിച്ചുഞാനിരിക്കുന്നില്ലൊരുദിക്കിലും
വെളിച്ചത്തും കളിപ്പൂ ഞാനിരുട്ടിങ്കലും
വിളിച്ചുള്ള വിളിപോലെന്നനുജങ്കലും
വന്നുഞാനിതാ! തരുന്നു ഹിതം തവ (ഭാഗ്യമേ)
(വീണ്ടും ആലിംഗനം ചെയ്തു മാറിൽ മുത്തുന്നു)
കല്യാണി—ചതുരശ്രജാതി ത്രിപട
കിട്ടിപ്പോയ്, കിട്ടിപ്പോയ്, കളകളരവമെഴും
ലളിത മുരളിയിതു. (കിട്ടിപ്പോയി)
തിത്തിത്തൈ തിത്തിത്തൈ
ധിമിതരികിട ധിമിതരികിട ധിമിധിമി (കിട്ടി)
(നൃത്തം വെക്കുന്നു.)
അകന്മഷമകൃത്രിമപ്രണയമെങ്കിലിബ്ബാലകൻ
പകർന്നുപരമാത്ഭുതം
പരിണതാത്മപുണ്യങ്ങളാൽ
പുകൾന്ന പുരുഷാർത്ഥചിദ്ര
സരസായനം പാവനം
നുകർന്നു, തുടരുന്നൊരിന്നടന
മാണെനിക്കുത്സവം.

ആഹ്ളാദം പരമാഹ്ളാദം.
തളിർത്ത കാട്ടിൽ പ്രിയപൂർവ്വജൻപോ-
ലൊളിച്ചുപാട്ടിക്കുഴലിങ്കൽ നിൽപൂ!
വിളിച്ചനേരത്തു പുറത്തുചാടി-
ക്കളിക്കയായ് ജ്യേഷ്ഠനുമൊത്തപാട്ടും.

സ്വമാതൃമാർഗ്ഗം സവികല്പമിന്നി-
ക്കുമാരനേ കാട്ടി മദീയരൂപം
ക്രമാൽ കരേറാനിനി നിർവ്വികല്പ-
സമാധിസൗഖ്യസ്ഥിതി കാട്ടുവൻ ഞാൻ.

നീലാംബരി—ചതുരശ്രജാതി ത്രിപട
ആനന്ദംതാനായ്തീരു! നീ
അനുപമമതിഘനം (ആനന്ദം)
അനഘയാംനിൻജനനി
സ്തനസുധാസുപാവനീ-
ജനിമൃതിതാപസ്വർദ്ധ നി
അനുജ! ലഭിച്ചതു നീ മനുജദുർല്ലഭമിനി
അനന്താനന്ദസാഗരമണഞ്ഞതിലെന്നുംപാരം
(ആനന്ദം)
ഞാനെന്നുമന്യനെന്നും
നാനാജഗത്തിനെന്നും
ഫേനോർമ്മിമാലപോലെന്നും
നാദമുദിപ്പതിന്നും താനേ ലയിപ്പതിന്നും
ജ്ഞാനത്തിനും പ്രേമത്തിനും
സ്ഥാനസരസ്വാനായ്മിന്നും (ആനന്ദം)
മൽ പ്രിയകൊച്ചുപൈതലേ! അത്ഭുതം നീ ഭക്തിയാലെ
ചിൽപുരുഷനാമെങ്കൽ കാലെ
ഉപ്പുപാവവഴിപോലെ
കെല്പെഴുമാഴിയിൽപോലെ
നിഷ്പ്രയാസമലിഞ്ഞീടുമപ്രതിമമൊന്നായ്കൂടും
(ആനന്ദം)
കുഞ്ഞേ! പാട്ടുകേട്ടുവോ?
പണ്ടെന്റെവായിൽ വിമലച്ഛവിവിശ്വരൂപം
കണ്ടേറ്റമത്ഭുതമിയന്ന യശോദപോലെ
രണ്ടെന്നഭാവമറിയാത്തനിലക്കു ഞെട്ടി-
ക്കൊണ്ടെന്നെനോക്കി
വലയുന്നിതിവൻഭ്രമത്താൽ.

അതുകൊണ്ടു് മായാപ്രയോഗത്താൽ ഇവനെ പൂർവ്വസ്ഥിതിയിൽ വരുത്താം. (നിതംബപ്രദേശത്തിൽ കൊട്ടികൊണ്ടു്) കുഞ്ഞേ! പാട്ടുകേട്ടുവോ?
കളിന്ദജാന്തഃസ്ഥിതകാളിയസ്യ
ഫണാഗ്രരംഗേ കൃതതാണ്ഡവം തം
തൽപുച്ഛഹസ്തംശരദിന്ദുവൿത്രം
ബാലം മുകുന്ദം മനസാ സ്മരാമി
ഇതിന്റെ അർത്ഥം കേൾക്കണോ? അമ്മയാണു് പറഞ്ഞുതന്നതു്.
മോഹനം—ആദിതാളം
കാളിയമർദ്ദനലാലസനർത്തന
കേളി ജനാർദ്ദന കൃതമധുനാ
ബാലക! ശോഭനശീല! വിലോഭനലീല!
വിമോഹന! വിധുവദന!
കാണുക ചഞ്ചലവേണു
കരാഞ്ചലമേണവിചഞ്ചലമേവി
ചഞ്ചല നയനരസം
സ്ഥാണുപരംവിലകാണുമനോവിലമാണു
മഹോജ്വലമതി സരസം
ഫണിഫണദത്തുരംഗതലം
ഫണമണി ഗണമയദീപകുലം
ക്ഷണ സുരതാഡിതവാദ്യകുലം
ക്വണിതവിപഞ്ചിക സുരമഹിളം
ഝണഝണനിനദിതകിങ്കണി കളകള
രണിത കനകമണി നൂപൂര കടകം
(കാളിയ)
കമ്ര വിസർപ്പണഘർമ്മപയഃ കണരമ്യ
സുദർപ്പണഗണ്ഡതലം
താമ്രപദാർപ്പണ നമ്രബൃഹൽഫണ
നിർമ്മഥിതോൽബണ സർപ്പബലം.
സുമധുരഹാസവിലാസമുഖം
ഭ്രമരഭരാഞ്ചിത പിഞ്ഛശിഖം
സുമസമവികസിതചരണനഖം
സുമതി ജനാതപരാത്മസുഖം
ധിമിധിമി തരികിട ധിംകൃത ധിംകൃത
താള വിവർത്തനനർത്തന കുതുകം
(കാളിയ)
(രണ്ടു പേരും പിരിയുന്നു.)
ദാരിദ്ര്യ ദുഃഖം
വീട്ടിന്റെ ഉമ്മറം
ഹരി സ്തോത്രം
കംഭോജി—ചതുരശ്ര ജാതി, ത്രിപട
ദേവകദംബഹിതത്തിന്നു വേണ്ടി
നിരാലംബം ജഗദാലംബം
ദേവകിദേവിയിൽ നിന്നു പിറന്ന
നിരാകാരം മധുരാകാരം.
താവകവിഗ്രഹമഞ്ജനഗണ്ഡ-
ലസദ്വർണ്ണം ജഗദാപൂർണ്ണം
സേവകതിമിരശമപ്രദമീശ്വര!
വന്ദേഹം ഗതസന്ദേഹം
ഗോപികൾതങ്ങടെ തുംഗസ്തനഘട-
നീർ തിണ്ണം നുകരുംവണ്ണം
പാപിനിപൂതനനൽകിയ വിഷമുല-
നണ്ണിനുകർന്നൊരു പൊന്നുണ്ണി!
ഭൂപിളരുംപടി ശകടമടച്ച
ഹതോല്പാതം തവതൃപ്പാദം
ദീപിതസജ്ജനമംഗളമീശ്വര!
വന്ദേഹം ഗതസന്ദേഹം.
ഒന്നിച്ചനുജനോടും വ്രജഭുവി
ചാഞ്ചാടിപ്പല മഞ്ചാടി-
ക്കുന്നിക്കുരുകളെടുത്തുകളിച്ച
മഹാലോകാർത്ഥ്യശുഭാലോക!
നിന്നിൽ ദൃഢതരഭക്തിവരാനിഹ
മാ ജാനേ! മമ ഭഗവാനേ!
എന്നിൽ കനിയണമായതിനീശ്വര!
വന്ദേഹം ഗത സന്ദേഹം
വിന്നിലുമാശവെടിഞ്ഞവരുടെ മതി-
യെപ്പോലെ കളിതന്നാലേ
വെണ്ണ കവർന്നു ഭുജിച്ചൊരു കണ്ണ!
പിചണ്ഡ നിഷണ്ണജഗൽഷണ്ഡ!
കുണ്ഡലമണ്ഡിതഗണ്ഡ! വിഭോ!
ശരണാഗതപാലനശീലന!
കുണ്ഡലിശയന! ഹരേ! ജഗദീശ്വര!
വന്ദേഹം ഗതസന്ദേഹം.
(എഴുന്നേറ്റു് ആകാശം നോക്കിക്കൊണ്ടു്)
ഓ, ഹോ, നേരം പ്രകാശമായിപ്പോയി. പക്ഷികൾ ഇതാ പാറിത്തുടങ്ങി!
അലം ഹരിസ്തോത്രമുരച്ചു ഞാനി-
സ്ഥലംവിടും മട്ടിഹചെറ്റുനേരം
ചിലച്ചിരുന്നാട്ടഥ കൂടുവിട്ടി-
പ്പുലർച്ചയിൽ പക്ഷികൾ പാറിടുന്നു.

അമ്മയുടെ ജപം ഇനിയും കഴിഞ്ഞില്ലല്ലോ. ഇന്നു ഗുരുനാഥന്റെ മഠത്തിൽ ശ്രാദ്ധമാണു്. ശ്രാദ്ധ സദ്യക്കു് എന്തെങ്കിലും ഒരു സാധനം കൊടുത്തേ കഴിയൂ. ഇതു് ഇന്നലെ തന്നെ ഞാൻ അമ്മയോടു പറഞ്ഞു. അതിന്നു് അമ്മ ഒരു ഉത്തരം പോലും പറഞ്ഞില്ല. മറ്റെല്ലാ കുട്ടികളും വരുമ്പോഴേക്കും ഞാൻ വല്ലതും കൊണ്ടുകൊടുക്കണം. എന്നാൽ ഗുരുനാഥന്നു് അധികം സന്തോഷമാകും. അതിനെന്തു നിവൃത്തി? ഈ അമ്മയ്ക്കു് എത്രനേരം ജപിക്കണം! വിളിച്ചാൽ ദേഷ്യപ്പെടുകയും ചെയ്യും.
(അണിയറയിൽ)
സമാധൗസച്ചിദാനന്ദരൂപായ പരമാത്മനേ!
പശ്ചാദവസ്ഥാത്രിതയരൂപായ ഹരയേ നമഃ

ഒരുദിനമൊരുനേരം വേണ്ടുമാഹാരവും മ-
റ്റൊരുവനുടെ വശത്തായ്
വന്നൊരെൻ ഭാഗ്യദോഷം
പെരുകുമഴൽ പൊറുത്തെന്നോമന
പൈതലേച്ചെ-
റ്റൊരു വിധമറിയിക്കാതിത്രയും
ഞാൻ കഴിച്ചേൻ.

ഇനി അറിയിക്കാതെ കുട്ടി ചോദ്യം വിടുകയുമില്ല. ഞാൻ എന്താണു വേണ്ടതു്? ഭഗവാനേ? കൃഷ്ണ? (കരയുന്നു).
മുഴുത്തമോദത്തൊടുമച്ഛനന്നു നിൻ
കഴുത്തിലർപ്പിച്ചൊരു കോതുമൊതിരം
കൊടുത്തുവാങ്ങിച്ചതു ഹാ! കുമാര, നീ-
യുടുത്തൊരീനേരിയ കൊച്ചുമുണ്ടു ഞാൻ!

നമുക്കു് അത്ര കഷ്ടപ്പാടാണു്, മകനേ!
നീലാംബരി—ചതുരശ്രജാതി രൂപകം
ശ്രീചരണപൂജനം പണ്ടാചരിക്കാത്ത
നീചയാം ഞാൻ ശോചനീയം യാചനവാർത്ത
നന്മകൂടും പൊന്മകനോടുണ്മചൊൽകിലോ
കണ്മണിക്കാക്കന്മഷത്താൽ തിന്മയാമല്ലോ!
വേരിളകും വാരിളം തൈശാഘിയിലുഷ്ണ
വാരിസേകം ഭൂരിശോകം നൽകുമേ കൃഷ്ണ!
ശ്രീരമണ! ദാരിദ്ര്യപ്രാരാബ്ധമിനി-
പ്പാരിതിൽമറ്റാരിലും പോയ്തേറിക്കായ്ക നീ! (ശ്രീചര)
ഏതായാലും എന്റെ ഭിക്ഷാടന ജീവിതത്തെ പൊന്മകനെ അറിയിച്ചുകൂടാ.
മോഹനം—ചതുരശ്രജാതി ത്രിപട
ജ്യേഷ്ഠനുള്ളതെന്തെന്നമ്മേ!
കാട്ടിൽ മേവുമെൻ (ജ്യേഷ്ഠ)
ജ്യേഷ്ഠനില്ലാത്തതെന്തുണ്ണീ!
കാട്ടിൽമേവും നിൻ (ജ്യേഷ്ഠ)
കാട്ടിലെ പഴങ്ങളും പാട്ടും നൽക്കളികളും
കൂട്ടമായ്പ്പശുക്കളെയോട്ടും കോലുമല്ലാതെ (ജ്യേഷ്ഠ)
ശ്രേഷ്ഠമത്തിരുമിഴി നീട്ടിയാൽ പലവഴി
കോട്ടംവിട്ടൊരുപടി നേട്ടം കിട്ടുമപ്പടി (ജ്യേഷ്ഠ)
ഒരുപിടിയവിൽ കാഴ്ചവച്ച വിപ്ര-
ന്നുരുധനദത്വമണച്ച ലോകനാഥാ!
അരുളുക മമ പുത്രവാഞ്ചിതം മ-
റ്റൊരുഗതിയില്ലടിയന്നു ദീനബന്ധോ!

(നമസ്കരിക്കുന്നു)
തിരശ്ശീല വീഴുന്നു
ഘൃതപ്രദാനം
(ചെറിയ കാടു്)
ചെഞ്ചുരുട്ടി—ചതുരശ്രജാതി ത്രിപട
ബാലാ ശുഭശീലാ! വാ നീ (ബാല)
കേളിക്കായ്തുനിവാനിക്കുള-
ങ്ങരേക്കിങ്ങുവാ നീ (ബാല)
വേണ്ടാ കളി വേണ്ടാ തീരെ (വേണ്ട)
താമരക്കുളങ്ങര തരമില്ല വരാൻ തീരെ
(വേണ്ടാ)
ഓലക്കമാർന്നു് പാഞ്ഞും നീലക്കുഴലഴിഞ്ഞും
ലോലക്കണ്ണിങ്ങെറിഞ്ഞും
ലളിത സ്മിതം പൊഴിഞ്ഞും (ബാല)
ഈമാതിരി വാക്കോടെ താമസമെന്തവിടെ!
നീ മടിക്കാതെന്നുടെ നികടെ വാ ജവമോടെ (വേണ്ട)
ബിഹാക്കു്—ചതുരശ്രജാതി ഏകതാളം
വാ—വാ—വിരവോടിങ്ങു
വരിക ബാലകാ!
വാ-വാ വിരവോടിങ്ങു
വരിക സോദരാ!
പറഞ്ഞിരിക്കെ അറിഞ്ഞിടാതെ
മറഞ്ഞിതോ വനെ?
(എന്നു പാടിക്കൊണ്ടു് രണ്ടു വട്ടം ചുറ്റിക്കൊണ്ടു്)
വാ-വാ വിരവോടിങ്ങു വരിക സോദരാ!
ഒരിക്കലിങ്ങോടിവാ!
ഒളിച്ചു തേടി വിളിച്ചു ചാടി കളിക്ക നാമിനി
(പാഞ്ഞുമറയുന്നു)
വാ-വാ വിരവോടിങ്ങു വരിക ബാലകാ!
നിഴലു പോലെൻ പുറം നീ
ചുഴന്നേരം നിഭൃതം നിന്നു വീണ്ടും
മണ്ടിയെന്തിനിത്തരം? (വാ വാ വിരവോടിങ്ങു)
പന്തിയൊത്തിഹപടർന്നൊരു വൃക്ഷപ്പ-
ന്തലിൽ പ്രണയകൗതുകപൂർവ്വം
പന്തയം പലതുവച്ചിനി നാമീ
പന്തടിച്ചു കളിയാടുക ബാല!

തടസ്തമില്ലാതെ കളിക്കൊരുങ്ങുമീ
മിടുക്കനെൻ പൈതലിതെന്തൊരത്ഭുതം
നടുങ്ങുവാൻ, വല്ലാത്തൊരനര്‍ത്ഥ ചിന്തയിൽ
കുടുങ്ങിയോ ചൂണ്ടലിൽ മീൻകണക്കിനെ.

കമാശി—ചതുരശ്രജാതി ത്രിപട
(പ്രകാശം)
കരയായ്ക കരയായ്ക നീ
കനത്തൊരഴലിൽ വീണു (കര)
ഒളിയും ചെന്തളിരോഷ്ഠമോമനേ!
നീ പിളർത്തി
ഓലോലം കണ്ണുനീരിങ്ങാലോലം
വീഴ്ത്തി വീഴ്ത്തി (കര)
അരിയ പോക്കിരിത്തം
കണ്ടമ്മയെന്നനുജനെ
ആടൽ വരുംമട്ടു
താഡിച്ചിതോ ഇങ്ങിനെ (കര)
ബിഹാകു്—ചതുരശ്രജാതി ഏകം
എന്നുണ്ണിക്കു വിശക്കുന്നോ
ചൊന്നിടാത്തതെന്തു നന്നോ
പൊന്നനുജനെന്തിതെന്നോടിന്നു-
മുഷിഞ്ഞതെന്നോ!
നല്പഴങ്ങളങ്ങിങ്ങേറെ നിൽപ്പതുണ്ടു
കാൺക ദൂരെ
ക്ഷിപ്രം പറിച്ചെല്ലാം ചാരേ
മൽപ്രിയന്നു നൽകാം പോരേ?
(മുൻമട്ടു്)
ഇല്ലില്ലേതുംവിശപ്പെനിക്കല്ലലതുകൊണ്ടില്ലെനി
എല്ലാമറിഞ്ഞുമെന്താണീവല്ലായ്മയെ
ചൊൽവതും നീ?
ഉണ്മാനുമുടുപ്പാനുമെന്നമ്മയ്ക്കു-
മെനിക്കും മേന്മേൽ
സമ്മാനിക്കും ജ്യേഷ്ഠനെന്മേൽ
നന്മനം വെക്കുന്നില്ലമ്മേ!
നേരറ്റ ദാരിദ്ര്യ കഠോര ദുഃഖം
പ്രാരാബ്ധമസ്സാദ്ധ്വി പൊറുക്കിലും ഹാ!
ദൂരസ്ഥമായി വന്നു നിസർഗ്ഗമാമ-
ദ്ധീരത്വമിപ്പുത്രമുഖേക്ഷണത്തിൽ.

ഇനിയും കഷ്ടപ്പെടുത്തുന്നതു് ഒട്ടും യുക്തമല്ല (പ്രകാശം) കുഞ്ഞേ ഗുരുനാഥനു് കൊണ്ടുകൊടുക്കാൻ വല്ലതും വേണം അല്ലേ?
മുഖാരി—ചതുരശ്രജാതി, ത്രിപട
ഇതാ ഇതാ നെയ്ക്കുടം പൂതവീയ്യോല്ക്കടം
കൃതിജനാവനോത്ഭടം
കൈക്കൊള്ളുക നീ ദൃഢം. (ഇതാ)
തരൂ തരൂ! നെയ്ക്കുടം. തീർന്നുമേ സങ്കടം
ഗുരുവരന്റെ നികടം കൊണ്ടുപോകാം
ഞാൻ ദൃഢം (തരൂ)
നിരുപമമിതു വായ്ക്കും നിസ്തുലദുഃഖംനീക്കും
ഗുരുവരന്നും നിങ്ങൾക്കും
ഗുർവ്വിയാം ശ്രീ വർഷിക്കും (ഇതാ)
(കൊടുക്കുന്നു)
മതിമതി ഖേദം മാഞ്ഞുപോന്നു മോദം
മതിയില്ലിനിമോഹം മാന്യം നിന്നനുഗ്രഹം
(മതി)
(നോക്കി ചിരിച്ചുംകൊണ്ടു്) മതി, ജ്യേഷ്ഠാ! ധാരാളം മതി. വേഗം കൊണ്ടുകൊടുത്തുവരാം! (വേഗം നടക്കുന്നു)
എന്നേത്തന്നേ സന്തതം ചിന്തചെയ്യും
ധന്യേ മാന്യേ! സാധുശീലേ സുശീലേ!
എന്നെന്നും ഞാൻ നിങ്ങളേ മംഗളത്തിൽ
തന്നേ ക്രീഡിപ്പിക്കുവാൻ ഭാരവാഹി.

കർട്ടൻ വീഴുന്നു.
വിസ്മയസ്തൈമിത്യം
(ഒരു ബ്രാഹ്മണഗൃഹത്തിന്റെ ഉമ്മറം, ബ്രാഹ്മണപത്നി പ്രവേശിക്കുന്നു)
(അനന്തരം മേലെഴുതിയ വിധം രണ്ടു കുട്ടികളുടെ പിന്നാലെ ബാലഗോപാലനും പ്രവേശിക്കുന്നു).
ചെഞ്ചുരുട്ടി—തിസ്രജാതി ത്രിപട
ഏറെ ബാലരിൽനന്നേ
കൂറേകുന്നു നീയെന്നെ
വേറെവെച്ചതെന്തു പിന്നെ?
കൊള്ളിവാക്കു ചൊന്നില്ല
കള്ളം ഞാൻ ചെയ്തതില്ല
തള്ളേ! നീ കൈവിടൊല്ലാ
(ഞെട്ടിക്കരയുന്നു)
(അണിയറയിൽ) ആരാണു കരയുന്നതു്?
കരയരുതു കുമാര! നിൻമനോജ്ഞ-
ക്കരളഴലിങ്ങു കഠോര വജ്രപാതം
കരകവിയുമമേയ ഭാഗ്യരത്ന-
കരമതിൽ നീ മമ ചാരു ചന്ദ്രബിംബം!

(എന്നു താടിപിടിച്ചു ചുംബിക്കുന്നു പത്നിയെ നോക്കി ക്രോധത്തോടെ) എടീ മൂഢേ! നീയാണു് എന്റെ കുഞ്ഞിനെ കരയിച്ചതു്. മറ്റെല്ലാ കുട്ടികളും ഞാൻ പറഞ്ഞിട്ടാണു് വല്ലതും കൊണ്ടുവന്നതു്. ഈ സാധുകുട്ടി ഞാൻ പറയാതെയാണു് എന്തോ കൊണ്ടുവന്നിട്ടുള്ളതു്. എന്തുകൊണ്ടു നീ ആദ്യം ഇവനോടു മേടിച്ചുവെച്ചില്ല? നീ എന്തറിഞ്ഞു പടുമൂഢെ! ഇവൻ കൊണ്ടുവന്നതു പച്ചവെള്ളമായാലും ശരി ഇതു് എനിക്കു് അമൃതമാണു് (പാത്രത്തിന്റെ വായ്പ്പൊതി അഴിക്കുന്നു)
ബിഹാക്കു്—ചതുരശ്രജാതി ഏകം.
എന്തു വിസ്മയം കഥയിതെന്തു വിസ്മയം!
വേഗം പകർന്നുവെക്കൂ,
വേഗം പകർന്നുവെക്കൂ!
(പ്രവേശിച്ചു)
കുഞ്ഞേ! ബാലഗോപാലാ!
എന്തു വിസ്മയം കഥയിതെന്തു വിസ്മയം!
പൊന്തിടുന്നു നെയ്യുറന്നു വന്തിളപ്പിയന്നിയന്നു
(എന്തു)
കുട്ടുകംനിറഞ്ഞു രണ്ടു വട്ടിളം നിറഞ്ഞുകണ്ടു
കുട്ടി! നിൻഘടത്തിലുണ്ടു
കട്ടിനെയ് വരുന്നുവീണ്ടും (എന്തു)
അത്രമാത്രമല്ല വെപ്പുപാത്രമെത്രയിത്തിരിച്ചു
അത്രയും നിറഞ്ഞുമത്ഭുതത്തിളപ്പിനിയുമേൽപൂ
തള്ളിടുന്നുനെയ്യൊതുങ്ങിയുള്ളിൽ
നിന്നിടാതെ തിങ്ങി
ഉള്ളപാത്രവും കുഴങ്ങി കള്ളമല്ല
ഞാൻ കുഴങ്ങി (എന്തു)
ഭഗവാനേ! എന്തൊരാശ്ചര്യമാണിതു്?
ഇന്ദ്രജാലമോ ചുരന്നനിന്നലിവിതോ മുകുന്ദ!
നന്ദനീയ ബാലനിന്നമന്ദഭാഗ്യമോ വരുന്നു
(എന്തു)
മുഖാരി—ചതുരശ്രജാതി ത്രിപട.
അപ്പാ മകനേ! നിന്നെ
അല്പനെന്നാർത്തോരോന്നെ
ജല്പിച്ചുപോയേൻ നന്നേ
ദുഷ്പാപിനി ഞാൻതന്നേ
തങ്കമേ! നിങ്കൽപാരം
ഞാൻ കാണിച്ചു ധിക്കാരം
എങ്കലതോർക്കുന്നേരം സങ്കടമുണ്ടു ഘോരം.
(അപ്പാ)
(വീണ്ടും കരഞ്ഞുകൊണ്ടു്) മുൻമട്ടു്
ഏവം മഹാപാപമേ ചെയ്യാനിടയായേന്മേൽ
ആവകക്കിന്നിനിമേലാവതെന്തു ദൈവമേ!
(അപ്പാ)
അതിലോഭമിവൾക്കു പണ്ടുപണ്ടേ
മതിയിൽ കണ്ടൊരുദോഷമാണിതിപ്പോൾ
അതിശുദ്ധനിവന്റെ ചേർച്ചയാലന്റെ
സതി വിട്ടു, ശുഭഹേതുസാധുസംഗം.

സാവേരി—ചതുരശ്രജാതി രൂപകം.
ഭേദമില്ല തേ ചെറ്റും ഭേദമില്ല തേ
വാദമില്ല ദേശികൻ തേ
താതനത്രേയെൻകുഴന്തേ
മാതാവോ നിൻസ്വാന്തെ മല്പത്നി മറ്റെന്ത?
(പത്നിയോടു്)
കറ്റവാർകുഴലീ!
നിന്നെ പെറ്റമാതാവെന്നുതന്നെ
മുറ്റുമിവനോർപ്പൂ മാന്യേ മറ്റൊന്നില്ലതും മന്യേ
കുറ്റം നീ ചെയ്തന്നേ തെറ്റെന്നു നീ തന്നെ
തെറ്റെന്നോർത്താൽ
പിന്നെമറ്റെന്തുണ്ടുധന്യേ! (ഭേദ)
(ആത്മഗതം) അതൊക്കെയും ഇരിക്കട്ടെ! ഈ അക്ഷയപാത്രം ഈ കുട്ടിക്കു് എവിടന്നു് കിട്ടി? ഈ ചെറുബാലന്നു് വല്ല തപസ്സിദ്ധികളോ മറ്റോ ഉണ്ടാവാനിടയില്ലല്ലൊ! ഇവനോടു ചോദിച്ചിട്ടെന്തു കാര്യം? ഒന്നും അറിയാത്ത പാവം. പ്രഭാതത്തിനു മുമ്പു് മിക്ക ദിവസങ്ങളിലും ഇവന്റെ അമ്മ സാദ്ധ്വിയായ സുശീലയെ ആ ദുർഗ്ഗാക്ഷേത്രത്തിൽ ഞാൻ കാണാറുണ്ടു്. വളരെ ഭക്തിയുള്ളവളാണവൾ. എങ്കിലും സ്ത്രീകൾക്കു് എങ്ങിനെയാണു് ഈ വക സിദ്ധി ഉണ്ടാകുന്നതു്? (ആലോചിച്ചു്) ശിവ! ശിവ! എന്തുകൊണ്ടുണ്ടാവാൻ പാടില്ല!
പതിയുടെമൃതിപാർത്തപ്പൂതയായുള്ള ശീലാ-
വതി സപദി മുടക്കീ പണ്ടു സൂര്യോദയത്തെ
അതിലുമതിവിചിത്രം സാദ്ധ്വിസാവിത്രിഭർത്തൃ
ച്യുതിദശയെ ഹരിപ്പാൻ കാലനെ കീഴടക്കി.

ഓഹോ! ഞാനെന്തിനാണു് അത്ര ദൂരം പോകുന്നതു്! ഭക്തിയുടെ മൂർത്തിമതികളായ ഗോപികമാരുടെയും പാഞ്ചാലിയുടെയും കഥകൾ തന്നെ അത്യാശ്ചര്യമല്ലെ? ഏതുവിധത്തിലും പുണ്യശാലിനിയായ ഇവന്റെ അമ്മയുടെ തപസ്സിദ്ധി തന്നെയായിരിക്കണം ഇതു്. (പ്രകാശം) കുഞ്ഞേ, അമ്മയല്ലെ നെയ്ക്കുടം തന്നയച്ചതു്?
ഇവനുടയ പിതാവു ചത്തുവെന്നും
യുവതി സുശീലയിവന്റെ തള്ളയെന്നും
അവരിലിവനൊരേകപുത്രനെന്നും
ശിവശിവ ഞാനറിയുന്നു നല്ലവണ്ണം.

(പ്രകാശം) നിനക്കു് ഉടപ്പിറവി ആരും തന്നെ ഇല്ലല്ലോ കുഞ്ഞെ!
ദാരിദ്ര്യമോ വിദുഷി നിൻഗുരു, നിന്റെ പാഠം
വൈരാഗ്യമോ, തവ ധനം ഹരിഭക്തിതാനോ,
സ്വാരാജ്യമങ്ങു ഹരിവിഗ്രഹമോ, കൊടുത്താൽ
തീരാത്തഭാഗ്യനിധി നിൻശിശുവോ സുശീലേ?

മോഹനം—ആദിതാളം
നാരായണ! നാരായണ!
നാരായണ! കൃഷ്ണാ! നാരായണ!
സാരവിമലഗുണപൂര! നിജചരണാ-
ധാരഭരണചരണ ശ്രീരാധികാരമണ!
(നാരായണ)
പതിവാക്കി കുലസ്ത്രീകൾ
പതിവാക്കിലിരിപ്പിനെ
അതിഭാഗ്യമിതിന്മീതെ ശ്രുതിവാക്യവുമില്ല മേ.
അതുകൊണ്ടു് ഭാഗ്യവശാൽ അങ്ങേയ്ക്കുണ്ടാകാവുന്ന ഭഗവൽ പ്രസാദത്താൽത്തന്നെ ഈയുള്ളവളും കൃതാർത്ഥയായിക്കൊള്ളാം.
അത്യന്തം നാമസാമ്യത്തിലത്ഭുതമിവൻ തുലോം
പ്രത്യക്ഷാനുഭവംതന്നെ
സത്യമായി പറയുന്നുതെ.

നാരായണ! നാരായണ! നാരായണ!
കൃഷ്ണ! നാരായണ! കുഞ്ഞെ!
നാം വേഗം ഇറങ്ങുക!
(ബാലഗോപാലന്റെ കയ്യും പിടിച്ചുകൊണ്ടു്)
നേരായ് നിൻനാമഗുണ-
പാരായണന്മാർക്കണ-
യാറാകും നിൻകാലിണത്താരാണിവന്നുതുണ
(നാരാ)
(പാടിക്കൊണ്ടു് പോയി.)
വിത്തമെന്തിനു വിദ്യയെന്തിനു
കീർത്തിയെന്തിനു ദൈവമേ!
മത്തനാകിയ മർത്ത്യനീവക
ദുസ്തരം നരകത്തിനാം
ചിത്തശുദ്ധിയൊടും സുശീലയോടൊത്തു
ഞാൻ ബഹുഭക്തിയാം
സ്വത്തടക്കിയിരിക്കുവാൻ
കനിയണമേ കരുണകരാ!

(തിരശ്ശീല വീഴുന്നു.)
അശരീരിവാക്യം
(ഒരു ചെറിയ കാടു് ബാലഗോപാലൻ മുമ്പിലും വാദ്ധ്യാർ പിമ്പിലുമായി പ്രവേശിച്ചു ചുറ്റി നടക്കുന്നു.)
നാരായണ നാരായണ നാരായണ
കൃഷ്ണാ! നാരായണ.
വൃന്ദാരകനികരമന്ദാര ചരാചര-
വൃന്ദാവന ചതുര! വൃന്ദാവനസഞ്ചാര!
(നാരായണ)
കുഞ്ഞേ!
ഈ വനമാലയമാക്കീ-
ട്ടാവാം നിൻ ജ്യേഷ്ഠനുള്ള കളിയെല്ലാം.

പാവനശീലന്നെന്നും
ഭാവന ഭഗവൽപദത്തിൽ മാത്രമഹോ

അതേ കുഞ്ഞേ! ജ്യേഷ്ഠന്നു വനമാലയും ഉണ്ടു്. ഈ കാട്ടിൽത്തന്നെയാണോ ജ്യേഷ്ഠന്റെ വാസം?
ഘനമേചകമഞ്ജുളം പവിത്രം
ധനമേതാ,ണതു നിന്നിൽ വാഴ്കമൂലം
ജനമേദുര മംഗളം പൊഴിപ്പാൻ
വനമേ! ജീവനമേതുദിക്കിനും നീ.

അല്ലയോ പരിപാവനമായ വനമേ! അങ്ങേക്കു സഹസ്രം സഹസ്രം നമസ്കാരം. (സാംഷ്ടാംഗനമസ്കാരം ചെയ്യുന്നു.)
ഇക്കല്ലിന്മേൽ കേറിനിന്നെന്റെ ചേട്ടൻ
തൃക്കണ്പാർത്തേനെന്നെയങ്ങെത്തുവോളം
തല്ക്കാലംപോയ് പൈക്കളേ മേയ്ക്കുവാനായ്
നില്ക്കുന്നുണ്ടാമെന്നെയും കാത്തുദൂരേ.

മല്ലേഷുമാഥി ശിരസാ പണിയുന്ന പാദ-
മല്ലേ ലഭിച്ചതു വെറും ജഡമെങ്കിലും നീ!
ചൊല്ലേറുമിമ്മനുജനെന്തിനു
കൊള്ളുമോർത്താൽ
കല്ലേ! മുകുന്ദനു ജഡാജഡ ഭേദമുണ്ടോ?

അല്ലയോ പരിശുദ്ധമായ ശിലാതലമേ! നമസ്കാരം (നമസ്കരിക്കുന്നു).
ബലഹരി—ആദി
പോക പോക നാം കുമാര!
വൈകരുതേയിനി സുകുമാര!
ലോകതോഷ പോഷണമ-
സ്തോകഗന്ധമോമലെ! (പോക)
(വീണ്ടും ചുറ്റി നടന്നു ഒരു പുഷ്പം കണ്ടിട്ടു്)
കണ്ടുകൊണ്ടാലും നീ വണ്ടണിഞ്ഞോലും
ഇളം തണ്ടലരിതാ പരിമളകിനലം
പരിമളമതുലം വിതറിവിലസുവതും (പോക)
ഹരിമലയജ പങ്കച്ചാറിൽ മുങ്ങിപ്പരം തൽ-
പരിമളമുലകൊട്ടുക്കേശുവാൻ വീശുവാനോ
പെരുവഴിയിലിറങ്ങിക്കൊണ്ടതും
പത്മമേ! നി-
ന്തിരുവടിയടിയന്നും കാട്ടണം ശ്രേഷ്ഠമാർഗ്ഗം

(മേടിച്ചു തലയിൽ ചൂടുന്നു)
മുന്തിരിങ്ങ കരതാരിൽ നില്കവേ
പിന്തിരിഞ്ഞു തിരിയുന്ന വണ്ണമേ
അന്തികത്തിലഖിലേശനെസ്സദാ
ഹന്ത! കാണ്കിലുമറിഞ്ഞതില്ലിവൻ.

അഥവാ ഇവൻ അറിഞ്ഞിട്ടില്ലെങ്കിൽത്തന്നെ എന്താണു് വൈഷമ്യം? ഭഗവാനേ! ഗോപാലനന്ദന! അങ്ങേക്കു് ഈ ബാലഗോപാലൻ പ്രിയപ്പെട്ട സഹോദരനാണല്ലൊ. ഇതിൽപരം എന്തൊരു ഭാഗ്യമാണു് ഈ കുട്ടിക്കു വരേണ്ടതു് ?
ചെറുപ്പമെങ്കിലും ലോക-
ഗുരുത്വമിവന്നെൽക്കവേ
ഗുരുസ്ഥാനമിവന്നെന്നിൽ
വിരുദ്ധം ലോകഗർഹിതം!

വിശദമിതൊരു ബാലപാദചിഹ്നം
ദൃശമിതിലംഗുലി തിങ്ങിനീണ്ടുകാണ്മൂ
(വീണ്ടും നോക്കീട്ടു്)
കൃഷ്ണ! കൃഷ്ണ! വാസുദേവ!
അശരണഗതിയാണിതെന്നു വജ്രാ-
ങ്കുശമുഖരേഖ വിളിച്ചുചൊല്ലിടുന്നു!
(സാഷ്ടാംഗനമസ്കാരം ചെയ്യുന്നു)
കേദാരഗൌളം—ചതുരശ്രജാതി ത്രിപട
ഭജേ! ഭജേ! മാപദം ശ്രീഹരി പാദം
നിജബലപാടിത ശകടമദം (ഭജേ)
ത്രിപഥഗാജനകം ത്രിഭുവനസുഭഗം
ശഫരവജ്രാങ്കുശ ശോഭിതമനഘം (ഭജേ)
ഹതബലിഡംഭം ഹൃതഫണിദംഭം
ധൃതപുളകം ശ്രീരാമകൃതപരിരംഭം (ഭജേ)
(വീണ്ടും നമസ്കരിച്ചു) ഭഗവാനെ! ഭക്തവത്സല! അങ്ങയുടെ ഈ പദാരവിന്ദപാംസുകൊണ്ടു് എന്റെ ദേഹം പരിശുദ്ധമാക്കട്ടെ (പൂഴിവാരി മെയ്യിൽ തേച്ചു കൊണ്ടു തിരിഞ്ഞു നോക്കി കുട്ടിയെ കാണാതെ പരിഭ്രമിച്ചു്!)
ഇംഗ്ലീഷ് നോട്ടു്—ച തുരശ്രജാതി ഏകം
ഇവനെങ്ങുപോയ്മറഞ്ഞു
ഹന്ത ധന്യബാലകൻ
ഇവിടെയെങ്ങുമില്ലടുത്തമേയഭാഗ്യവാൻ
ശിവ! ശിവ! ശീഘ്രമെന്നെ വിട്ടതെന്തുവാൻ?
(ഇവനെ)
(നാലുഭാഗവും നോക്കി വിളിക്കുന്നു.) എന്റെ പ്രിയപ്പെട്ട കുഞ്ഞേ ബാലഗോപാല!
ഇംഗ്ലീഷ് നോട്ടു്—ആദിതാളം
ശ്ലാഘ്യം ശ്ലാഘ്യം ശ്രമമിതു തേ
ഭാഗ്യം ഭാഗ്യം മമ സമതേ
നിൽക്കുക പഴുതെ ദുർഘടകുപഥേ
നിർഗ്ഗമമരുതെ സൽഗുണജലധേ! (ശ്ലാഘ്യം)
(പോകുന്നു)
ബിഹാക്കു്—ചതുരശ്രജാതി ത്രിപട
എങ്ങുപോയി ജ്യേഷ്ഠൻ പശുവൃന്ദങ്ങളെ!
ചൊൽവിൻ!
അങ്ങുമിങ്ങും നടന്നോലും നിങ്ങളെ
തെളിപ്പാൻ കോലും
തിങ്ങിടും കൃപയുംകോലും
മംഗലനെങ്ങുചൊന്നാലും (എങ്ങു)
(ബാലഗോപാലൻ പാടിക്കൊണ്ടു് മുമ്പിലും കണ്ണീർ തൂകിക്കൊണ്ടും തൊഴുതുകൊണ്ടും ചുറ്റും നോക്കിക്കൊണ്ടും വാദ്ധ്യാർ പിമ്പിലുമായി പ്രവേശിക്കുന്നു)
പീലിമാലകൾ നിരത്തി ചേലെഴും
പൊന്മുടി ചാർത്തി
നീലകാന്തിയും വിടർത്തി
ലീലയാടും ചാരുമുർത്തി. (എങ്ങു)
പുഞ്ചിരിയുംതൂകി ഗീതിത്തേൻചൊരിയും
കുഴലൂതി
നെഞ്ചലിയുംവാക്കുമോതി
സഞ്ചരിക്കുമെൻ ചങ്ങാതി (എങ്ങു)
ഹിന്തുസ്ഥാനിതോടി—ചതുരശ്രജാതി ത്രിപട
ഹേ! മമ സോദര! നീ മറഞ്ഞിരിക്കയോ?
മമത നിണക്കിവനിൽ മാഞ്ഞിതോ സുന്ദര!
(പ്രവേശിച്ചു്)
താമസമെന്നിയേ പോയ്മടക്കം തിരിയെ
നാമുരച്ച കാഴ്ചയെ നീ മറന്നതെന്തയെ
(ഹേ! മമ)
അന്തികേ നിന്നീടൊന്നു നിന്തിരുവടി വന്നു!
എന്തിനായൊളിക്കുന്നു പന്തിയല്ലതിനിന്നു
(ഹേ!മമ)
കളവുപറകയാണോന്നോർത്തുമദ്ദേശികന്നുൾ-
ത്തളിരിലരിശമുണ്ടാം ഹന്ത
ഞാനെന്തുവേണ്ടു!
അളവുമതിരുമില്ലാതുള്ള ദുഃഖങ്ങളിൽ പെ-
ട്ടളവിലടിയനങ്ങുന്നല്ലയോ താങ്ങലെന്നും?

ജ്യേഷ്ഠാ! എന്റെ പശുമേയ്ക്കുന്ന ജ്യേഷ്ഠാ! (അണിയറയിൽ ഭഗവാൻ)
കുഞ്ഞേ, ബാലഗോപാല! നിന്റേയും നിന്റെ അമ്മയുടേയും ഭക്തികണ്ടിട്ടാണു ഞാൻ പ്രത്യക്ഷമായതു്. നിന്റെ ഗുരുനാഥൻ അത്രക്കായിട്ടില്ലെന്നു പറഞ്ഞേക്കൂ.
(വിരുത്തം)
ഭഗവാനെ! വിണ്ണവരും നണ്ണുവോനെ!
അഗണിതഗുണൻ ഭവാനെ
നിഗമയത്നം തിരവോനെ
പുഷ്പവനെ തേനേപോലെ മഹിമകളെ
ത്വല്പദൈകതാനെ കൊടുപ്പോനെ മാധവനെ!
ചിൽപുമാനെ സർപ്പവരതല്പവാനെ
അല്പനടിയൻ ന ജാനേ
ത്വൽപ്രഭാവമുടയോനെ!
ഇബ്ഭുവനേ ഹീനേജ്ഞാനേതരകുജനെ
നിഷ്പ്രഭനായ് താനെ നിൽപ്പു
ഞാനെ നിഷ്കളനേ (ഭഗ)
ദശാവതാരസ്തോത്രം.
(വാദ്ധ്യാരും ബാലനും ഓരോ അവതാരഗാനം പാടി നമസ്കരിക്കുന്നു)
ഭൂപാളം—ചായ്പ്
(ശ്രീതകമലാകചമണ്ഡല എന്ന മട്ടു്)
ഹയഗളദളനവിചക്ഷണ!
ശ്രുതി രക്ഷണ!
പ്രിയ ജലധിമഹാമീന! ജഗദീശ!
ജയ ജയ കൃഷ്ണഹരേ!
കലശാബ്ധി സമുദ് ധൃതമന്ദര!
ഗുണമന്ദിര!
കലിതകമഠസുശരീര!
ജയ ജയ കൃഷ്ണഹരേ!
ദശനാഗ്രവിധൃതവസുന്ധര!
പൃഥകന്ദര!
മഹിതസൂകരാവതാര!
ജയ ജയ കൃഷ്ണഹരേ!
ഹിരണ്യകശിപൂതനുദാരണ!
ജഗൽക്കാരണ!
നരഹരേ കുതനതത്രാണ!
ജയ ജയ കൃഷ്ണഹരേ!
അതിബലബലിമദഭഞ്ജന!
സുരരഞ്ജന!
വാമനകൃതജഗന്മാന!
ജയ ജയ കൃഷ്ണഹരേ!
നിഹതദുർമ്മദക്ഷത്രകന്ധര!
നീലമന്ധര!
ഭൃഗുസുത ഭരിതകഠാര!
ജയ ജയ കൃഷ്ണഹരേ!
ജനകജാ സ്തനഘനചന്ദന!
രഘുനന്ദന!
ദശമുഖഘനപവമാന!
ജയ ജയ കൃഷ്ണഹരേ!
ഹലധരകളിന്ദജാഭേദന!
ഖലസൂദന!
ശിതിരുചിവസനവസാന!
ജയ ജയ കൃഷ്ണഹരേ!
വ്രജസീമന്തിനീമീനകേതന!
ഹതപൂതന!
ഭൂവനപാലനൈകതാന!
ജയ ജയ കൃഷ്ണഹരേ!
കലിമലജലനിധിധീവര!
ശുഭധീവര!
ജയധൃതകൽക്കിശരീര! ജഗദീശ
ജയ ജയ കൃഷ്ണഹരേ!

രുചിരസുഗുണരന്ധ്രം രുഗ്മിണീപ്രാണയന്ത്രം
ശ്രിതജനപരതന്ത്രം ശത്രുശിക്ഷാസ്വതന്ത്രം
ഭവശിഖിമണിമന്ത്രം ഭക്തനിർവ്വാണമന്ത്രം
ജപജപ! ജഡജിഹ്വേ! ശ്രീഹരിസ്തോത്രമന്ത്രം.

ഗുണവികിരകലായം ഗോപവാടീകളായം
ശ്രീതസുരസമുദായം സിന്ധുകന്യാസഹായം
ശുഭചരിതമമേയം ശുദ്ധമുദ്ധൂതമായം
ഭജ ഭജ നിരപായം ദേവകീഭാഗധേയം.

നമസ്തേ വാസുദേവായ ദേവായ പരമാത്മനേ
ഭക്താവനൈക തൃഷ്ണായ
കൃഷ്ണായ സതതം നമ:

ക്ലേശലേശമരുളാതെ ശൈവലം
പേശലം കമലമെന്ന പോലവെ
കേശവങ്കലിവനുള്ള ഭക്തിയേ
ശൈശവം സുമധുരം മറക്കയാം.

ഈ മഹാ സുകൃതിയുടെ സമ്പർക്കം നിമിത്തം അനന്തകോടിജന്മങ്ങളിൽ ഞാൻ ചെയ്ത സർവ്വപാപങ്ങളും ഇതാ ദഹിച്ചുകഴിഞ്ഞിരിക്കുന്നു. കോടാനുകോടി വിറകിൻകൊള്ളികളെ ദഹിച്ചു വെണ്ണീറാക്കാൻ ഒരു ചെറിയ തീക്കൊള്ളിക്കു് എന്താ പ്രയാസം! അത്രമാത്രമോ? ഈ ചെറുബാലന്റെ അനുഗ്രഹത്താൽ ഭഗവദ്വാക്യ ശ്രവണം കൂടി എനിക്കു സാധിച്ചുവല്ലൊ! ഇനി എനിക്കു സാക്ഷാല്ക്കാരം തന്നെ കിട്ടുവാനെന്താണു് പ്രയാസം? ഇവന്റെ മാതാവു് ശിവ! ശിവ! ഭഗവാന്നുകൂടി മാതാവായിരിക്കെ ലോകമാതാവു്, അതെ എന്റെ സാക്ഷാൽ മാതാവായ ആ സുശീലാദേവിയെ കണ്ടു നമസ്കരിക്കുക തന്നെയാണു് ഇനി എന്റെ കർത്തവ്യകർമ്മം. (കരഞ്ഞുകൊണ്ടു്)
ബീഹാക്കു്—ചതുരശ്രജാതി ത്രിപട
അംബ! കല്യാണസന്ദായിനീ! ജയജയ! (കല്യാ)
ചൊല്ലാർന്നനിന്തുണക്കു മല്ലാരിയാനിലക്കു
സ്വർല്ലാഭവും തനിക്കു പുല്ലായ് ഗണിക്കുമംബ! (കല്യാ)
കുഞ്ഞേ നാം വേഗം അമ്മയുടെ
സന്നിധാനത്തിൽ ചെല്ലുക.
(എന്നു ബാലഗോപാലനെ ചുമലിൽ എടുത്തു നെയ്ക്കുടവും തൂക്കിപ്പിടിച്ചു നടന്നുകൊണ്ടു്)
അംബ! കല്യാണസന്ദായിനീ ജയജയ
(പാടിക്കൊണ്ടു് പോയി.)
ആനന്ദപ്രവാഹം
(ഒരു ചെറിയ വീടു്)
അഠാണ—ചതുരശ്രജാതി—ത്രിപട
ചിന്മയം ചിത്തമയം തിന്മയും
ചിത്തവാസനാമയം
പ്രണമാമി ഭവന്തമജം പരം (ചിന്മയം)
അക്ഷരംഋതം സകലാക്ഷരഞ്ജിതം
ത്ര്യക്ഷരാഞ്ചിതം ബീജവൃക്ഷാരാജിതം
അക്ഷയമത്ഭുതചരിതം
വിക്ഷപിതാഖിലദുരിതം (ചിന്മയം)
ദീർഘനിദ്രിതം വിഷയോഗ്രമൂർച്ഛിതം
ജാഗ്രദാദിതന്നിരസ്താഗ്രഹം ശ്രിതം
നിഗ്രഹദുർഗ്രഹമപിസർവ്വാഗ്ര-
വിശൃംഖലസുപഥം (ചിന്മയം)
തൃഷ്ണയോജ്വലം മൃഗതൃഷ്ണികാജലം
കൃഷ്ണ! കേവലം ത്വയി കൃസ്നമേത്യരം
വിസ്തൃത ബഹുവീചികുലം
വിഷ്ടപമതിമാനകുലം (ചിന്മയം)
ഭഗവാനെ! എന്തൊരാനന്ദമാണു് നിർമ്മായനായ അങ്ങയുടെ മായാവിനോദം? ഈ സംസാരചക്ര പരിവർത്തനത്തിൽ ഇരുന്നുകൊണ്ടുതന്നെയാണല്ലോ നിശ്ചഞ്ചലനും നിർവികാരനും സർവേശ്വരനുമായ അങ്ങയെ കണ്ടുകൊണ്ടു ഭക്തന്മാർ ആനന്ദിച്ചിരിക്കുന്നതു്? (പെട്ടെന്നു് ഓർമ്മ നടിച്ചു്) എന്റെ പൊന്മകൻ വാദ്ധ്യാരുടെ മഠത്തിൽ പോയി വരാത്തതെന്താണു്? സമയം അതിക്രമിച്ചുവല്ലോ. (എഴുന്നേറ്റു് നേരം നോക്കിക്കൊണ്ടു് എന്താണു് ഇത്ര താമസിച്ചതു്? വല്ല ആപത്തും പിണഞ്ഞിരിക്കുമോ? (ആലോചിച്ചു. കണ്ണീർ തൂകിക്കൊണ്ടു്) വിഡ്ഢിത്തം തന്നെയാണു് ഭഗവാനേ! എന്റെ ഈ വിചാരം.
ലോകനായക ഭവാങ്കലെന്മക-
ന്നേകഭാവമവിടുന്നു നല്കവേ
ശോകമെന്തവനു ദുഗ്ദ്ധസിന്ധുവിൽ
പാകഭേദമൊരു പാലിനേല്ക്കുമോ?

ഒരാപത്തും വരാനില്ല! എങ്കിലും ഈ മമതാബന്ധത്തിൽ കുടുങ്ങിപ്പോകുന്നുവല്ലൊ (വീണ്ടും ആലോചിച്ചു്) ഈ മമതാ ബന്ധം വളരെ ആവശ്യമല്ലേ, ഭഗവാനേ?
സമതസർവ്വജഗത്തിലുമുള്ളനിൻ
മമതനിത്യമെനിക്കുപഠിക്കുവാൻ
കമലനേത്ര! ഭവാനിഹതന്നൊരീ
മമസുതൻ ചെറുപുസ്തകമല്ലയോ!

(അണിയറയിൽ) പദം
കല്യാണസന്ദായി നീ! ജയജയ.
ഹൃൽപൂർണ്ണജ്ഞാനവഹ്നിക്കകമെരിയുമതി
സ്വച്ഛമാം വാസനൌഘ-
ക്കർപ്പൂരക്കുന്നുതാനോ കലുഷരഹിതയാം
സൽക്രിയാ സിദ്ധിതാനോ,
പൊൽപൂമാതിൻ വരങ്കൽ
ക്ഷണമിവനണയാൻ
ഭക്തി സോപാനമാണോ
നിൽപൂ ഞാൻ കാണ്മതെന്തി-
ച്ചെറുശിശുശശിയേ
പെറ്റ പാലാഴിയാണോ?

ചൊല്ലാർന്ന നിൻതുണയ്ക്കുമല്ലാരിയാ നിലയ്ക്കു
സ്വർല്ലാഭവും തനിക്കുപുല്ലായ് ഗണിക്കുമംബ! (കല്യാ)
(നമസ്കരിക്കുന്നു)
ദാരിദ്ര്യത്തീയിൽ കത്തിച്ചേറെത്തൻ ജന്മവൃത്തി
ചാരിത്ര ശുദ്ധിയെ മറ്റാരിത്ര കൈവരുത്തി! (കല്യാ)
(വീണ്ടും നമസ്കരിക്കുന്നു)
സൽപൂജ്യേ! നിൻവിചാരം ചിൽപൂരുഷവിഹാരം
മല്പാപപരിഹാരം ത്വല്പാദനമസ്കാരം (കല്യാ)
(പിന്നെയും നമസ്കരിക്കുന്നു)
പാപാതങ്കപ്രശമപടുവി-
ബ്ബാലഗോപാലനെക്കൊ-
ണ്ടാപാദിച്ചേൻ തവ മഹിമതൻ
ജ്ഞാനമാപാദചൂഡം
തപാലസ്യക്ഷണനിപുണൻ
തിങ്കളെക്കണ്ടുതന്നേ
ശ്രീപാലാഴിക്കുടയമഹിമാവൊക്കെയും
തീർച്ചയാക്കാം.

അങ്ങയുടെ മാഹാത്മ്യത്തെ തെളിയിച്ച ഒന്നാം സാക്ഷി ഈ നെയ്ക്കുടമാണു്. (നെയ്ക്കുടം വീണ്ടും മുമ്പിൽ എടുത്തു വെക്കുന്നു).
ശ്രീകാന്തങ്കൽ വിചാരമങ്ങു ഭഗവൽ
കാരുണ്യമിബ്ബാലനിൽ
ശോകന്തം സതി! മാദൃശർക്കിതുദൃഢം
നിഷ്കാമകർമ്മ വ്രതം
ഏകാന്തം രതി സൂര്യനിൽകമലിനി-
ക്കർക്കപ്രിയം പങ്കജം
ഹാ കാണ്കെന്തൊരു വിസ്മയം മധുവിനായ്
തേനീച്ച താനെപ്പോഴും

അച്ഛമിപ്പഴയകൊച്ചുപാത്രമള-
വറ്റനെയ്യിതുകണക്കിനേ
പിച്ചതാനിഹ മറച്ചു നിന്നുടയ
സച്ചരിത്രമിതശേഷവും
പിച്ചളത്തകിടിൽ മെച്ചമായമണി-
മാലപോലെയതു പിന്നെയും
വെച്ചടക്കുമൊരുപിത്തളാട്ടമിനി-
യും നിണക്കു സതി! യോഗ്യമോ?

(ഞെട്ടിക്കരയുന്നു)
ഭഞ്ജനം മതിമിഴിക്കകം തമോ-
രഞ്ജനം ജനമതിൽ ഭ്രമിക്കയാം.
കഞ്ജനാഭനെ നമുക്കുകാണുവാ-
നഞ്ജനം വിമലഭക്തിതന്നെയാം.

അതുകൊണ്ടു് അങ്ങയുടെ ഭക്തിക്കും മനഃശുദ്ധിക്കും അനുസരിച്ചു് അങ്ങയുടെ മനോദർപ്പണത്തിൽ അങ്ങുന്നു തന്നെ ഭഗവൽപ്രസാദം അനുഭവിക്കുകയാണു ചെയ്യുന്നതു്. ഈയുള്ളവൾ ഒന്നും മറച്ചുവെച്ചിട്ടില്ല.
ഭക്തങ്കൽ നല്ല ഭഗവൽകൃപ ചെന്നകാലം
നില്ക്കുന്നതല്ല ബുധസത്തമ! യുക്തിവാദം
വായ്ക്കുന്ന പാൽക്കടലളന്നു കണക്കുവെക്കാൻ
പാൽക്കുറ്റിയെന്തിനു വൃഥാ പരിഹാസയോഗ്യം.

കാട്ടിൽ പേടികളഞ്ഞതും കളതരം
വാക്കോതി നിന്നിൽ പ്രിയം
കാട്ടിക്കൊണ്ടു കളായകാന്തികവരും
പൂമേനി കാണിച്ചതും
പാട്ടിൽ കൂത്തിലുമൊത്തുചേർന്നനുദിനം
നിന്നിംഗിതം തുംഗമായ്
കൂട്ടിത്തന്നതുമോർക്ക പൊന്നുമകനേ!
ശ്രീ വാസുദേവൻ ദൃഢം.

കാവടിച്ചിന്തു്—തിസ്രജാതി രൂപകം.
ഭക്തിതന്നെസുഗമസരണി ഭക്തിതന്നെയാം
ത്യക്തവാസനം കടന്നു
ഭക്തവത്സലങ്കൽ ചേർന്നു
മുക്തനാകുവാൻ നരന്നു
സപദി വിപദി നിപതിയാതെ (ഭക്തി)
ശ്രീമണാളൻതങ്കൽ തിങ്ങും
പ്രേമമുണ്ടനന്തമിങ്ങും
ശ്യാമളൻ കനികിലെങ്ങും
പരമശാന്തിവരുമെ നീന്തി (ഭക്തി)
അല്ലയോ പരമഭാഗവതരത്നമേ! അങ്ങയുടെ സന്നിധാനംകൊണ്ടു ഞങ്ങൾ ഇപ്പോൾ ധന്യധന്യാവസ്ഥയെ പ്രാപിച്ചിരിക്കുന്നു. ഇനി എന്തൊരു ഉപചാരംകൊണ്ടാണു് ഞങ്ങൾ അങ്ങയെ പൂജിക്കേണ്ടതെന്നറിയുന്നില്ല.
ഭരതവാക്യം
ലോകത്തിലീവക സുശീലകൾ വാണു സാധു
ശോകക്ഷതിക്കു സുതരെ പ്രസവിച്ചിടട്ടെ!
നാകത്തിലും രുചി വരാതെ മുകുന്ദപാദ-
മേകത്തിലിക്കവി കടന്നു രമിച്ചിടട്ടെ!
മംഗളം
“സ്ഥാപകായ ച ധർമ്മസ്യ
സർവ്വധർമ്മ സ്വരൂപിണേ
അവതാരവരിഷ്ഠായ രാമകൃഷ്ണായ തേ നമഃ”
അവസാനിക്കുന്നു
[1] ശ്രീരാമകൃഷ്ണന്റെ തിരുവായ്മൊഴി. (പ്രബുദ്ധകേരളം)
[2] ശ്രീശങ്കരാചാര്യകൃതം.

പ്രശസ്തനായ കവിയായിരുന്നു കുട്ടമത്തു് കുന്നിയൂർ കുഞ്ഞിക്കൃഷ്ണക്കുറുപ്പ് (ജനനം: 1880–7 ആഗസ്റ്റ് 1943). കുട്ടമത്തു് എന്ന തൂലികാനാമത്തിലാണു് രചനകൾ നിർവഹിച്ചിരുന്നതു്. ഇദ്ദേഹം സംഗീതനാടകങ്ങൾ രചിച്ചാണു് പ്രശസ്തനായതു്.
കാസർകോഡ് ജില്ലയിലെ ചെറുവത്തൂരിനടുത്തു് കുട്ടമത്തു് കുന്നിയൂർ തറവാട്ടിൽ ദേവകിയമ്മയുടേയും വണ്ടാട്ടു് ഉദയവർമ്മൻ ഉണിത്തിരിയുടേയും അഞ്ചാമത്തെ പുത്രനായി ജനിച്ചു. പ്രാഥമികഗ്രാമീണവിദ്യാഭ്യാസത്തിനു ശേഷം സംസ്കൃതം, ഇംഗ്ലീഷ് എന്നിവ അഭ്യസിച്ചു. തറവാട്ടിലെ തന്നെ കാരണവരിൽനിന്നും ശാസ്ത്രവും കാവ്യവും പഠിച്ചു. ശേഷം തർക്കശാസ്ത്രം, വൈദ്യം എന്നിവയും ഇദ്ദേഹം പഠിയ്ക്കുകയുണ്ടായി.
കണ്ണൂരിൽനിന്നു് എം. കെ. കുഞ്ഞിരാമൻവൈദ്യരുടെ ഉടമസ്ഥതയിൽ പ്രസിദ്ധീകരിച്ചിരുന്ന കേരളചന്ദ്രികയുടെ പത്രാധിപരായി സേവനമനുഷ്ഠിച്ചു. നീലേശ്വരം രാജാസ് ഹൈസ്കൂളിൽ അദ്ധ്യാപകനായും സേവനമനുഷ്ഠിച്ചിട്ടുണ്ടു്. ഇവിടെ 13 കൊല്ലക്കാലം അദ്ധ്യാപകനായിരുന്നു.
ചെറുപ്പത്തിൽ തന്നെ സമസ്യാപൂരണം, കവിതാരചന എന്നിവ നടത്തി. കീചകവധം ഓട്ടൻതുള്ളൽ രചിച്ചു. ജ്യേഷ്ഠനോടൊരുമിച്ചു് ഉത്സവചരിത്രം എന്ന കൂട്ടുകവിത രചിച്ചു. തന്റെ പത്തൊൻപതാമത്തെ വയസ്സിലാണു് യമകകാവ്യങ്ങളിൽ പ്രസിദ്ധമായ കാളിയമർദ്ദനം ഇദ്ദേഹം രചിയ്ക്കുന്നതു്. പ്രശസ്തകവി ഒ. എൻ. വി. കുറുപ്പു് ഇദ്ദേഹത്തിന്റെ രചനകളെ ഇപ്രകാരമാണു് വിലയിരുത്തുന്നതു്. “കുട്ടമത്തിന്റെ സംഗീതനാടകങ്ങൾ പുതിയ സങ്കേതങ്ങളോ അത്ഭുതശില്പവൈദഗ്ദ്ധ്യമോ ഒന്നും പ്രകാശിപ്പിയ്ക്കുന്നില്ല. പക്ഷേ, അന്നു് നിലവിൽ ഉണ്ടായിരുന്ന സംസ്കൃതനാടകങ്ങളുടേയും തമിഴ്‌നാടകങ്ങളുടേയും രീതികളെ സമന്വയിപ്പിച്ചുകൊണ്ടുള്ള ലളിതവും സദസ്യരെ രസിപ്പിയ്ക്കാൻ പാകത്തിലുള്ളതുമായ ഒരു സങ്കേതമാണു് ഈ നാടകങ്ങളുടെ രചനയിൽ ഇദ്ദേഹം അവതരിപ്പിച്ചിരുന്നതു്.” സംസ്കൃതനാടകസങ്കേതങ്ങളിൽ ചുവടൂന്നി, എന്നാൽ ഹിന്ദുസ്ഥാനി-ബിഹാക്, പാഴ്സി-തമിഴ് സംഗീതനാടകരംഗ-താളങ്ങളിൽ ഇദ്ദേഹം നാടകമെഴുതിയിരിയ്ക്കുന്നതു്. മലബാറിലെ ആസ്വാദകവൃന്ദത്തെ ഭക്തിയുടേയും വാത്സല്യത്തിന്റേയും ഔന്നത്യത്തിലെത്തിച്ച ഒരു സംഗീതനാടകം ആണു് ബാലഗോപാലൻ.
മലബാറിന്റെ സാഹിത്യമണ്ഡലത്തെ സ്വാധീനിച്ച രണ്ടു് മഹാൻമാരാണു് മഹാകവി കുട്ടമത്തും വിദ്വാൻ പി. കേളുനായരും. ചരിത്രത്തിൽ പ്രാധാന്യരെങ്കിലും വിസ്മൃതിയിൽ ആണ്ടുപോയിക്കൊണ്ടിരിയ്ക്കുന്നവരാണിവർ. ഉത്തരകേരളത്തിലെ ഒരു തലമുറയെ സ്വാധീനിച്ചവരായിരുന്നു ഇവർ.
1941-ൽ ചിറയ്ക്കൽ രാമവർമ്മ മഹാരാജാവു് മഹാകവിപ്പട്ടം നൽകി ആദരിച്ചു. മാതൃഭൂമി പത്രാധിപരായിരുന്ന കേളപ്പനാണു് മഹാകവി എന്നാദ്യം ഇദ്ദേഹത്തെ വിശേഷിപ്പിച്ചതു്.
