= അന്‍സാരികള്‍ =
Ansaries

ഇസ്ളാംമതപ്രവാചകനായ മുഹമ്മദു നബി മദീനയിലെ തന്റെ അനുയായികള്‍ക്ക് നല്കിയ പേര്. 'സഹായികള്‍' എന്നാണ് ഈ പദത്തിന്റെ അര്‍ഥം. മുഹമ്മദുനബിയും (570-632) അനുയായികളും മെക്കയില്‍നിന്ന് മദീനയിലേക്ക് പലായനം ചെയ്തപ്പോള്‍ (622) അവര്‍ക്ക് അഭയം നല്കി സഹായിച്ചതുകൊണ്ട് മദീനാവാസികള്‍ക്ക് അന്‍സാരികള്‍ എന്ന പേരു ലഭിച്ചു. മെക്കയില്‍നിന്ന് മദീനയിലെത്തിയ അഭയാര്‍ഥികളായ 'മുഹാജിറുകളെ'  അന്‍സാരികള്‍ സ്വന്തം വീട്ടില്‍ പാര്‍പ്പിക്കുകയും വസ്തുവകകള്‍പോലും ഭാഗിച്ചുകൊടുക്കുകയും ചെയ്തതായി പറയപ്പെടുന്നു. ബദര്‍ യുദ്ധത്തില്‍ പങ്കെടുത്ത മുസ്ളിം സൈനികരില്‍ ഭൂരിഭാഗവും അന്‍സാരികളായിരുന്നു.
[[category:മതം]]