=അഷ്ടാദശവാദ്യം=

ക്ഷേത്രങ്ങളിലെ ചടങ്ങുകളോടനുബന്ധിച്ച് ഒറ്റയ്ക്കും കൂട്ടായും പ്രയോഗിക്കപ്പെടുന്ന പതിനെട്ടുവാദ്യം. 'വാദ്യങ്ങള്‍ പതിനെട്ട്' എന്നാണ് സാധാരണ പറയുക. ഇതില്‍ സുഷിരം, തന്ത്രി, 
ചര്‍മം എന്നീ വിഭാഗങ്ങളില്‍പ്പെട്ട ഉപകരണങ്ങള്‍ ഉള്‍പ്പെടുന്നു. 

ഇവയുടെ പേരുകളെ സംബന്ധിച്ചു ഭിന്നാഭിപ്രായങ്ങള്‍ ഉണ്ട്. എങ്കിലും സാധാരണ അംഗീകരിക്കപ്പെട്ടുവരുന്ന പേരുകള്‍ താഴെ കൊടുക്കുന്നു:

ഭേരി, ഡമരുകം, ധവളം, ഡിംഡിമം, ദുന്ദുഭി, മദ്ദളം, മദ്ദുകം, മൃദംഗം, പാണവം, പടഹം, കാഹളം, നൂപുരം, താളം, തുംബുരു, തൂര്യം, വേണു, ശബ്ദം, വീണ. ഇവ കൂടാതെ നാഗസ്വരവും തവിലും പ്രധാന ഉപകരണങ്ങളായും ശംഖ്, തുത്തി, തുരുടി, തുന്തിന, താര്‍, ഏകതാരു, വില്‍, വീണ, തപ്പ്, തത്തിമ, ഉഡുക്ക്, ഡക്കി എന്നിവ സഹോപകരണങ്ങളായും ഒരു അഷ്ടാദശവാദ്യക്രമം ഉള്ളതായി പറയപ്പെടുന്നുണ്ട്. 'പതിനെട്ടുവാദ്യവും ചെണ്ടയ്ക്കു താഴെ' എന്ന ഒരു ചൊല്ല് മലയാളത്തിലുണ്ട്.

(വി.എസ്. നമ്പൂതിരിപ്പാട്)