= അടിമോന =

ആദ്യക്ഷരപ്രാസത്തിന് തമിഴില്‍ പറഞ്ഞുവരുന്ന പേര്. 'മോനൈ' എന്നതിന് ആദ്യം എന്നര്‍ഥം. ഒരു പാദത്തിലെ ആദ്യക്ഷരംതന്നെ അടുത്ത പാദത്തിലെ ആദ്യക്ഷരമായി പ്രയോഗിക്കുന്ന പ്രാസമാണ് ഇത്. ഉദാ.
   
'തരതലന്താനളന്താ പിളന്താ പൊന്നന്‍
	
തനക ചെന്താര്‍ വരുന്താമല്‍ ബാണന്‍ തന്നെ'

ഇതില്‍ ആദ്യപാദത്തിലെ ആദ്യക്ഷരം 'ത' അടുത്ത പാദത്തിന്റെ ആദ്യവും ആവര്‍ത്തിച്ചിരിക്കുന്നു. ഈ പ്രാസം രാമചരിതത്തില്‍ പ്രായേണ ദീക്ഷിച്ചിരിക്കുന്നു.

[[Category:ഭാഷാശാസ്ത്രം]]