=അയോണീകരണം=
Ionisation

അണുക്കളും അണുസംഘാതങ്ങളും (group of atoms) ഇലക്ട്രോണുകള്‍ നഷ്ടപ്പെട്ടോ നേടിയോ ചാര്‍ജിതകണങ്ങളായിത്തീരുന്ന പ്രക്രിയ. അമ്ലങ്ങള്‍, ക്ഷാരങ്ങള്‍, ലവണങ്ങള്‍ എന്നിവ പൊതുവേ ധന (positive) അയോണുകളും ഋണ (negative) അയോണുകളും ചേര്‍ന്നുണ്ടായിട്ടുള്ള രാസപദാര്‍ഥങ്ങളാണ്. ഉദാഹരണമായി സോഡിയം അയോണും ക്ലോറൈഡ് അയോണും ചേര്‍ന്നതാണ് സോഡിയം ക്ലോറൈഡ് എന്ന ലവണം. സോഡിയം ലോഹത്തിന്റെ അണു തന്റേതായ ഒരു ഇലക്ട്രോണ്‍ ക്ലോറിന്‍-അണുവിന് പ്രദാനംചെയ്യുന്നതുമൂലം രണ്ടും (സോഡിയവും ക്ലോറിനും) അയോണുകളായിത്തീര്‍ന്ന് പരസ്പരം വിപരീതങ്ങളായ (+ve,-ve) വൈദ്യുതചാര്‍ജുകളാല്‍ ആകൃഷ്ടരായി ബന്ധിക്കപ്പെട്ട് പ്രസ്തുത ലവണത്തില്‍ സ്ഥിതിചെയ്യുകയാണ്. ഖരാവസ്ഥയിലുള്ള ലവണത്തിലെ ഈ ധന-ഋണ ഭാഗങ്ങള്‍ നിയതരീതിയില്‍ അടുക്കിവയ്ക്കപ്പെട്ടിരിക്കുന്നു. ഈ അവസ്ഥയിലിരിക്കുമ്പോള്‍ അയോണുകള്‍ക്കു ചലനസ്വാതന്ത്ര്യം ഇല്ല. ഖര ബേസുകളുടെയും ഖര അമ്ലങ്ങളുടെയും സ്ഥിതി ഇതുതന്നെയാണ്. ഏതായാലും ഈ വസ്തുക്കളെല്ലാംതന്നെ ദ്രവീകരിക്കപ്പെടുമ്പോഴും ജലത്തിലലിയിക്കുമ്പോഴും അയോണുകള്‍ക്കു ചലനസ്വാതന്ത്ര്യം ലഭിക്കുന്നു. സോഡിയം ക്ലോറൈഡ് ജലത്തിലലിയിക്കുമ്പോള്‍ ലായനിയില്‍ സോഡിയം അയോണുകളും ക്ലോറൈഡ് അയോണുകളും സ്വാതന്ത്ര്യം നേടി സ്വച്ഛന്ദം ചലിച്ചുകൊണ്ടിരിക്കും. ഇലക്ട്രോവാലന്റ് യൗഗികങ്ങളുടെ പൊതുസ്വഭാവമാണിത്. ലായകമായ ജലത്തിന്റെ ഡൈഇലക്ട്രിക് സ്ഥിരാങ്കം (dielectric constant) ഉയര്‍ന്നതാകയാല്‍ ഈ സ്വതന്ത്ര അയോണുകള്‍ തമ്മിലുള്ള വിദ്യുത്ബന്ധങ്ങള്‍ ദുര്‍ബലമാകുന്നു. ഈ ലായനിയില്‍ പുറമേനിന്ന് ഒരു വൈദ്യുതിക്ഷേത്രം (electric field) പ്രയുക്തമാകുമ്പോള്‍ അയോണുകള്‍ വിപരീതചാര്‍ജുള്ള ഇലക്ട്രോഡുകളിലേക്കു നീങ്ങുകയും അവിടെച്ചെന്നു പറ്റി ചാര്‍ജുകള്‍ നഷ്ടപ്പെട്ട് നിഷ്പക്ഷങ്ങള്‍ (neutral) ആയിത്തീരുകയും ചെയ്യുന്നു. (ഈ പ്രക്രിയയ്ക്ക് വിദ്യുദപഘടനം-eletrolysis എന്നാണ് പേര്). അമ്ലം, ക്ഷാരം, ലവണം എന്നീ വിവിധപദാര്‍ഥങ്ങളുടെ ലായനികള്‍ സ്വതന്ത്രങ്ങളായ അയോണീകൃതകണങ്ങള്‍ മൂലമാണ് വിദ്യുത്ചാലകങ്ങളായി (electric conductors) തീരുന്നത്. 

സാധാരണഗതിയില്‍ വാതകങ്ങള്‍ക്കു വിദ്യുത്ചാലകത കുറവാണ്. അവയില്‍ അയോണീകരണം അല്പമായേ സംഭവിച്ചിരിക്കയുള്ളു എന്നതാണ് അതിനു കാരണം. എന്നാല്‍ എക്സ്റേ കൊണ്ടോ അള്‍ട്രാ വയലറ്റ് രശ്മികള്‍കൊണ്ടോ ഒരു വാതകത്തെ വികിരണനം ചെയ്താല്‍ അതിലുള്ള നിഷ്പക്ഷങ്ങളായ അണുക്കള്‍ അല്ലെങ്കില്‍ തന്മാത്രകള്‍ അയോണീകൃതങ്ങളായി വാതകം വിദ്യുത്ചാലകമായിത്തീരുന്നു. ഭൂമിയില്‍ നിന്നും വളരെ ഉയരത്തിലുള്ള അയോണോസ്ഫിയറിലെ വായു സൂര്യനില്‍നിന്നുള്ള വികിരണംകൊണ്ട് അയോണീകൃതമായിട്ടുള്ളതാണ്. 

ഒരു വാതകത്തില്‍ അയോണുകള്‍ ഉത്പാദിപ്പിക്കുന്നതിനു പ്രധാനമായി മൂന്നു മാര്‍ഗങ്ങളുണ്ട്. സഞ്ചിത-അയോണനം, താപീയ-അയോണനം, ഫോട്ടോ-അയോണനം (cumulative,thermal and photo ionisations) എന്നിവ. ഒരു പ്രയുക്ത വൈദ്യുതിക്ഷേത്രത്തില്‍നിന്ന് ഊര്‍ജം നേടിയെടുത്ത കുറെ വാതകകണങ്ങള്‍ ആദ്യം സ്വയം അയോണുകള്‍ ആവുകയും അവ ഇലക്ട്രോഡുകളുടെ ദിശകളിലേക്ക് അതിവേഗം സഞ്ചരിക്കുന്നതിനിടയില്‍ മറ്റു നിഷ്പക്ഷകണങ്ങളെ സംഘട്ടനംമൂലം അയോണുകളാക്കിത്തീര്‍ക്കുകയും, ഈ പ്രക്രിയ വാതകത്തില്‍ പൂര്‍ണമായി അയോണനം സംഭവിക്കുന്നതുവരെ തുടരുകയും ചെയ്യുക എന്നതാണ് സഞ്ചിത-അയോണനത്തിന്റെ സ്വഭാവം. താപനില കൂടുന്നതനുസരിച്ചു സഞ്ചാരവേഗം അത്യധികമായി വര്‍ധിച്ച വാതകകണങ്ങള്‍ പരസ്പരം സംഘട്ടനവിധേയങ്ങളായി ഇലക്ട്രോണുകള്‍ നഷ്ടപ്പെട്ട് അയോണുകളാവുക എന്നതാണ് താപീയ-അയോണനത്തില്‍ സംഭവിക്കുന്നത്. ഭാഗികമായോ പൂര്‍ണമായോ ഫോട്ടോണുകളെ അവശോഷണം ചെയ്ത് നിഷ്പക്ഷകണങ്ങള്‍ ഇലക്ട്രോണ്‍ നഷ്ടപ്പെട്ട് ചാര്‍ജിതകണങ്ങളായിത്തീരുകയാണ് ഫോട്ടോ-അയണനത്തിന്റെ രീതി.