= അങ്കവാദ്യം =

ഒരു പ്രാചീന താളവാദ്യം. 'അങ്കി' എന്നും 'അങ്ക്യാ' എന്നും ചില ഗ്രന്ഥങ്ങളില്‍ ഇതിനെക്കുറിച്ചു പരാമര്‍ശമുണ്ട്. അങ്കതലത്തില്‍ വച്ചു വായിക്കുന്നതിനാലാകാം ഈ പേരുണ്ടായത്. 'അങ്കേനാലിംഗ്യ വാദനീയോ മൃദംഗാദി വാദ്യഭേദഃ' എന്നു നിഘണ്ടുവില്‍ കാണുന്നു. നാട്യത്തോടൊപ്പം പ്രയോഗിക്കപ്പെട്ടിരുന്ന വാദ്യമാണിത്. രാമായണരചനാകാലത്തും ബുദ്ധമതകാലത്തും ഇതിന് പ്രചുരപ്രചാരമുണ്ടായിരുന്നു. അങ്കവാദ്യത്തിന്റെ രൂപവും വാദനസമ്പ്രദായവും പ്രാചീനശില്പങ്ങളിലും ചുമര്‍ചിത്രങ്ങളിലും കാണാം.

(ലീലാ ഓംചേരി)
[[Category:സംഗീതം-ഉപകരണം]]