=അധിത്യകാവാതം =
Katabatic wind

മലഞ്ചരിവുകളില്‍ രാത്രിയുടെ ആരംഭത്തോടെ മുകളില്‍നിന്നും താഴേയ്ക്കു വീശുന്ന കാറ്റ്. സൂര്യാസ്തമനത്തോടെ ഉന്നത പ്രദേശങ്ങള്‍ പെട്ടെന്നു തണുക്കുന്നതുനിമിത്തം അവിടെ അതിമര്‍ദ മേഖലകള്‍ രൂപം കൊള്ളുകയും താരതമ്യേന കുറഞ്ഞ മര്‍ദമുള്ള താഴ്വാരങ്ങളിലേക്കു കാറ്റു വീശുകയും ചെയ്യുന്നു. കേരളത്തിലെപ്പോലെ മലകളോടടുത്ത തീരപ്രദേശങ്ങളില്‍ ഇവ കരക്കാറ്റുകളുടെ ശക്തി വര്‍ധിപ്പിക്കുന്നു. നോ: പ്രാദേശികവാതങ്ങള്‍
[[Category:അന്തരീക്ഷവിജ്ഞാനീയം]]