= അക്ഷഭ്രംശം =
Nutation

ഖഗോളധ്രുവത്തിന് (Celestial pole) അതിന്റെ മാധ്യസ്ഥാനത്തു(mean position) നിന്നുണ്ടാകുന്നു വ്യതിയാനം. മധ്യരേഖാഭാഗം തള്ളിനില്ക്കുന്ന ഭൂമിയെ എല്ലായ്പ്പോഴും സൂര്യന്റെ ആകര്‍ഷണദിശയിലല്ല ചന്ദ്രന്‍ ആകര്‍ഷിക്കുന്നത് എന്നതാണിതിനു കാരണം. 18 2/3 വര്‍ഷത്തില്‍ 9.2'' വ്യാസാര്‍ധമുള്ള വൃത്തത്തിലൂടെയുള്ള, ഖഗോളധ്രുവത്തിന്റെ ഈ ചാഞ്ചാട്ടമാണ് അക്ഷഭ്രംശം.

സൂര്യപഥത്തിന്റെ അക്ഷത്തിനോട്, അതായത് ക്രാന്തിവൃത്താക്ഷത്തോട് (axis of ecliptic) ചരിഞ്ഞ് കറങ്ങുന്ന ഭൂഭ്രമണാക്ഷത്തിന്റെ (axis of rotation) വേഗത്തിനും കോണത്തിനും ഇതുകൊണ്ട് ചെറിയ വ്യതിയാനമുണ്ടാകുന്നു. സൂര്യനെ ഭ്രമണം ചെയ്ത് പ്രദക്ഷിണം വയ്ക്കുന്ന ഭൂമിയുടെ ഭ്രമണാക്ഷം ക്രാന്തിവൃത്താക്ഷത്തിന് 23<sup>0</sup>30' ചരിഞ്ഞ് കറങ്ങുന്നതിനെയാണ് (26,000 വര്‍ഷത്തിലൊരിക്കല്‍) അയനഭ്രംശം എന്നു പറയുന്നത്. സൂര്യചന്ദ്രാദികളുടെ ആകര്‍ഷണവും ഭൂമിയുടെ ഏകദേശ ഗോളാകാരവും ഭ്രമണാക്ഷത്തിന്റെ ചരിവുമാണ് അയനഭ്രംശത്തിനു നിദാനം; ആകര്‍ഷണബലങ്ങളില്‍വരുന്ന ക്രമമായ വ്യതിയാനംകൊണ്ടാണ് അക്ഷഭ്രംശം ഉണ്ടാകുന്നത്. സൂര്യന്റെ ആകര്‍ഷണം മൂലമുള്ള അക്ഷഭ്രംശം അയനാന്തങ്ങളില്‍ (solstices) ഉച്ചതമമാകയും (maximum) പാര്‍ശ്വങ്ങളില്‍ ക്രമേണ കുറഞ്ഞ് വിഷുവങ്ങളില്‍ (equinoxes) ഇല്ലാതാകയും ചെയ്യുന്നു. തന്‍മൂലം ഭ്രമണാക്ഷത്തിന്റെ ചരിവിനുവരുന്ന അക്ഷഭ്രംശത്തെ സൌര-അക്ഷഭ്രംശം (solar nutation) എന്നു പറയാം. ഇത് കേവലം നിസ്സാരമാണ്. ചാന്ദ്ര-അക്ഷഭ്രംശം (lunar nutation) താരതമ്യേന കൂടുതലായിരിക്കും.

ഭൂമിക്കു ചുറ്റുമുള്ള ചന്ദ്രന്റെ പരിക്രമണം ക്രാന്തിതലത്തിന് ഏതാണ്ട് സമാന്തരമായിട്ടാണെങ്കിലും കൃത്യമായി പറഞ്ഞാല്‍ 18 2/3 വര്‍ഷത്തില്‍ ഇരുവശത്തേക്കും 5<sup>0</sup> വീതം എന്ന ക്രമത്തില്‍ ദോലനം ചെയ്തുകൊണ്ടിരിക്കുന്നു. തത്ഫലമായി ചന്ദ്രന്റെ ആകര്‍ഷണദിശയില്‍ ഉണ്ടാകുന്ന മാറ്റംകൊണ്ട് ഭൂമിയുടെ ഭ്രമണാക്ഷവും ചെറുതായി ദോലനം ചെയ്യുന്നതാണ്. ഈ ദോലനത്തിന്റെ ആവര്‍ത്തനകാലം 18 2/3 വര്‍ഷം തന്നെയാണ്. ഈ വ്യതിയാനങ്ങളുടെ ഫലമായി, ഭൂമിയുടെ ഭ്രമണാക്ഷം,18 2/3  വര്‍ഷത്തില്‍ 9.2'' ഇരുവശത്തേക്കുമെന്ന ക്രമത്തില്‍ ആന്ദോളനം (oscillation) ചെയ്യുന്നു; ആവര്‍ത്തനകാലംകൊണ്ട് ധ്രുവനക്ഷത്രത്തിന്റെ ആപേക്ഷികസ്ഥാനം ഓരോ വശത്തേക്കും 9.2'' വീതം ദോലനം ചെയ്യുന്നു. മറ്റു നക്ഷത്രങ്ങള്‍ക്കും അതുപോലെതന്നെ.

അക്ഷഭ്രംശത്തെ അനുദൈര്‍ഘ്യം (longitudinal) എന്നും തിര്യക് (oblique) എന്നും രണ്ടായി തിരിക്കാം. ഭ്രമണാക്ഷത്തിന്റെ കോണത്തിനുണ്ടാകുന്ന വ്യതിയാനമാണ് അനുദൈര്‍ഘ്യം-അക്ഷഭ്രംശം. തിര്യക്-അക്ഷഭ്രംശത്തെയാണ് അക്ഷഭ്രംശം എന്നു സാധാരണ പറഞ്ഞുവരുന്നത്. 1747-ല്‍ ദൂരദര്‍ശിനിയിലൂടെ അതിലഘുവായ അക്ഷഭ്രംശംപോലും ബ്രിട്ടിഷ് ജ്യോതിശാസ്ത്രജ്ഞനായ ജെയിംസ് ബ്രാഡ്‍ലി (1693-1763) കണ്ടുപിടിച്ചു; ഫ്രഞ്ചു ഗണിതശാസ്ത്രജ്ഞനായ ഴാന്‍ ല റോണ്‍ ദാലംബര്‍ (1717-83) അതിന് വിശദീകരണം തയ്യാറാക്കിയിട്ടുണ്ട്. നോ: അയനഭ്രംശം

(പ്രൊഫ. എസ്.എല്‍. തോമസ്)
[[Category:ജ്യോതി:ശാസ്ത്രം]]