= അത്തപ്പൂവ് =

ചിങ്ങമാസത്തിലെ അത്തംനാള്‍ മുതല്‍ തിരുവോണം വരെയുള്ള പത്തുദിവസങ്ങളില്‍ വീട്ടുമുറ്റത്ത് ഒരുക്കുന്ന പുഷ്പാലങ്കാരം. തൃക്കാക്കരയപ്പന് എഴുന്നള്ളിയിരിക്കാന്‍ വേണ്ടിയാണ് പൂക്കളം ഒരുക്കുന്നത്. തൃക്കാക്കരവരെപോയി ദേവനെ പൂജിക്കാന്‍ എല്ലാ ജനങ്ങള്‍ക്കും സാധിക്കാതെ വന്നപ്പോള്‍ അവരവരുടെ മുറ്റത്ത് പൂക്കളം ഉണ്ടാക്കി അതില്‍ പ്രതിഷ്ഠിച്ച് തന്നെ ആരാധിച്ചുകൊള്ളുവാന്‍ തൃക്കാക്കരയപ്പന്‍ അനുവദിച്ചു എന്നാണ് ഐതിഹ്യം.

അത്തപ്പൂവിടുന്നതില്‍ പ്രാദേശികമായ രീതിവ്യത്യാസങ്ങള്‍ കാണുന്നുണ്ട്. അത്തം, ചിത്തിര, ചോതി എന്നീ ദിവസങ്ങളില്‍ ചാണകം മെഴുകിയ നിലത്ത് തുമ്പപ്പൂവ് മാത്രമാണ് അലങ്കരിക്കുക. പിന്നീടുള്ള ദിവസങ്ങളില്‍ വിവിധതരം പൂക്കള്‍ ഉപയോഗിക്കുന്നു. എന്നാല്‍ ചിലയിടങ്ങളില്‍ ഒരു നിറത്തിലുള്ള പൂവില്‍ തുടങ്ങി 10-ാം ദിവസം പത്തു നിറങ്ങളിലുള്ള പൂക്കള്‍കൊണ്ട് പൂക്കളം ഒരുക്കുന്നു. ചാണകം മെഴുകിയ വെറും നിലം കൂടാതെ, മണ്ണുകൊണ്ട് നിര്‍മിച്ച ചാണകം മെഴുകിയ ചെറുമണ്ഡപവും പൂവിടുന്നതിന് ഉപയോഗിക്കുന്നുണ്ട്. തിരുവോണ ദിവസം രാവിലെ പൂക്കളത്തില്‍ പലകയിട്ട് അരിമാവു പൂശി അതിന്റെ പുറത്ത് നാക്കിലയിട്ട് അരിമാവു പൂശുന്നു. മണ്ണുകൊണ്ടോ തടികൊണ്ടോ തൃക്കാക്കരയപ്പന്റെ വിഗ്രഹങ്ങള്‍ നിര്‍മിച്ച് ഇലയില്‍ പ്രതിഷ്ഠിക്കും. വിഗ്രഹങ്ങള്‍ പൂക്കള്‍ കൊണ്ട് അലങ്കരിക്കുകയും പാലട, പഴം, ശര്‍ക്കര തുടങ്ങിയവ നിവേദിക്കുകയും ചെയ്യുന്നു. ചതയം വരെ ദിവസത്തില്‍ മൂന്നു നേരവും പൂജയുണ്ട്. കുടുംബത്തിലെ കാരണവരാണ് പൂജ നടത്തേണ്ടത്. ഓണം കാണാന്‍ എഴുന്നള്ളുന്ന തൃക്കാക്കരയപ്പനെ ആര്‍പ്പുവിളിച്ചും കുരവയിട്ടും ആണ് സ്വീകരിക്കുന്നത്. ചതയം കഴിഞ്ഞ് ഏതെങ്കിലും നല്ല ദിവസം നോക്കി പ്രതിഷ്ഠ ഇളക്കുന്നു; മിക്കവാറും ഉത്തൃട്ടാതി നാളിലായിരിക്കും.

ചില സ്ഥലങ്ങളില്‍ മൂലം നക്ഷത്രത്തിലാണ് പ്രതിഷ്ഠ നടത്തുന്നത്. കളം ഒരുക്കി അതില്‍ രണ്ടു പലക നിരത്തുന്നു. ആദ്യദിവസം 5-ഉം രണ്ടാം ദിവസം 7-ഉം മൂന്നാം ദിവസം 9-ഉം തിരുവോണ ദിവസം മഹാബലിയെക്കൂടി ഉള്‍പ്പെടുത്തി 21-ഉം വിഗ്രഹങ്ങള്‍ പ്രതിഷ്ഠിച്ച് പൂജിക്കുന്നു.
<gallery >
Image:p387a.png|സര്‍വ്വവിജ്ഞാനകോശ ഇന്‍സ്റ്റിറ്റൂട്ടില്‍ തയ്യാറാക്കിയ
മലയാള അക്ഷരങ്ങള്‍ ആലേഖനം ചെയ്ത അത്തപ്പൂക്കളം(2006)
Image:p387b.png|അത്തപ്പൂക്കളുടെ പുതിയ 
രൂപമാതൃകകളില്‍ ഒന്ന്
</gallery>
<gallery>
Image:p388c.png|
Image:p388d.png|
Image:p388e.png|
Image:p388f.png|
Image:p388g.png|
Image:p388h.png|
Image:p388i.png|
</gallery>


ഓണം കേരളീയരുടെ ദേശീയോത്സവമായി പ്രഖ്യാപിക്കപ്പെട്ടതോടെ അത്തപ്പൂവിടല്‍ മത്സരങ്ങള്‍ നടത്തിവരുന്നുണ്ട്. നോ: അത്തച്ചമയം, അത്തം
[[Category:ആഘോഷം]]