= അക്രിലൊനൈട്രൈല്‍ =
Acrylonitrile

ഒരു കാര്‍ബണിക സംയുക്തം. ഇതിനു വിനൈല്‍ സയനൈഡ് എന്നും പേരുണ്ട്. ദ്രവവസ്തുവാണ്. ഫോര്‍മുല, CH<sub>2</sub>=CH-CN. തിളനില 78&deg;C വെള്ളത്തില്‍ അലിയും. ആ.സാ. 0.797. ബേരിയം സയനൈഡിന്റെ സാന്നിധ്യത്തില്‍ അസറ്റിലീന്‍ ഹൈഡ്രജന്‍ സയനൈഡുമായി പ്രവര്‍ത്തിച്ചു അക്രിലൊനൈട്രൈല്‍ ലഭ്യമാക്കുന്നു:

CH = CH + HCN &rarr; CH<sub>2</sub> = CH - CN

അക്രിലൊനൈട്രൈല്‍ സ്വയം പോളിമറീകരിച്ചും മറ്റു യൗഗികങ്ങളുമായി സഹപോളിമറീകരിച്ചും (copolymerise) വ്യവസായപ്രാധാന്യമുള്ള ഒട്ടനേകം വസ്തുക്കള്‍ തരുന്നു. ഒറ്റയ്ക്കു പോളീമറീകരിച്ചു ലഭിക്കുന്ന പോളി അക്രിലൊനൈട്രൈല്‍ കൃത്രിമനാരുകളുണ്ടാക്കുവാനും ബ്യൂട്ടാ ഡൈഈനുമായി (Buta diene) കൂട്ടുചേര്‍ന്നു പോളിമറീകരിച്ചു കിട്ടുന്ന ഉത്പന്നം ബ്യൂണാ-N റബര്‍ നിര്‍മിക്കുവാനും പ്രയോജനപ്പെടുന്നു. വിനൈല്‍ ക്ലോറൈഡ്, വിനൈല്‍ പിരിഡീന്‍ (Vinyl pyridine) എന്നിവയുമായി സഹപോളിമറീകരിച്ചു കിട്ടുന്ന ഉത്പന്നങ്ങളും വ്യവസായപ്രാധാന്യമുള്ളവയാണ്.
[[Category:രസതന്ത്രം]]