= അഭിജിത്ത് =


ജ്യോതിഷത്തിലെ മുഹൂര്‍ത്തവിഷയത്തില്‍ വ്യവഹരിക്കപ്പെടാറുള്ളതും 27 നക്ഷത്രങ്ങളില്‍തന്നെ അന്തര്‍ഭവിക്കുന്നതുമായ അധികനക്ഷത്രം. ഉത്രാടം നക്ഷത്രത്തിന്റെ അവസാനപാദവും (15 നാഴിക) തിരുവോണത്തിന്റെ ആദ്യത്തെ 4 നാഴികയും ചേര്‍ന്ന 19 നാഴിക സമയമാണ് അഭിജിത്ത്.


'ഗോവിന്ദാദ്യഘടീ ചതുഷ്ക സഹിതോ

വിശ്വാന്ത്യപാദോ &int; ഭിജിത്ത്.'     (വരദീപിക)

'ജാതക'ത്തിലും 'പ്രശ്ന'ത്തിലും 27 നക്ഷത്രങ്ങളേ പരിഗണിക്കാറുളളു. എന്നാല്‍ മുഹൂര്‍ത്തത്തില്‍ 'ശലാകാവേധം' മുതലായവ നിര്‍ണയിക്കേണ്ട അവസരങ്ങളില്‍ അഭിജിത്തിന്റെ ആവശ്യം ഉണ്ടാകുന്നു. 


(പ്രൊഫ. എസ്.കെ. പെരിനാട്)

[[Category:ജ്യോതിഷം]]