=ആന്ദോളം=

സംഗീതശാസ്ത്രത്തില്‍ ദശഗമകങ്ങളില്‍ ഒന്ന്. ഒരു സ്വരത്തില്‍നിന്നാരംഭിച്ച് മറ്റൊരു സ്വരത്തിലേക്കു പോയിട്ട് വീണ്ടും തിരിച്ച് തുടങ്ങിയ സ്വരത്തില്‍ വന്നുചേരുക, തുടര്‍ന്നു വീണ്ടും അതേ സ്വരത്തില്‍നിന്നും രണ്ടാമത്തെ സ്വരത്തില്‍കൂടി കടന്ന് ആദ്യസ്വരത്തില്‍ എത്തിയിട്ട് മൂന്നാമതൊരു സ്വരത്തില്‍ എത്തി ആവര്‍ത്തിച്ച് ഏതാണ്ട് ഒരു ഊഞ്ഞാലാട്ടം പോലെ പാടുന്ന രീതിക്കാണ് ആന്ദോളം എന്നു പറയുക. ഒരു സ്വരത്തിന്റെ മനോഹാരിത വര്‍ധിപ്പിക്കുമാറ് അതിലടങ്ങിയ ശ്രുതികള്‍ക്കു പുറമേ തൊട്ടടുത്തുള്ള ശ്രുതികളെക്കൂടി തന്മയത്വപൂര്‍വം ഇണക്കി പ്പാടുന്ന ഗമക സമ്പ്രദായത്തില്‍പ്പെട്ടതാകുന്നു. സ്വരം പാടുമ്പോള്‍ അവയുടെ കനം കുറച്ചും കൂട്ടിയും നിയന്ത്രിച്ച് ആകര്‍ഷകവും മന്ദവും അതേസമയം തെല്ലുസമയം നീണ്ടുനില്ക്കുന്നതുമായ ചലനവിശേഷങ്ങള്‍ സൃഷ്ടിക്കുന്ന ഈ ഗമകങ്ങള്‍ ഒരേ സ്വരത്തിനുതന്നെ വിവിധ ഭാഗങ്ങളില്‍ ഭിന്ന ഭാവങ്ങള്‍ പ്രകടിപ്പിക്കുവാന്‍ സഹായിക്കും. ആന്ദോളത്തിന് കൂടുതല്‍ ആകര്‍ഷകമായ സ്വരവ്യാപാരം സാധ്യമാണ്. 

ഉദാ. സ രി സ മാ മ, സ രി സ പാ പ, സ രി സ ധാ ധ