==ആവനാഴി==
അമ്പുകള്‍ സൂക്ഷിക്കാനുള്ള കൂട്‌ അല്ലെങ്കിൽ ഉറ. പ്രാചീനകാലത്ത്‌ അമ്പും വില്ലും മുഖ്യ യുദ്ധായുധങ്ങളായിരുന്നപ്പോള്‍ മുന്നണിയിലേക്കു പോകുന്ന യോദ്ധാക്കള്‍ക്ക്‌ ധാരാളം അസ്‌ത്രങ്ങള്‍ കൈവശം കരുതിയിരിക്കേണ്ടതുണ്ടായിരുന്നു. വലതുചുമലിന്റെ പിന്‍ഭാഗത്ത്‌ തൂക്കിയിടുന്ന ഒരു ഉറയിലാണ്‌ അമ്പുകള്‍ സംഭരിച്ചിരുന്നത്‌. അനായാസമായി ഓരോന്നോരോന്ന്‌ വലം കൈയ്‌കൊണ്ട്‌ എടുത്ത്‌ വില്ലിൽതൊടുത്ത്‌ എയ്യാന്‍ ഇതുകൊണ്ട്‌ വളരെ സൗകര്യമുണ്ടായിരുന്നു.
[[ചിത്രം:Vol3p402_Carquois.jpg.jpg|thumb|ആവനാഴി]]
ഏതെങ്കിലും ആവശ്യത്തിന്‌ അമ്പുംവില്ലും ഉപയോഗിച്ചിരുന്നവർ സ്ഥലകാലഭേദമെന്യേ ആവനാഴിയും  വഹിച്ചിരുന്നു. ചെറിയ ചീളുകളായി കീറി മിനുസപ്പെടുത്തിയ മുളകളോ മുളത്തുണ്ടുകളോ അല്ലെങ്കിൽ തുകലോ കൊണ്ടാണ്‌ ആവനാഴികള്‍ നിർമിച്ചുവന്നത്‌.

"ആവം' എന്നും "ആവനാഴിക' എന്നും ഇതിനെ ഓരോ കാലത്ത്‌ പറഞ്ഞുവന്നിരുന്നു. ("ആവനാഴിക പുകന്തുതത്തിരം' എന്ന്‌ രാമചരിതത്തിലും -101-1-"ഇല്ലല്ലോ തേരും വില്ലുമാവനാഴികയതും' എന്ന്‌ മഹാഭാരതത്തിലും പരാമർശങ്ങള്‍ കാണുന്നു.)

തൂണ, തൂണി, തുണീരം, ഉപാസംഗം, നിഷംഗം, ഇഷുധി എന്നിവയാണ്‌ ആവനാഴിക്കു പര്യായപദങ്ങള്‍.