
== ഇരാവാന്‍ ==

മഹാഭാരതത്തിലെ ഒരു കഥാപാത്രം. യുധിഷ്‌ഠിരനും പാഞ്ചാലിയും രഹസ്യസല്ലാപത്തില്‍ മേളിച്ചിരുന്ന അന്തഃപുരത്തില്‍ അറിയാതെ കയറാനിടയായ അര്‍ജുനന്‍ അതിനു പ്രായശ്ചിത്തമായി ഒരു വര്‍ഷം നീണ്ടുനിന്ന തീര്‍ഥാടനം നടത്തിയെന്നും ആ കാലത്ത്‌ ഗംഗാതീരത്തുവച്ച്‌ കാണാനിടയായ ഉലൂപി എന്ന നാഗരാജകന്യകയില്‍ ജനിച്ച സന്തതിയാണ്‌ ഇരാവാനെന്നും മഹാഭാരതം ആദിപര്‍വത്തില്‍ പറഞ്ഞിരിക്കുന്നു. കുരുക്ഷേത്രയുദ്ധത്തില്‍ പിതാവിനെ സഹായിക്കാനെത്തിയ ഇരാവാന്‍ ശ്രുതായുസ്സിനെയും വിന്ദനെയും അനുവിന്ദനെയും പരാജയപ്പെടുത്തിയതായും ശകുനിയുടെ അഞ്ചു സഹോദരന്മാരെ വധിച്ചതായും ഒടുവില്‍ അലംബുഷനാല്‍ കൊല്ലപ്പെട്ടതായും ഭീഷ്‌മപര്‍വത്തില്‍ വിവരിച്ചിട്ടുണ്ട്‌.