
== ഇഗ്വാനോഡന്‍ ==

ദിനോസറുകളുടെ ഒരു ജീനസ്‌. ജുറാസ്സിക്‌ കാലത്തിന്റെ അവസാനവും ക്രറ്റേഷ്യസ്‌ കാലത്തിന്റെ ആരംഭത്തിലും (ഉദ്ദേശം പതിമൂന്ന്‌ കോടി അറുപത്‌ ലക്ഷം വര്‍ഷങ്ങള്‍ക്കു മുന്‍പ്‌) ആണ്‌ ഇവ ജീവിച്ചിരുന്നതെന്ന്‌ കരുതുന്നു. ഇഗ്വാനോഡന്‍ സസ്യഭോജി ആയിരുന്നു. പത്തുമീറ്ററിലധികം നീളവും നാലുമീറ്ററോളം ഉയരവും ഇവയ്‌ക്കുണ്ടായിരുന്നു. ഇവയുടെ പല്ലുകള്‍ക്ക്‌ ഈര്‍ച്ചവാളിന്റെ രൂപമായിരുന്നു.

വിശദമായ പഠന പരീക്ഷണങ്ങള്‍ക്ക്‌ ഇദം പ്രഥമമായി വിധേയമാക്കപ്പെട്ട ദിനോസോര്‍ വിഭാഗമാണ്‌ ഇഗ്വാനോഡന്‍. യൂറോപ്പിലെ ചില സ്ഥലങ്ങളിലെ പാറക്കെട്ടുകള്‍ക്കിടയിൽ നിന്നാണ്‌ ഇതിന്റെ ഫോസിലുകള്‍ കണ്ടെത്തിയിട്ടുള്ളത്‌. നോ: ദിനോസോര്‍