== ഈഥേന്‍ ==
== Ethane ==

ഒരു കാര്‍ബണിക വാതകയൗഗികം. ആല്‍ക്കേന്‍ ശ്രണിയിലെ രണ്ടാമത്തെ അംഗം (ഒന്നാമത്തേത്‌ മീഥേന്‍ CH<sub>3</sub>). ഫോര്‍മുല C<sub>2</sub>H<sub>6</sub>. എച്ചക്കിണറുകളില്‍നിന്നു ലഭിക്കുന്ന വാതകങ്ങളിലും (10%) കല്‍ക്കരിവാതകങ്ങളിലും ഈഥേന്‍ അടങ്ങിയിട്ടുണ്ട്‌. ഭൗതികവും രാസികവുമായ ഗുണധര്‍മങ്ങളില്‍ ഇത്‌ മീഥേന്‍ വാതകത്തോടു സദൃശമാണ്‌. നിറവും മണവുമില്ല. ജലത്തില്‍ ലയിക്കുന്നില്ല. ആല്‍ക്കഹോളില്‍ ലയിക്കുന്നു. കത്തിപ്പിടിക്കും. ജ്വാലയ്‌ക്കു പ്രകാശമുണ്ടായിരിക്കും. 40C-ല്‍, മര്‍ദം 46 അന്തരീക്ഷത്തോളം വര്‍ധിപ്പിച്ച്‌ ദ്രവമാക്കാം. ഈഥേന്‍ദ്രവത്തിന്റെ ക്വഥനാങ്കം - 890C ആണ്‌. ഓക്‌സിജനോ വായുവോ കലര്‍ത്തി സ്‌ഫോടകമായ മിശ്രിതം ലഭ്യമാക്കാം.

ഒരു പൂരിതയൗഗികമാകയാല്‍ അമ്ലങ്ങള്‍, ആല്‍ക്കലികള്‍, ഹാലജന്‍ എന്നിവയുമായി സാധാരണ താപനിലയില്‍ ഈഥേന്‍ പ്രതിപ്രവര്‍ത്തിക്കുകയില്ല. എന്നാല്‍ ക്ലോറിനും ഈഥേനും തമ്മില്‍ മിശ്രണം ചെയ്‌ത്‌ വിസരിതസൂര്യപ്രകാശത്തില്‍ (diffused sunlight) വെച്ചാല്‍ ഒരു ഹൈഡ്രജന്‍ മുതല്‍ 6 ഹൈഡ്രജന്‍ വരെ ആദേശം ചെയ്യപ്പെട്ട ക്ലോറൊ ഈഥേനുകള്‍ ലഭിക്കുന്നതാണ്‌.

[[ചിത്രം:Vol4_501_1.jpg|300px]]

ഈര്‍പ്പം തീരെയില്ലാത്ത ഈഥര്‍മാധ്യമത്തില്‍ മെഥില്‍ അയഡൈഡും സോഡിയം കഷണങ്ങളും ചേര്‍ത്തു ചൂടാക്കിയാല്‍ ഈഥേന്‍ വാതകം ലഭ്യമാവും (വുര്‍ട്‌സ്‌ രീതി). എഥില്‍ മഗ്നീഷ്യം ബ്രാമൈഡിനെ ജലം ചേര്‍ത്തു ചൂടാക്കി വിയോജനവിധേയമാക്കിയാലും ഈഥേന്‍ ലഭിക്കുന്നു. അസറ്റിക്‌ ആസിഡ്‌ ജലീയലായനിയോ പൊട്ടാസ്യം അസറ്റേറ്റ്‌ ലായനിയോ വൈദ്യുത വിശ്ലേഷണത്തിനു വിധേയമാക്കിയും എഥില്‍ അയഡൈഡിനെ സിങ്ക്‌-കോപ്പര്‍ യുഗ്മവും ആല്‍ക്കഹോളും കൊണ്ടു നിരോക്‌സീകരിച്ചും ആണ്‌ അധികമായ അളവില്‍ പരീക്ഷണശാലയില്‍ ഈഥേന്‍ നിര്‍മിക്കുന്നത്‌. നോ. ആല്‍ക്കേനുകള്‍