
== ഉത്തരധ്രുവാനുക്രമം ==


== North Polar Sequence ==

ഖഗോളത്തിന്റെ ഉത്തരധ്രുവത്തിനു സമീപം കാണപ്പെടുന്ന തൊച്ചൂറ്റിയാറ്‌ പ്രത്യേക നക്ഷത്രങ്ങളുടെ സമൂഹം. അവയുടെ പ്രകാശമാനങ്ങള്‍ ഏറെക്കുറെ കൃത്യമായി നിർണയിക്കപ്പെട്ടിട്ടുണ്ട്‌. ധ്രുവനക്ഷത്ര(പോളാറിസ്‌)ത്തിന്റെ പ്രകാശമാനം 2 ആണ്‌. ഈ സമൂഹത്തിൽ ഏറ്റവും പ്രകാശം കുറഞ്ഞ നക്ഷത്രത്തിന്റെ പ്രകാശമാനം 20 ആണ്‌; മറ്റു താരങ്ങളുടെ പ്രകാശമാനം 2-നും 20-നുമിടയ്‌ക്കാണ്‌. (മറ്റു നക്ഷത്രങ്ങളുടെ ഛായാഗ്രഹണം നടത്തി ഈ നക്ഷത്രങ്ങളുടെ പ്രതിച്ഛായകളുമായി താരതമ്യപ്പെടുത്തി അവയുടെ പ്രകാശമാനം നിർണയിക്കുവാന്‍ കഴിയുന്നതാണ്‌.)