
== എന്‍സൈക്ലോപീഡിസ്റ്റുകള്‍ ==


== Encyclopaedists ==

പ്രബുദ്ധതാപ്രസ്ഥാനകാലത്ത്‌ (18-ാം ശ.-ത്തിന്റെ ഉത്തരാര്‍ധം) ഫ്രാന്‍സില്‍ തയ്യാറാക്കപ്പെട്ട പ്രശസ്‌ത ഫ്രഞ്ച്‌ എന്‍സൈക്ലോപീഡിയയുടെ (Encylopedie ou Dictionnaire raisonne des Sciences, des Arts et des metiers) നിര്‍മാണത്തില്‍ പങ്കെടുത്ത പണ്ഡിതന്മാര്‍. 1751 മുതല്‍ 72 വരെയുള്ള കാലങ്ങളില്‍ ദെനിസ്‌ ദിദ്‌റോ (Diderot)യുടെ നേതൃത്വത്തിലാണ്‌ ഈ എന്‍സൈക്ലോപീഡിയ പ്രസിദ്ധീകരിച്ചത്‌. ആരംഭംമുതല്‍ അന്ത്യംവരെ ഈ പ്രസ്ഥാനവുമായി ബന്ധപ്പെട്ടവരാണ്‌ ചീഫ്‌ എഡിറ്ററായിരുന്ന ദെനിസ്‌ ദിദറോയും സഹായിയായി പ്രവര്‍ത്തിച്ച ഷെവലിയാര്‍ ദെ ഷാക്കോറും. ദിദ്‌റോയോടു സഹകരിച്ചിരുന്ന ദ ആലംബെര്‍ 1758-ല്‍ ഈ പ്രസ്ഥാനത്തില്‍ നിന്നു വിരമിച്ചു. പ്രബുദ്ധതാപ്രസ്ഥാനത്തിന്റെ നേതാക്കന്മാരായിരുന്ന പലരും ഈ എന്‍സൈക്ലോപീഡിയയില്‍ ലേഖനങ്ങള്‍ എഴുതിയും മറ്റുവിധത്തില്‍ പിന്തുണനല്‍കിയും സഹകരിച്ചിട്ടുണ്ട്‌. ഇതില്‍ പ്രമുഖരാണ്‌ വോള്‍ട്ടയര്‍, റൂസ്സോ, മൊണ്ടെസ്‌ക്യൂ, ദാ ബെന്റണ്‍, ബാര്‍തെസ്‌, ടര്‍ഗോ, ട്രാന്‍യിന്‍, ലൂയി ദെലാന്റെ, ബ്ലോന്‍ഡെല്‍, ബഫണ്‍, ഡ്യൂക്ലസ്‌ എന്നിവര്‍.

രാജഭരണത്തിനും മതാധിപത്യത്തിനും എതിരായുള്ള പ്രവര്‍ത്തനങ്ങള്‍ക്കു നേതൃത്വം നല്‍കുന്ന ഒന്നാണ്‌ ഈ പ്രസിദ്ധീകരണം എന്ന കുറ്റം ചുമത്തി എന്‍സൈക്ലോപീഡിയ പ്രവര്‍ത്തകരെ അധികൃതര്‍ പീഡിപ്പിച്ചിരുന്നു. എഡിറ്ററായ ദിദറോയെ ജയിലിലടയ്‌ക്കുകയും അച്ചടിച്ച വാല്യങ്ങളും കൈയെഴുത്തുപ്രതികളും കണ്ടുകെട്ടുകയും ചെയ്‌തു. പീഡനങ്ങളില്‍നിന്നു രക്ഷനേടുന്നതിനുവേണ്ടി പ്രസാധകനു പുരോഗമനാശയങ്ങള്‍ കൈയെഴുത്തു പ്രതിയില്‍ നിന്നു നീക്കം ചെയ്‌ത്‌ അച്ചടി തുടരേണ്ടിവന്നു.

ഈ എന്‍സൈക്ലോപീഡിസ്റ്റുകളില്‍ ഭൗതികവാദികളും മിതവാദികളും ഉള്‍പ്പെട്ടിരുന്നു. പ്രത്യയശാസ്‌ത്രത്തിനെതിരായുള്ള സമരത്തിനാണ്‌ ഭൗതികവാദികള്‍ മുന്‍കൈയെടുത്തത്‌. സ്വേച്ഛാധിപത്യത്തെ വിമര്‍ശിക്കാനും പീഡനങ്ങളില്‍നിന്നും അന്ധവിശ്വാസങ്ങളില്‍നിന്നും മനുഷ്യരാശിയെ രക്ഷിക്കുന്നതിനുവേണ്ട വിജ്ഞാനം പകരാനുമാണ്‌ മിതവാദികള്‍ ശ്രമിച്ചത്‌. വിപ്ലവാശയങ്ങളുടെ പ്രചാരണോപാധി എന്നനിലയില്‍ ഈ എന്‍സൈക്ലോപീഡിയ പ്രശസ്‌തിനേടി. ഫ്രഞ്ചുവിപ്ലവത്തിനു കളമൊരുക്കുന്നതിനും ഈ ഗ്രന്ഥപരമ്പര പങ്കുവഹിച്ചിട്ടുണ്ട്‌. 

പില്‌ക്കാലത്ത്‌ മതത്തിനും രാഷ്‌ട്രീയസ്വേച്ഛാധിപത്യത്തിനും എതിരായി നില്‍ക്കുന്ന പുരോഗമനവാദികളെയും എന്‍സൈക്ലോപീഡിസ്റ്റുകള്‍ എന്നു വിളിച്ചുതുടങ്ങി. വിജ്ഞാനകോശനിര്‍മാതാക്കളെ പൊതുവേ എന്‍സൈക്ലോപീഡിസ്റ്റുകള്‍ എന്ന്‌ ഇക്കാലത്തു പറയാറുണ്ട്‌.