
== എപാക്രിഡേസീ ==


== Epacridaceae ==
[[ചിത്രം:Vol5p152_Epacris longiflora in Grotto Point Reserve, Sydney, New South Wales, Australia.jpg|thumb|എപാക്രിസ്‌ ലോന്‍ജിഫോളിയാ]]
ഒരു ദ്വിബീജപത്രക സസ്യകുടുംബം. മുഖ്യമായും ആസ്റ്റ്രലിയയിലാണ്‌ ഈ കുടുംബത്തില്‍പ്പെട്ട സസ്യങ്ങള്‍ കണ്ടുവരുന്നത്‌. ഏകദേശം 23 ജീനസുകളും 350 സ്‌പീഷീസുകളും ഇത്‌ ഉള്‍ക്കൊള്ളുന്നു. ഇന്ത്യയിലും തെക്കേ അമേരിക്കയിലും ഈ സസ്യകുലത്തില്‍പ്പെട്ട ചില ചെടികള്‍ വളരുന്നുണ്ട്‌. സ്റ്റൈഫീലിയാ (175 സ്‌പീഷീസ്‌), എപാക്രിസ്‌ (34 സ്‌പീഷീസ്‌) എന്നിവയാണ്‌ ഏറ്റവും വലിയ ജീനസുകള്‍. പ്രിയോനോട്‌സ്‌ (Prionotes) ലെബെറ്റാന്‍തസ്‌ (Lebetanthus)എന്നീ ജീനസുകളില്‍ ഓരോ സ്‌പീഷീസ്‌ വീതമേയുള്ളു.

എപാക്രിഡേസീ കുടുംബാംഗങ്ങള്‍ ചെറിയ കുറ്റിച്ചെടികളാണ്‌. ചെറുതും വീതികുറഞ്ഞു കട്ടിയുള്ളതുമായ ഇലകള്‍ സാധാരണയായി ഏകാന്തരമായി ക്രമീകരിച്ചിരിക്കുന്നു. പൂക്കള്‍ ദ്വിലിംഗി (bisexual) കളും സമമിത(regular)ങ്ങളുമാണ്‌. മണിയുടെ ആകൃതിയില്‍ ഒറ്റയായി കാണപ്പെടുന്ന പൂക്കള്‍ സൗരഭ്യമുള്ളവയാണ്‌. പൂക്കള്‍ക്കു സഹപത്ര(bract)വും സഹപത്രക (bracteole) വും ഉണ്ടായിരിക്കും. ബാഹ്യദളങ്ങള്‍ സ്വതന്ത്രങ്ങളാണ്‌. കുഴലുപോലെ കാണുന്ന ദളപുടം അഞ്ചുദളങ്ങള്‍ ചേര്‍ന്നുണ്ടായിരിക്കുന്നു. അഞ്ചുകേസരങ്ങള്‍ ദളപുടത്തിലെ ഇതളുകള്‍ക്ക്‌ ഏകാന്തരമായി (alternate) സ്ഥിതിചെയ്യുന്നു. ദളങ്ങള്‍ ചേര്‍ന്നുണ്ടായ കുഴലിന്റെ മുകള്‍ഭാഗത്താണ്‌ സാധാരണയായി ഇവ കാണപ്പെടുന്നത്‌. ചിലപ്പോള്‍ ഒന്നിടവിട്ട്‌ വന്ധ്യകേസരങ്ങള്‍ ഉണ്ടായിരിക്കും. പൊട്ടുന്ന സമയമാകുമ്പോഴേക്കും ആന്‍ഥറിലെ രണ്ട്‌ അറകള്‍ ചേര്‍ന്ന്‌ ഒറ്റ അറയായിത്തീരുന്നു. അണ്ഡാശയം ഊര്‍ധ്വവര്‍ത്തി (superior) ആണ്‌. ദളങ്ങള്‍ക്ക്‌ അഭിമുഖമായി അഞ്ച്‌ അണ്ഡപര്‍ണ(carpel) ങ്ങള്‍ സ്ഥിതിചെയ്യുന്നു. എപാക്രിസ്‌ ഉള്‍പ്പെടെയുള്ള പകുതിയോളം ജീനസുകളിലും നിരവധി വിത്തുകളുള്ള സമ്പുടഫലമാണു കാണാറുള്ളത്‌. ഓരോ അറയിലും ഓരോ ബീജാണ്ഡം മാത്രമുള്ള ശേഷിക്കുന്ന ജീനസുകളില്‍ സരസഫല(berry)മോ അമ്രക(druoe)മോ ആയിരിക്കും. വിത്തിനുള്ളില്‍ ധാരാളം ബീജാന്നമുണ്ട്‌.

ബ്രിട്ടനിലെ ഗ്രീന്‍ ഹൗസുകളില്‍ ഈ കുലത്തില്‍പ്പെടുന്ന പല ചെടികളെയും വളര്‍ത്തിവരുന്നു. എപാക്രിസ്‌ ലോന്‍ജിഫോളിയാ എന്ന ചെടിയിലെ ശോണവര്‍ണമുള്ള പൂക്കളും എ. ഒബ്‌റ്റ്യൂസിഫോളിയായിലെ മഞ്ഞപ്പൂക്കളും അത്യധികം ഭംഗിയും സൗരഭ്യവുമുള്ളവയാണ്‌. ഇതില്‍പ്പെട്ട ചില സസ്യങ്ങളുടെ കായ്‌കള്‍ ഭക്ഷ്യയോഗ്യമാണ്‌.