
== എന്‍ഡോസള്‍ഫാന്‍ ==


== Endosulfan ==

കീടനാശിനികളില്‍ ഒന്ന്‌. കേരളത്തില്‍ ഏറെ വാര്‍ത്താപ്രാധാന്യം ലഭിച്ച കീടനാശിനിയാണ്‌ എന്‍ഡോസള്‍ഫാന്‍. അതിനപ്പുറം രാസകീടനാശിനികളുടെ വിവേചനരഹിതമായ ഉപയോഗം സമൂഹത്തില്‍ മാരകമായ പ്രത്യാഘാതങ്ങളുണ്ടാക്കുമെന്നതിന്‌ ഉത്തമദൃഷ്‌ടാന്തവുമാണ്‌ എന്‍ഡോസള്‍ഫാന്‍.
[[ചിത്രം:Vol5p152_end3_9422f.jpg|thumb|എന്‍ഡോസള്‍ഫാന്‍ പ്രയോഗംമൂലം രോഗിയായ കുട്ടി]]
"ഓര്‍ഗാനിക്‌ സള്‍ഫൂറസ്‌ ആസിഡ്‌ എസ്റ്റര്‍' എന്ന വിഭാഗത്തില്‍പ്പെടുന്ന കീടനാശിനിയാണ്‌ എന്‍ഡോസള്‍ഫാന്‍. ഇത്‌ പല വാണിജ്യനാമങ്ങളില്‍ വില്‌ക്കപ്പെടുന്നു. പരിസ്ഥിതിയില്‍ ദീര്‍ഘകാലം വിഘടിക്കാതെ കിടക്കുന്ന കീടനാശിനികള്‍ "സ്ഥായിയായ കീടനാശിനികള്‍' (Persistant Pesticides)എന്നാണറിയപ്പെടുക. എന്‍ഡോസള്‍ഫാനെ ഈ വിഭാഗത്തിലുള്‍പ്പെടുത്താം. ഇതിന്റെ അവശിഷ്‌ടവിഷാംശം മണ്ണിലും അന്തരീക്ഷത്തിലുമൊക്കെ ദീര്‍ഘകാലം നിലനില്‌ക്കുമെന്നു സാരം. കേരളത്തില്‍ പച്ചക്കറികൃഷിക്കും നെല്‍ക്കൃഷിക്കും ഏലത്തിനുമൊക്കെ എന്‍ഡോസള്‍ഫാന്‍ വ്യാപകമായി ഉപയോഗിച്ചിരുന്നു. കാസര്‍ഗോഡ്‌, കശുമാവിന്‍തോട്ടങ്ങളിലാണ്‌ ഇതു തളിച്ചത്‌. തളിച്ചു 10 വര്‍ഷങ്ങള്‍ക്കുശേഷവും കാസര്‍ഗോട്ടെ പദ്രയിലെ മണ്ണില്‍ എന്‍ഡോസള്‍ഫാന്റെ അംശം കണ്ടെത്തിയിട്ടുണ്ട്‌.

മനുഷ്യര്‍ക്കുണ്ടാകുന്ന ആരോഗ്യപ്രശ്‌നങ്ങളുമായി ബന്ധപ്പെട്ട്‌ എന്‍ഡോസള്‍ഫാനെ "എന്റോക്രന്‍ ഡിസ്‌റപ്‌റ്റിങ്‌ കെമിക്കല്‍സ്‌' എന്ന വിഭാഗത്തിലുള്‍പ്പെടുത്താം. തൈറോയിഡ്‌, പിറ്റ്യൂട്ടറി, പാരാതൈറോയിഡ്‌, കിഡ്‌നി, അഡ്രിനാല്‍ തുടങ്ങിയ ഗ്രന്ഥികളുടെ പ്രവര്‍ത്തനത്തെ തടസ്സപ്പെടുത്തുന്നവയാണ്‌ ഈ വിഭാഗത്തില്‍പ്പെടുന്നത്‌. ഗര്‍ഭച്ഛിദ്രം, ബുദ്ധിമാന്ദ്യം, ശാരീരികവൈകല്യമുള്ള ശിശുക്കളുടെ ജനനം, ബീജശേഷിക്കുറവ്‌, വന്ധ്യത, നാഡീരോഗങ്ങള്‍, സ്‌തനാര്‍ബുദം, കരള്‍രോഗങ്ങള്‍, അര്‍ബുദം തുടങ്ങിയ ഒട്ടേറെ പ്രശ്‌നങ്ങളുണ്ടാക്കാന്‍ എന്‍ഡോസള്‍ഫാനാകും.

കേരളത്തില്‍ എന്‍ഡോസള്‍ഫാന്‍ നിരോധിച്ചിട്ടുണ്ട്‌. സ്റ്റോക്ക്‌ഹോം ഉച്ചകോടിയെത്തുടര്‍ന്ന്‌ ലോകത്തെമ്പാടും ഇതു ഘട്ടംഘട്ടമായി നിരോധിക്കാനുള്ള നീക്കത്തിലുമാണ്‌. പല രാജ്യങ്ങള്‍ ഇതിനകംതന്നെ എന്‍ഡോസള്‍ഫാനെ പുറന്തള്ളിക്കഴിഞ്ഞു.

(ജി.എസ്‌. ഉണ്ണിക്കൃഷ്‌ണന്‍നായര്‍)