
== ഒപ്പോസം ==


== Opossum ==
[[ചിത്രം:Vol5p617_Opossum.jpg|thumb|കുഞ്ഞുങ്ങളുമായി നീങ്ങുന്ന ഒപ്പോസം]]
ആസ്റ്റ്രലേഷ്യന്‍ ഭൂഭാഗങ്ങള്‍ക്കു വെളിയില്‍ കാണപ്പെടുന്ന ഒരേയൊരിനം സഞ്ചിമൃഗം. "സഞ്ചിമൃഗ' (Marsupialia) കുടുംബമായ ഡൈഡെല്‍ഫിഡേയിലാണ്‌ ഇതുള്‍പ്പെടുന്നത്‌. അമേരിക്കയില്‍, ടെക്‌സാസിന്റെ ദക്ഷിണാതിര്‍ത്തി മുതല്‍ ലാ പ്ലേറ്റ താഴ്‌വര വരെയുള്ള സ്ഥലങ്ങളില്‍ വൃക്ഷനിബിഡമായ എല്ലായിടത്തും ഇവയെ കണ്ടെത്താം. ലാ പ്ലേറ്റ താഴ്‌വരയില്‍ ഇവ സുലഭമാണ്‌. ഫ്‌ളോറിഡ മുതല്‍ ഹഡ്‌സണ്‍ നദിവരെയും, പടിഞ്ഞാറ്‌ മിസോറി വരെയുമുള്ള പ്രദേശങ്ങളില്‍ കാണപ്പെടുന്ന ഇനമാണ്‌ വെര്‍ജിനിയ ഒപ്പോസം (Didelphis virginiana). ഒരു പൂച്ചയോളം വലുപ്പമുള്ള ഇതിന്റെ ശരീരം ചാരനിറം കലര്‍ന്ന വെള്ളരോമത്താല്‍ ആവൃതമായിരിക്കുന്നു. എലിയോട്‌ ആകാരസാദൃശ്യമുള്ള ഇതിന്‌ കൂര്‍ത്ത മോന്തയും നീണ്ടതും രോമരഹിതവുമായ ചെവികളും ഉണ്ട്‌. നീണ്ട്‌, രോമമില്ലാത്ത വാലില്‍ ശല്‌ക്കങ്ങള്‍ കാണപ്പെടുന്നു. മരക്കൊമ്പിലും മറ്റും ചുറ്റിപ്പിടിക്കുന്നതിന്‌ (prehensile) ഈ വാല്‍ സഹായകമാണ്‌. കൈയിലും കാലിലും അഞ്ചു വിരലുകള്‍ വീതമുണ്ട്‌. മനുഷ്യന്റെ കൈയിലെ തള്ളവിരല്‍പോലെ, മറ്റു വിരലുകള്‍ക്ക്‌ അഭിമുഖമായാണ്‌ ഇതിന്റെ കാലിലെ തള്ളവിരല്‍. പെണ്‍-ഒപ്പോസത്തിന്റെ ഉദരത്തില്‍ മുന്നോട്ടു തുറക്കുന്ന ഒരു വലിയ സഞ്ചി കാണാം. ജനിച്ചശേഷം, കുഞ്ഞുങ്ങളെ അഞ്ചോ ആറോ ആഴ്‌ചകള്‍ വരെ ഈ സഞ്ചിക്കുള്ളിലാണ്‌ സൂക്ഷിക്കുന്നത്‌. തനിച്ചു നടക്കാറായ കുഞ്ഞുങ്ങള്‍ സഞ്ചിക്കുള്ളില്‍ നിന്നും പുറത്തുവന്ന്‌ ഓടിനടക്കാനാരംഭിക്കുന്നു. അമ്മയുടെ മുതുകില്‍ക്കയറി സവാരി നടത്തുകയും ഇവയുടെ പതിവാണ്‌.

ശിശിരകാലാഗമത്തോടെ ഒപ്പോസത്തിന്റെ തൊലിയുടെ തൊട്ടുതാഴെയായി ഒരട്ടി കനത്തില്‍ കൊഴുപ്പുണ്ടാകാറുണ്ട്‌. ഈ സമയത്ത്‌ ഇതിന്റെ മാംസം വളരെ സ്വാദുള്ളതായിത്തീരുന്നു. യു.എസ്സിന്റെ തെക്കുഭാഗത്തുള്ള ജനങ്ങള്‍ക്ക്‌ "ഒപ്പോസവേട്ട' വളരെ പ്രിയപ്പെട്ട ഒരു വിനോദമാണ്‌. രാത്രിയില്‍, റാന്തലുകളുപയോഗിച്ച്‌, നായ്‌ക്കളുടെ സഹായത്തോടെയാണ്‌ വേട്ടയാടല്‍. പരിസരത്തില്‍ എവിടെയെങ്കിലും ശത്രുക്കളുള്ളതായി സംശയം തോന്നിയാലുടന്‍ ഒപ്പോസം മരത്തില്‍നിന്നു പിടിവിട്ടു "ചത്തതുപോലെ' നിലത്തുവീഴുന്നു. ഇതിന്റെ ഈ പ്രത്യേകസ്വഭാവവിശേഷത്തില്‍നിന്ന്‌ ഒരു ഇംഗ്ലീഷ്‌ ശൈലി (Playing possum)തന്നെ രൂപമെടുത്തിട്ടുണ്ട്‌. സ്വരക്ഷയ്‌ക്കുവേണ്ടിയുള്ള ഒരു ഉപായമത്ര ഇത്‌. ഇരയെ കൊന്നുതിന്നാന്‍ ഇഷ്‌ടപ്പെടുന്ന പല വന്യമൃഗങ്ങളില്‍ നിന്നും രക്ഷപ്പെടാന്‍ ഈ ഉപായം ഒപ്പോസത്തെ സഹായിക്കുന്നു.

തന്ത്രശാലിയായ ഒപ്പോസത്തിന്‌ നല്ല ബുദ്ധിയുമുണ്ട്‌. പകല്‍സമയങ്ങളില്‍ വൃക്ഷപ്പൊത്തുകളിലും മറ്റും കഴിച്ചുകൂട്ടുന്ന  ഈ ജീവി രാത്രിയാകുന്നതോടെ ആഹാരം തേടിയിറങ്ങുന്നു. ഫലങ്ങള്‍, കീടങ്ങള്‍, ചെറിയ ഇഴജന്തുക്കള്‍, പക്ഷിമുട്ടകള്‍ എന്നിവയാണ്‌ മുഖ്യഭക്ഷണ സാധനങ്ങള്‍. ചില സ്‌പീഷീസുകളില്‍ ഉദരസഞ്ചി  (marsupium) കാണുകയില്ല. ഇവ കുഞ്ഞുങ്ങളെ മുതുകില്‍ കയറ്റി നടക്കുന്നു. കുഞ്ഞുങ്ങള്‍ താഴെ വീണുപോകാതെ വാല്‍കൊണ്ട്‌ ചുറ്റിപ്പിടിച്ചിരിക്കും. മ്യൂറിന്‍ ഒപ്പോസം (Marmosa murina) ഈ ഇനത്തില്‍പ്പെടുന്നു. ഉയരംകൂടിയ പര്‍വതപ്രദേശങ്ങളില്‍ കഴിയുന്നയിനമാണ്‌ ഡൈഡെല്‍ഫിനസ്‌ പരാഗ്വെയെന്‍സിസ്‌. ഉയരം കുറഞ്ഞ പ്രദേശങ്ങളില്‍ കാണപ്പെടുന്നയിനം ഡൈ. മാഴ്‌സൂപിയേലിസ്‌ എന്നറിയപ്പെടുന്നു.

അപ്പര്‍ ക്രിട്ടേഷ്യസ്‌ മുതല്‌ക്കേ ഡൈഡെല്‍ഫോയ്‌ഡീയ ഉപരികുടുംബാംഗങ്ങള്‍ ഉണ്ടായിരുന്നതായി രേഖകളുണ്ട്‌. ഇയോഡെല്‍ഫിസ്‌, ഡൈഡെല്‍ഫിസ്‌ എന്നിവ ഉദാഹരണങ്ങള്‍. ഇയോസീന്‍ മുതല്‍ മയോസീന്‍ വരെയുള്ള കാലഘട്ടത്തില്‍ യൂറോപ്പിലും അമേരിക്കയിലും നിന്ന്‌ പെരാത്തീറിയം (Peratherium) എന്നറിയപ്പെടുന്ന ഒപ്പോസപൂര്‍വികന്റെ അവശിഷ്‌ടങ്ങള്‍ കണ്ടെടുത്തിട്ടുണ്ട്‌. ഇന്നു ജീവിച്ചിരിക്കുന്ന ചെറിയ ഡൈഡെല്‍ഫിഡുകളില്‍ നിന്ന്‌ ഇവ വളരെയൊന്നും വ്യത്യസ്‌തമായിരുന്നില്ല എന്നാണ്‌ ഫോസിലുകളില്‍ നിന്നും മനസ്സിലാകുന്നത്‌. നോ. മാഴ്‌സൂപിയേലിയ