
== ഓലന്‍ ==

കേരളത്തില്‍ പൊതുവേ പ്രചാരത്തിലുള്ള ഒരു സസ്യക്കറി. ഇളം കുമ്പളങ്ങ, മത്തങ്ങ, വഴുതനങ്ങ, പച്ചപ്പയര്‍, പെരുമ്പയര്‍ ഇവയാണ്‌ ഓലന്‍ തയ്യാറാക്കാനുപയോഗിക്കുന്ന കറിക്കോപ്പുകള്‍. കനംകുറച്ച്‌ നീളത്തില്‍ അരിഞ്ഞ കുമ്പളങ്ങ അല്ലെങ്കില്‍ മത്തങ്ങ, ഞെട്ടോടുകൂടി നാലായി കീറി ചെറുതായി മുറിച്ച ഇളം വഴുതനങ്ങ, വേണ്ടത്ര പച്ചമുളക്‌ എന്നിവ പകുതിവേവിച്ച പെരുമ്പയറില്‍ ഇട്ട്‌ ഉപ്പുചേര്‍ത്ത്‌ നന്നായി വേവിക്കണം. കഷണം വെന്തുകഴിഞ്ഞാല്‍ തേങ്ങാപ്പാല്‍ ഒഴിച്ച്‌ ഇളക്കിയശേഷം അല്‌പം പച്ചവെളിച്ചെണ്ണ ചേര്‍ത്ത്‌ കറിവേപ്പിലയും ഇട്ട്‌ അടുപ്പില്‍ നിന്ന്‌ വാങ്ങി വയ്‌ക്കണം. പടവലങ്ങയും ചിലപ്പോള്‍ ഓലന്‌ കഷണങ്ങളായി ഉപയോഗിക്കാറുണ്ട്‌.
 <nowiki>
"മത്തങ്ങ നല്ലൊരിളവന്‍ ബൃഹതീസമേതം
	പുത്തന്‍ മണിപ്പയറുമങ്ങതിനോടു ചേര്‍ത്തു
	ആലോലനീലമിഴിമാരവര്‍ വച്ചുതന്നാല്‍
	ഓലോലനൊന്നു മതി എന്തിനു നൂറുകൂട്ടം'
 </nowiki>
എന്നിങ്ങനെ ഒരു ഭാഷാശ്ലോകം ഓലന്റെ മാഹാത്മ്യത്തെ കീര്‍ത്തിക്കുന്നതായി പ്രചാരത്തിലുണ്ട്‌.