
== കോറിയണ്‍ ==

ഇഴജന്തുക്കള്‍, പക്ഷികള്‍, സസ്‌തനികള്‍ എന്നിവ ഉള്‍പ്പെടുന്ന അംനിയോട്ടാ വിഭാഗത്തിലെ ജന്തുക്കളുടെ ഭ്രൂണത്തെ പൊതിഞ്ഞിരിക്കുന്ന ബാഹ്യചര്‍മം. ഭ്രൂണത്തോടൊപ്പം മറ്റു ഭ്രൂണചര്‍മങ്ങളും ഇതിനുള്ളിലായാണു കാണപ്പെടുന്നത്‌. അംനിയോട്ടാ വിഭാഗത്തിലെ ജന്തുക്കളില്‍ ഭ്രൂണം വളര്‍ച്ചയാരംഭിക്കുമ്പോള്‍ ആംനിയണ്‍, കോറിയണ്‍, അലന്റോയ്‌ എന്നിങ്ങനെ മൂന്നുതരം ചര്‍മങ്ങള്‍ അതുമായി ബന്ധപ്പെടുന്നു. വളര്‍ന്നുവരുന്ന ഭ്രൂണത്തെ ശുഷ്‌കനം, ആഘാതം എന്നിവയില്‍നിന്നം പരിരക്ഷിക്കുന്നത്‌ ദ്രാവകം നിറഞ്ഞ ആംനിയണും കോറിയണുമാണ്‌. വിസര്‍ജ്യവസ്‌തുക്കളെ ശേഖരിച്ചുവയ്‌ക്കുക എന്ന ധര്‍മമാണ്‌ അലന്റോയ്‌ എന്ന മൂന്നാമത്തെയിനം ചര്‍മത്തിനു നിര്‍വഹിക്കുവാനുള്ളത്‌.

കോറിയണിന്റെ ബാഹ്യസ്‌തരം ബാഹ്യചര്‍മകോശങ്ങളാലും ഉള്‍സ്‌തരം മധ്യജനസ്‌തരത്താലും ആണു രൂപമെടുത്തിരിക്കുന്നത്‌. ഈ രണ്ടു സ്‌തരങ്ങളും ഭ്രൂണത്തിന്റെ സംഗതകലകളുടെ തുടര്‍ച്ച എന്ന രീതിയിലാണു കാണപ്പെടുന്നത്‌. ആംനിയണ്‍, പീതകസഞ്ചി എന്നിവയില്‍നിന്നു ദ്രാവകം നിറഞ്ഞ ശരീരകോടരം കോറിയണിനെ വേര്‍തിരിച്ചു നിര്‍ത്തുന്നു. ഇഴജന്തുക്കളിലും പക്ഷികളിലും കോറിയണ്‍ മറ്റൊരു ഭ്രൂണചര്‍മമായ അലന്റോയുമായി കൂടിച്ചേര്‍ന്ന്‌ കോറിയോ അലന്റോയ്‌ ആയിത്തീര്‍ന്നിരിക്കുന്നു. ഇതു കവചചര്‍മത്തിനു (shell membrance) തൊട്ട്‌ അടിയിലായിട്ടാണു കാണപ്പെടുന്നത്‌. ഈ സംയുക്ത ചര്‍മത്തിനുള്ളിലായി ധാരാളം രക്തക്കുഴലുകളും ഉണ്ട്‌. ശ്വസന-വിസര്‍ജന അവയവമായിട്ടാണിതു വര്‍ത്തിക്കുന്നത്‌. മാര്‍സൂപിലിയയ്‌ക്കും മുകളിലുള്ള സസ്‌തനികളിലെല്ലാം തന്നെ കോറിയണിന്റെ ബാഹ്യപ്രതലത്തില്‍നിന്നു വിരലുകള്‍പോലെയുള്ള പ്രത്യേക ഉദ്‌വര്‍ധങ്ങള്‍ വളര്‍ന്നു വരാറുണ്ട്‌. മാതാവിന്റെ ഗര്‍ഭാശയസ്‌തരവുമായി ഇത്‌ അടുത്ത ബന്ധം സ്ഥാപിക്കുകയും ചെയ്യുന്നു.