
== കിലൗവിയ ==


== Kilauea ==
[[ചിത്രം:Vol7p526_Puu_Oo_looking_up_Kilauea_-_edit.jpg|thumb|കിലൗവിയ അഗ്നിപര്‍വതം]]
ഹവായി ദ്വീപിലെ ഒരു സജീവ അഗ്‌നിപര്‍വതം. ഭൂമുഖത്തെ വലുപ്പമേറിയ അഗ്നിപര്‍വതങ്ങളിലൊന്നായ കിലൗവിയ ദ്വീപിന്റെ കിഴക്കേതീരത്താണ്‌ സ്ഥിതിചെയ്യുന്നത്‌. "വിസ്‌താരമേറിയത്‌' എന്ന്‌ അര്‍ഥംവരുന്ന ഹവായിയന്‍ പദത്തില്‍ നിന്നാണ്‌ ഈ പേര്‌ നിഷ്‌പന്നമായിട്ടുള്ളത്‌.  സമുദ്രനിരപ്പില്‍ നിന്ന്‌ ഏകദേശം 1,247 മീറ്റളോളം ഉയരമുള്ള ഇതിന്റെ അഗ്നിപര്‍വത വക്ത്രത്തിന്‌ 13 കി.മീ. ചുറ്റളവുണ്ട്‌. വൃത്താകാരത്തിലുള്ള ഈ അഗ്നിപര്‍വതത്തിന്റെ മുകള്‍ഭാഗം പീഠഭൂമിയെപ്പോലെയാണ്‌. ഇവിടെ അഗ്നിപര്‍വതവക്രത്തിനടുത്തായി ഒരു ചെറിയ വിള്ളലുണ്ട്‌. ഇതുകൂടാതെ ധാരാളം കോണുകളും ഗുഹകളും കാണാം. ഈ പര്‍വതത്തിനു സമീപത്തായി ധാരാളം ഗന്ധക നിക്ഷേപം ഉണ്ട്‌.സ്‌ഫോടനത്തിന്റെ ഫലമായി ഉണ്ടാകുന്ന മര്‍ദം, വാതകത്തിന്റെ അളവ്‌, ലാവയുടെ ശ്യാനത എന്നിവയുടെ അടിസ്ഥാനത്തില്‍  അഗ്നിപര്‍വതങ്ങളെ പലതായി തരംതിരിച്ചിട്ടുണ്ട്‌. കുറഞ്ഞ തോതില്‍  ദ്രവരൂപത്തിലുള്ള മാഗ്മയും വാതകവും ആണ്‌ കിലൗവിയയില്‍  നിന്ന്‌ ബഹിര്‍ഗമിക്കുന്നത്‌. 

കിലൗവിയ പല പ്രാവശ്യം സ്‌ഫോടനത്തിനു വിധേയമായിട്ടുണ്ട്‌. ആദ്യമായി 1790-ല്‍  ഇത്‌ പൊട്ടിത്തെറിച്ചു. ഇതിനുശേഷം 1927, 28, 29, 30, 31, 34 എന്നീ വര്‍ഷങ്ങളിലും സ്‌ഫോടനം നടന്നിട്ടുണ്ട്‌. 1930, 31 എന്നീ വര്‍ഷങ്ങളില്‍  ഈരണ്ടു പ്രാവശ്യം പൊട്ടിത്തെറിച്ചു. 1934-നു ശേഷവും ഇതു പലപ്പോഴായി സജീവമായിട്ടുണ്ട്‌. എന്നാല്‍  ജീവനും സ്വത്തിനും അധികം നാശം ഒന്നും ഇതുവരെ കിലൗവിയ സൃഷ്‌ടിച്ചിട്ടില്ല.

(എസ്‌. ഗോപിനാഥന്‍)