==കോകിലഭാഷിണി==

ഇരുപത്തൊമ്പതാമത്തെ മേളമായ ധീരശങ്കരാഭരണത്തിന്റെ ജന്യരാഗം. ഇത് ഒരു സമ്പൂര്‍ണ വക്രഷാഡവരാഗമാണ്.

ആരോഹണം	-	സരിഗമപധനിസ

അവരോഹണം	-	സനിപമഗമരിസ

ഷഡ്ജപഞ്ചമങ്ങളെക്കൂടാതെ ഈ രാഗത്തില്‍ വരുന്ന സ്വരങ്ങള്‍ ചതുശ്രുതിഋഷഭം, അന്തരഗാന്ധാരം, ശുദ്ധമധ്യമം, ചതുശ്രുതിധൈവതം, കാകലിനിഷാദം എന്നിവയാണ്. ഇത് ഒരു ഉപാംഗരാഗമാണ്. മൈസൂര്‍ രാജാവായിരുന്ന ജയചാമരാജവാഡിയര്‍ ഈ അപൂര്‍വരാഗത്തില്‍ 'ശ്രീവിദ്യാമോദിനി' എന്ന ഒരു കൃതി രചിച്ചിട്ടുണ്ട്.

(പ്രൊഫ. മോഹനചന്ദ്രന്‍നായര്‍)