== കാഞ്ഞിരം ==
== Nux Vomica ==
<gallery Caption="കാഞ്ഞിരം (ഉള്‍ചിത്രം-കായും കുരുവും)">
Image:Vol7p17_kanjiram.jpg
Image:Vol7p17_kanji.jpg
</gallery>
ലൊഗാനിയേസീ സസ്യകുടുംബത്തില്‍ പ്പെട്ട ഒരു വൃക്ഷം. ശാ. നാ.: സ്‌ട്രിക്‌നോസ്‌ നക്‌സ്‌-വോമിക്ക (Strychnos nux-vomica). ഇന്ത്യ, ശ്രീലങ്ക, ഇന്തോചൈന, ആസ്റ്റ്രലിയ എന്നിവിടങ്ങളില്‍  കാഞ്ഞിരം കൂടുതലായി കണ്ടുവരുന്നു. ഇന്ത്യയില്‍  1,200 മീ. വരെ ഉയരമുള്ള പ്രദേശങ്ങളില്‍  കാഞ്ഞിരം വളരുന്നുണ്ട്‌.

10 മീറ്ററോളം ഉയരം വയ്‌ക്കുന്ന കാഞ്ഞിരത്തിന്റെ തടിക്കു നല്ല ഉറപ്പുണ്ട്‌. വിപരീത ദിശയില്‍  ക്രമീകരിച്ചിരിക്കുന്ന ഇലകള്‍ക്കു മിനുത്ത പച്ചനിറമാണ്‌. 10-15 സെ.മീ. നീളവും 8-10 സെ.മീ. വീതിയുമുള്ള ഇലയുടെ ചുവട്ടില്‍ നിന്നു പുറപ്പെടുന്ന അഞ്ചു പ്രധാന സിരകളും ഇലയ്‌ക്ക്‌ നെടുകെ വ്യക്തമായി കാണാം. കാഞ്ഞിരത്തിന്റെ ഇലയ്‌ക്കും കായ്‌ക്കും അസഹനീയമായ കയ്‌പുണ്ട്‌. പച്ച കലര്‍ന്ന വെള്ള നിറമുള്ള ചെറുദ്വിലിംഗപുഷ്‌പങ്ങള്‍ ശാഖാഗ്രങ്ങളില്‍  കുലകളായി കാണപ്പെടുന്നു. നാല്‌ മുതല്‍  അഞ്ച്‌ വരെ വിദളങ്ങള്‍ ചേര്‍ന്നതാണ്‌ വിദളപുടം. ദളപുടത്തിലെ അഞ്ച്‌ ദളങ്ങള്‍ കുഴലാകൃതി പൂണ്ടിരിക്കുന്നു. ദളപുടക്കുഴലിനുള്ളില്‍  ചുവട്ടിലായി മൃദുലോമങ്ങള്‍ കാണാം. കുറിയ തന്തുകങ്ങളും നീണ്ട പരാഗികളുമുള്ള അഞ്ചു കേസരങ്ങള്‍ പൂവിലുണ്ട്‌. അണ്ഡാശയത്തിന്‌ രണ്ടറകളുണ്ട്‌. ഉരുണ്ട ബെറിയാണ്‌ ഫലം. കായ്‌ക്ക്‌ ചെറിയ ഓറഞ്ചിനോളം വലുപ്പം വരും. ഫലകഞ്ചുകത്തിനുള്ളിലെ കഴമ്പിനുള്ളില്‍  നാണയത്തുട്ടുകള്‍പോലുള്ള അഞ്ച്‌ മുതല്‍  ആറ്‌ വരെ വിത്തുകളുണ്ടായിരിക്കും. വിത്തിന്‌ നല്ല ഉറപ്പും മിനുസവുമുള്ള പുറന്തൊലിയുണ്ട്‌.

കാഞ്ഞിരപ്പട്ടയ്‌ക്കും കുരുവിനും ഔഷധഗുണമുണ്ട്‌. കാഞ്ഞിരക്കുരുവില്‍  സ്‌ട്രിക്‌നിന്‍ (strychnine), ലൊഗാനിന്‍ (loganin), ബ്രൂസിന്‍ (brucine), വോമിസിന്‍ (vomicine) എന്നീ ആല്‍ ക്കലോയ്‌ഡുകള്‍ അടങ്ങിയിരിക്കുന്നു. കാഞ്ഞിരക്കുരുവില്‍ നിന്നാണ്‌ സ്‌ട്രിക്‌നിന്‍ എന്ന ആല്‍ ക്കലോയ്‌ഡ്‌ വാണിജ്യാടിസ്ഥാനത്തില്‍  ഉത്‌പാദിപ്പിക്കുന്നത്‌.

കേന്ദ്രസിരാവ്യൂഹത്തെ വളരെപ്പെട്ടെന്ന്‌ ഉത്തേജിപ്പിക്കാന്‍ സ്‌ട്രിക്‌നിനു കഴിവുണ്ട്‌. ശ്രവണ-ഘ്രാണശക്തികള്‍ക്കും രുചിക്കും മാന്ദ്യം സംഭവിപ്പിക്കുകയും മാനസികാസ്വാസ്ഥ്യത്തിന്‌ വഴിയൊരുക്കുകയും ചെയ്യുന്നു. അധികമാത്രയിലുള്ള ഉപയോഗം പെട്ടെന്നു പേശികള്‍ വലിച്ചുകോച്ചുന്നതിനും തന്മൂലം പേശീപ്രവര്‍ത്തനം താറുമാറാകുന്നതിനും കാരണമാകും. സ്‌ട്രിക്‌നിന്‌ അടിമപ്പെട്ടയാള്‍ കൈകാലുകള്‍ വലിച്ചുനീട്ടി, ശരീരം വില്ലു പോലെ വളച്ച്‌, കണ്ണുകള്‍ മിഴിച്ച്‌ പല ചേഷ്‌ടകളും കാണിക്കുക പതിവാണ്‌; ശ്വസനവുമായി ബന്ധപ്പെട്ട പേശികളുടെ പ്രവര്‍ത്തനങ്ങള്‍ക്കു താളപ്പിഴ സംഭവിക്കുന്നതിനാല്‍  മരിക്കാനും ഇടയാകാറുണ്ട്‌.

ഒരു ഉത്തേജനകാരിയായി ഉപയോഗിക്കപ്പെടുന്ന കാഞ്ഞിരക്കുരുവിന്‌ ത്വഗ്രാഗങ്ങളെ, പ്രത്യേകിച്ചു വ്രണങ്ങളെ ഭേദമാക്കാനുള്ള കഴിവുണ്ട്‌. ഇതൊരു വാജീകരണൗഷധവുമാണ്‌. കുരു പൊടിച്ചു ഭക്ഷണത്തില്‍  കലര്‍ത്തി ഒരു ടോണിക്കായി കുതിരകള്‍ക്ക്‌ നല്‌കാറുണ്ട്‌. ഇതിന്റെ ഇല തീറ്റയായി കൊടുത്താല്‍  പാലിന്‌ ഗുണം വര്‍ധിക്കുമെന്ന്‌ കരുതപ്പെടുന്നു. പണിയായുധങ്ങള്‍, വണ്ടിച്ചക്രങ്ങള്‍, അലങ്കാരവസ്‌തുക്കള്‍ എന്നിവയുണ്ടാക്കാന്‍ കാഞ്ഞിരത്തിന്റെ തടി ഉപയോഗിച്ചുവരുന്നു. ചിതലിന്റെ ആക്രമണത്തിനു വിധേയമാകുകയില്ലെന്നത്‌ കാഞ്ഞിരത്തടിയുടെ എടുത്തുപറയത്തക്ക ഒരു മേന്മയാണ്‌.

തടി, വലുപ്പമുള്ള വള്ളിയായി രൂപാന്തരം പ്രാപിച്ചിട്ടുള്ള വള്ളിക്കാഞ്ഞിരം (സ്‌ട്രിക്‌നോസ്‌ സിനമോമിഫോളിയം) പുഷ്‌പഘടനയിലും മറ്റും കാഞ്ഞിരവൃക്ഷത്തോട്‌ വളരെയധികം സാദൃശ്യമുള്ളതാണ്‌. താഴ്‌ന്ന പ്രദേശങ്ങളില്‍  കണ്ടുവരുന്ന വള്ളിക്കാഞ്ഞിരം സാധാരണയായി ജനുവരി-ഫെബ്രുവരി മാസങ്ങളില്‍  പുഷ്‌പിക്കുന്നു. മാര്‍ച്ചില്‍  കായ്‌കള്‍ രൂപംകൊള്ളുകയും ഏകദേശം ഒരു വര്‍ഷം കൊണ്ട്‌ അവ പാകമാകുകയും ചെയ്യുന്നു.

കുളത്തൂപ്പുഴ, പൊന്മുടി, ആര്യങ്കാവ്‌ എന്നീ പ്രദേശങ്ങളിലെ നിത്യഹരിതവനങ്ങളില്‍  കണ്ടുവരുന്ന ചെറുകാഞ്ഞിരവള്ളി (സ്‌ട്രിക്‌നോസ്‌ കോലുബ്രിന) കാഞ്ഞിരവൃക്ഷത്തോടു ബന്ധമുള്ള വള്ളിരൂപത്തിലുള്ള ഒരു കുറ്റിച്ചെടി ആണ്‌.

കയ്‌പുരസത്തിന്റെ തീവ്രതയ്‌ക്കു പേരുകേട്ട കാഞ്ഞിരക്കുരുവും ഇലയും പല സാഹിത്യകൃതികളിലും  സ്ഥാനം പിടിച്ചിട്ടുണ്ട്‌. "കാരസ്‌കരത്തിന്‍ കുരു പാലിലിട്ടാല്‍  കാലാന്തരേ കയ്‌പു ശമിപ്പതുണ്ടോ?' (ശ്രീകൃഷ്‌ണചരിതം മണിപ്രവാളം); "കൈക്കലര്‍ഥമൊന്നുമില്ലാഞ്ഞെന്റെ ഭക്തന്മാരര്‍പ്പിച്ചാല്‍  കയ്‌ക്കും കാഞ്ഞിരക്കുരുവുമെനിക്കമൃതം. ഭക്തിഹീനന്മാരായ ഭര്‍ഗന്മാരമൃതം തന്നാലും തിക്തകാരസ്‌കരഫലമായിട്ടു തീരും'  (കുചേലവൃത്തം വഞ്ചിപ്പാട്ട്‌); "കയ്‌ക്കില്ലൊരിക്കലും സ്‌നേഹം തരും കാഞ്ഞിരത്തിന്റെയിലകള്‍ ' (ശംഖനാദം) എന്നിവ ഇതിനുദാഹരണങ്ങളാണ്‌.
തിരൂരിലെ തുഞ്ചന്‍പറമ്പിലുള്ള കാഞ്ഞിരത്തിന്റെ ഇലയ്‌ക്കു കയ്‌പില്ലെന്നു പറയപ്പെടുന്നു. ഇതിന്റെ ചുവട്ടില്‍  എഴുത്തച്ഛന്‍ ധ്യാനനിരതനായി ഇരിക്കാറുണ്ടായിരുന്നു എന്നാണ്‌ ഐതിഹ്യം.