
== കുരലാരം ==
[[ചിത്രം:Vol7p741_DSC_0150.jpg|thumb|കുരലാരം]]
കഥകളി അഭിനേതാക്കള്‍ മാറില്‍  ധരിക്കുന്ന ഒരു ആഭരണം. പുരുഷന്മാര്‍ ധരിക്കുന്ന കുരലാരത്തിന്‌ അണ്ഡാകൃതിയാണുള്ളത്‌. നാഭിവരെ താഴ്‌ന്നുകിടക്കും. കുമിളിന്റെ ചെറിയ തടിക്കഷണങ്ങള്‍ കൊണ്ടു പൂക്കളുണ്ടാക്കി ചുവന്ന ഒരു തുണിയില്‍  നിരത്തി തയ്‌ചുചേര്‍ക്കുന്നു. കണ്ണാടിക്കഷണങ്ങളും കൃത്രിമരത്‌നങ്ങളും തുന്നിപ്പിടിച്ച്‌, കസവുനൂല്‍  അരികില്‍  ഉറപ്പിച്ചാണ്‌ ഇതിന്റെ ഭംഗി വര്‍ധിപ്പിക്കുന്നത്‌. കമ്പിളിനൂല്‍ കൊണ്ട്‌ പൂക്കളുടെ ആകൃതിയില്‍  തൊങ്ങലുകള്‍ ഉണ്ടാക്കി അരികുകളില്‍  തയ്‌ച്ചു പിടിപ്പിച്ചിരിക്കും. കുരലാരത്തിന്റെ മുകള്‍ഭാഗത്ത്‌ വശങ്ങളിലായി ചരടുകോര്‍ത്താണ്‌ കുരലാരം മാറില്‍ കെട്ടുന്നത്‌. സ്‌ത്രീകള്‍ ധരിക്കുന്ന കുരലാരത്തിനെ മുലക്കുരലാരം എന്നാണ്‌ പറയുന്നത്‌. ഡ ആകൃതിയിലുള്ള മുലക്കുരലാരം നാഭിപ്രദേശം വരെ താഴ്‌ന്നുകിടക്കും. സ്‌ത്രീകളുടെ മാറിന്റെ ആകൃതിയില്‍  തടിക്കഷണങ്ങള്‍ ഒരുക്കി ചുവന്ന തുണികൊണ്ടു പൊതിഞ്ഞ്‌ തുണിയില്‍  തയ്‌ച്ചുചേര്‍ക്കും. മുകള്‍വശത്ത്‌ കൃത്രിമ രത്‌നങ്ങള്‍ കൊണ്ട്‌ തയ്യാറാക്കിയ നെക്‌ലെസുകളും മറ്റുംകൊണ്ട്‌ അലങ്കരിച്ചിരിക്കും. കമ്പിളി നൂല്‍  പൂക്കള്‍ തൊങ്ങലുകളാക്കി അരികില്‍  തയ്‌ച്ചു പിടിപ്പിക്കും; അരികുകളില്‍  കസവുനൂല്‍  ഉറപ്പിക്കും. വെള്ളത്താടിവേഷക്കാരുടെ കുരലാരത്തിന്‌ "മര്‍മല' എന്നാണ്‌ പേര്‍; തടിക്കഷണങ്ങള്‍ കൊണ്ടു നിര്‍മിക്കുന്ന പൂക്കളും കൃത്രിമരത്‌നങ്ങളുംകൊണ്ടാണ്‌ "മര്‍മല' അലങ്കരിക്കുന്നത്‌. രണ്ടു നിരയായാണ്‌ പൂക്കള്‍ തയ്‌ച്ചുചേര്‍ക്കാറുള്ളത്‌.