
== കുറ്റിച്ചാമരം ==
[[ചിത്രം:Vol7p741_DSC_0162.jpg|thumb|കുറ്റിച്ചാമരം]]
കഥകളിയില്‍  താടിവേഷക്കാര്‍ ധരിക്കുന്ന കിരീടം. മറ്റുവേഷക്കാരുടെ കിരീടങ്ങളെ അപേക്ഷിച്ചു വലുപ്പമുള്ളതാണ്‌ കുറ്റിച്ചാമരം. പച്ച, കത്തിവേഷക്കാരുടെ കിരീടങ്ങള്‍ക്ക്‌ ചില വ്യതിയാനങ്ങള്‍ വരുത്തിയാണ്‌ ഇതു നിര്‍മിക്കുന്നത്‌. 60-70 സെ.മീ. ചുറ്റളവുള്ള കുറ്റിച്ചാമരത്തിന്റെ മുന്‍വശം കണ്ണാടിക്കഷണങ്ങളും കൃത്രിമരത്‌നങ്ങളും പതിച്ചു ഭംഗിയാക്കിയിരിക്കും. കേശഭാരത്തിന്റെ അറ്റത്ത്‌ അണ്ഡാകൃതിയില്‍  അടുപ്പിച്ചടുപ്പിച്ചു മയില്‍ പ്പീലിത്തണ്ട്‌ ചുരുട്ടിനിവര്‍ത്തിയിരിക്കും. കുറ്റിച്ചാമരത്തിന്റെ അരികുകള്‍ ചുവപ്പോ കറുപ്പോ നിറത്തിലുള്ള കമ്പിളിനിര്‍മിതമായ തൊങ്ങലുകള്‍കൊണ്ട്‌ മോടിപിടിപ്പിച്ചിരിക്കും; ചുവന്ന താടിക്കു ചുവന്ന തൊങ്ങലുകളും കറുത്ത താടിക്ക്‌ കറുത്ത തൊങ്ങലുകളും ചാര്‍ത്തി ഭംഗിപ്പെടുത്തും. കേശഭാരത്തിന്റെ പിന്‍വശവും തുന്നല്‍ പ്പണികളും കൊത്തുപണികളും കൊണ്ടലങ്കരിച്ചിരിക്കും. നോ. ആഹാര്യങ്ങള്‍; കഥകളി