== കേദാരഗൗള ==

ഇരുപത്തെട്ടാം മേളകര്‍ത്താരാഗമായ ഹരികാബോജിയുടെ ജന്യരാഗം.
ആരോഹണം  :  സരിമപനിസ

അവരോഹണം :  സനിധപമഗരിസ

രി, നി എന്നിവയാണ് രാഗച്ഛായാസ്വരങ്ങള്‍. രാത്രികാല രാഗമാണിത്. 

ശ്രീ ത്യാഗരാജസ്വാമികളുടെ 'തുളസീബില്വ', 'വേണുഗാനലോലുനി', ശ്രീ മുത്തുസ്വാമി ദീക്ഷിതരുടെ 'നീലകണ്ഠം ഭജേഹം', രാമനാഥപുരം ശ്രീനിവാസയ്യങ്കാരുടെ 'സരഗുണപാലിമ്പ' തുടങ്ങിയവ ഈ രാഗത്തിലുള്ള ശ്രദ്ധേയമായ കൃതികളാണ്. 

(രവികുമാര്‍)