
== കുട ==
[[ചിത്രം:Vol7p568_cheekyumbrella-com-history-of-rain-umbrella-3.jpg|thumb|ബി.സി. 4-ാം ശതകത്തില്‍  പ്രചാരത്തിലിരുന്ന കുടകളിലൊന്ന്‌]]
മഴയും വെയിലും തടുക്കാനായി ഓലയോ തുണിയോ മറ്റോ കൊണ്ടുണ്ടാക്കുന്ന ഒരുപകരണം. വളരെ പ്രാചീനകാലം മുതല്‌ക്കേ ഭാരതത്തില്‍  കുട പ്രചാരത്തിലുണ്ടായിരുന്നു. സൂര്യന്‍ ജമദഗ്നി മഹര്‍ഷിക്കു സമ്മാനിച്ചതാണ്‌ കുടയെന്നു മഹാഭാരതത്തില്‍  (അനുശാസനപര്‍വം, 95, 96) പരാമര്‍ശമുണ്ട്‌. സൂര്യന്റെ ചൂട്‌ അസഹ്യമായപ്പോള്‍ ജമദഗ്നി മഹര്‍ഷി സൂര്യന്റെ നേര്‍ക്ക്‌ അമ്പ്‌ എയ്‌തു. ഭാര്യയായ രേണുകയെ അയച്ച്‌ അദ്ദേഹം പുതിയ പുതിയ അസ്‌ത്രങ്ങള്‍ വരുത്തിക്കൊണ്ടിരുന്നു. മഹര്‍ഷിയോടു പ്രതികാരം ചെയ്യാന്‍ അശക്തനായ സൂര്യന്‍ രേണുകയുടെ തലയും കാലും തപിപ്പിക്കുകയും ചൂടുകൊണ്ടു തളര്‍ന്ന രേണുക അല്‌പനേരം വിശ്രമിച്ചതുകൊണ്ട്‌ അസ്‌ത്രങ്ങള്‍ എത്തിക്കാന്‍ താമസം നേരിടുകയും ചെയ്‌തു. ഈ വിവരം അറിഞ്ഞ മുനി കൂടുതല്‍  കോപിഷ്‌ഠനായി; വീണ്ടും സൂര്യന്റെ നേര്‍ക്ക്‌ അസ്‌ത്രങ്ങള്‍ വര്‍ഷിച്ചു തുടങ്ങി. സൂര്യന്‍ ഒരു ബ്രാഹ്മണന്റെ വേഷം ധരിച്ചു മുനിയുടെ അടുക്കല്‍  വന്നു ശീഘ്രഗാമിയായ സൂര്യനെ അമ്പെയ്‌തു വീഴ്‌ത്തുക അസാധ്യമാണെന്ന്‌ പറഞ്ഞ്‌ മുനിയെ പിന്തിരിപ്പിക്കാന്‍ ശ്രമിച്ചു. എന്നാല്‍  സൂര്യന്‍ ഉച്ചസമയത്തു പതിവനുസരിച്ച്‌ ക്ഷണനേരം നിശ്ചലനായി നില്‍ ക്കുമെന്നും അപ്പോള്‍ താന്‍ സൂര്യനെ എയ്‌തുവീഴ്‌ത്തുമെന്നും മുനി മറുപടി പറഞ്ഞു. പരാജിതനായ സൂര്യന്‍ മുനിക്കു താപത്തില്‍ നിന്ന്‌ രക്ഷ നേടാനായി കുടയും ചെരുപ്പും സമ്മാനിച്ചു സന്തോഷിപ്പിച്ചു. ഇതിനു ശേഷമാണ്‌ ലോകത്തു കുടയും ചെരുപ്പും പ്രചരിച്ചത്‌ എന്നാണ്‌ ഇതിഹാസകഥ. ഈ ദാനം തലമുറ തലമുറകളായി തുടര്‍ന്നുവരുന്നു; ഇന്നും ബ്രാഹ്മണരുടെ ഇടയില്‍  ചില പിതൃകര്‍മങ്ങളില്‍  കുടയും ചെരുപ്പും ദാനം ചെയ്യുന്ന പതിവുണ്ട്‌. ഛത്രം (മറയ്‌ക്കുന്നത്‌), ആതപത്രം (വെയിലില്‍  നിന്ന്‌ രക്ഷിക്കുന്നത്‌) വര്‍ഷാത്രം (മഴയില്‍  നിന്ന്‌ രക്ഷിക്കുന്നത്‌) തുടങ്ങിയ പര്യായങ്ങള്‍ കുടയുടെ ധര്‍മത്തെ ദ്യോതിപ്പിക്കുന്നു. ഏകാതപത്രം, സിതാതപത്രം (വെണ്‍കൊറ്റക്കുട), ഏകച്ഛത്രാധിപതി തുടങ്ങിയ പദങ്ങള്‍ കുടയ്‌ക്കു ഭാരതീയര്‍ നല്‌കിയ പ്രാധാന്യത്തെ സൂചിപ്പിക്കുന്നു. രഥങ്ങളിലും സിംഹാസനങ്ങളിലും മനോഹരങ്ങളായ കുടകള്‍ ഘടിപ്പിക്കുന്ന പതിവും ഭാരതത്തിലുണ്ടായിരുന്നു. അലങ്കാരവസ്‌തുക്കളായ മുത്തുക്കുട, വെണ്‍കൊറ്റക്കുട എന്നിവ സാധാരണ കുടയുടെ വകഭേദങ്ങളാണ്‌. പ്രാമാണ്യത്തിന്റെയും അധികാരത്തിന്റെയും ചിഹ്നമെന്ന നിലയില്‍  വളരെ മുന്‍പുമുതല്‌ക്കേ ഈജിപ്‌തിലും അസീറിയയിലും കുടയ്‌ക്കു പ്രചാരമുണ്ടായിരുന്നു. കുടയുടെ കീഴിലിരുന്നു വിരാജിക്കുന്ന "ഫറോവ'മാരുടെ ചിത്രങ്ങള്‍ പ്രാചീന ഈജിപ്‌ഷ്യന്‍ ചിത്രശേഖരങ്ങളില്‍  കാണാം. പ്രൗഢിക്കനുസരണമായി വ്യത്യസ്‌ത മാതൃകകളിലും വലുപ്പത്തിലും കുടകളോടു സാമ്യമുള്ള മേലാപ്പുകള്‍ പ്രചാരത്തിലിരുന്നതിനു തെളിവുകളാണ്‌ പ്രാചീന അസീറിയന്‍, പേര്‍ഷ്യന്‍ ശില്‌പങ്ങള്‍. പല രാജ്യങ്ങളിലും വസ്‌ത്രങ്ങള്‍ക്കൊപ്പം പ്രാധാന്യമുള്ള ഒരു വസ്‌തുവാണ്‌ കുട. ഇത്‌ ജപ്പാനിലെ ദേശീയ വസ്‌ത്രാലങ്കരണങ്ങളിലെ അനിവാര്യമായ ഒരു ഘടകമാണ്‌. ആദ്യകാലങ്ങളില്‍  ആഡംബരവസ്‌തുവായി മാത്രം ഉപയോഗിക്കപ്പെട്ടിരുന്ന കുട ഇന്നു നിത്യജീവിതത്തില്‍  ഒഴിച്ചു കൂടാന്‍ പാടില്ലാത്ത ഒന്നായിത്തീര്‍ന്നിരിക്കുന്നു. 20-ാം ശതകത്തിന്റെ തുടക്കംവരെ കറുത്ത തുണികൊണ്ടു മാത്രമാണ്‌ കുട നിര്‍മിക്കപ്പെട്ടിരുന്നത്‌. ഉപയോഗത്തെക്കാളേറെ കുടയുടെ വര്‍ണഭംഗിക്കാണ്‌ ഇന്ന്‌ ഉപഭോക്താക്കള്‍ പ്രാധാന്യം കല്‌പിക്കുന്നത്‌. നൂറ്റാണ്ടുകള്‍ക്കുമുമ്പു പ്രചാരത്തിലിരുന്ന കുട എടുത്തുപറയത്തക്ക മാറ്റങ്ങള്‍ കൂടാതെ ഇന്ത്യയിലിന്നും പ്രചാരത്തിലിരിക്കുന്നു. എന്നാല്‍  വിദേശസമ്പര്‍ക്കത്തിലൂടെ ഇന്ന്‌ ഇന്ത്യയില്‍  നിര്‍മിക്കപ്പെടുന്ന കുടയുടെ ആകൃതിയിലും ഘടനയിലും ചില മാറ്റങ്ങള്‍ ദൃശ്യമാണ്‌.
<gallery Caption="">
Image:Vol7p568_cheekyumbrella-com-history-of-rain-umbrella-1.jpg|യൂറോപ്പിലെ രാജകുടുംബം ഉപയോഗിച്ചിരുന്ന കുട
Image:Vol7p568_86112.jpg|ചൈനീസ്‌ രാജാക്കന്മാരുടെ അധികാര ചിഹ്നമായി ഉപയോഗിച്ചിരുന്ന കുട
Image:Vol7p568_Parayil1 057.jpg|ഓലക്കുട
</gallery>
'''ചരിത്രം.''' മാനവ സംസ്‌കാരത്തിന്റെ ശൈശവദശയില്‍ ത്തന്നെ മനുഷ്യന്‍ മഴയില്‍  നിന്നും വെയിലില്‍  നിന്നും സംരക്ഷണം ലഭിക്കുന്നതിനുള്ള ഉപാധികളെക്കുറിച്ച്‌ ആരാഞ്ഞിട്ടുണ്ടാവണം. മഴ തടുക്കാനായി വാഴയിലപോലുള്ള വലിയ ഇലകള്‍ ആദ്യം  മുതല്‌ക്കു തന്നെ മനുഷ്യന്‍ ഉപയോഗിച്ചിരുന്നു. പനയോല ഉണങ്ങുമ്പോള്‍ ഈടും ദൃഢതയും കൂടുമെന്നു മനസ്സിലാക്കിയതോടെ കുടയുടെ ആകൃതിയില്‍  പനയോല കോട്ടി ഉപയോഗിച്ചുതുടങ്ങി. കേരളത്തിലെ വയലുകളിലും മറ്റും പണിയെടുക്കുന്ന തൊഴിലാളികളും ഗിരിവര്‍ഗക്കാരും മഴ നനയാതിരിക്കാന്‍ ഇന്നും ഓലകൊണ്ടുള്ള തൊപ്പിക്കുടകള്‍ ഉപയോഗിക്കുന്നുണ്ട്‌ (നോ. ഓലക്കുട). ഉഷ്‌ണമേഖലാരാജ്യങ്ങളില്‍  മഴയില്‍ നിന്നു രക്ഷ നേടുന്നതിനു വയ്‌ക്കോലും പുല്ലും മെടഞ്ഞുണ്ടാക്കിയ കുടകള്‍ ഉപയോഗിച്ചിരുന്നു. ചൈന, ബര്‍മ, തായ്‌ലന്‍ഡ്‌, തൈവാന്‍ തുടങ്ങിയ രാജ്യങ്ങളില്‍  ദരിദ്രരായ തൊഴിലാളികള്‍ വയ്‌ക്കോലും പുല്ലും മെടഞ്ഞുണ്ടാക്കിയ കുടകളും കുടകള്‍ക്കു സദൃശമായ വയ്‌ക്കോല്‍  തൊപ്പിയും മറ്റും ഇപ്പോഴും ഉപയോഗിച്ചുവരുന്നുണ്ട്‌.
ആദ്യമായി ശീലക്കുട ഉപയോഗിച്ചു തുടങ്ങിയതു ചീനക്കാരാണെന്നു വിശ്വസിക്കപ്പെടുന്നു. ചൈനയിലെ ഐതിഹ്യങ്ങളിലും നാടോടിപ്പാട്ടുകളിലും മറ്റും കുടയെക്കുറിച്ചുള്ള പരാമര്‍ശങ്ങളുണ്ട്‌. വളരെ പ്രാചീനകാലം മുതല്‌ക്കേ പദവിയെയും സമ്പന്നതയെയും ദ്യോതിപ്പിക്കുന്ന ഒരുപാധി കൂടിയായിരുന്നു കുട. ചൈനയിലെ ചക്രവര്‍ത്തിമാരുടെ സിംഹാസനങ്ങള്‍ക്കു മുകളിലായി കുടയുടെ ആകൃതിയില്‍  നാലു മേലാപ്പുകള്‍ കൂട്ടിച്ചേര്‍ത്ത്‌ ഉറപ്പിച്ചിരുന്നു. ആഫ്രിക്കയിലെ വര്‍ഗത്തലവന്മാരെ സാധാരണ ജനങ്ങളില്‍ നിന്ന്‌ തിരിച്ചറിയുന്നത്‌ ഇവര്‍ ഉപയോഗിക്കുന്ന അലങ്കാരക്കുടകളില്‍ നിന്നാണ്‌. ഇവര്‍ തങ്ങളുടെ അധികാരസ്ഥാനങ്ങള്‍ക്കനുസരണമായി സവിശേഷ മാതൃകയിലുള്ള കുടകളോ മേലാപ്പുകളോ ഉപയോഗിച്ചു വരുന്നുണ്ട്‌. ബി.സി. 12-ാം ശ. മുതല്‍  തന്നെ ആഡംബരക്കുടകള്‍  (Parasols)  പ്രചാരത്തിലിരുന്നു. തണലിനും പ്രൗഢിക്കും വേണ്ടി മാത്രമാണ്‌ ആഡംബരക്കുടകള്‍ നൂറ്റാണ്ടുകളോളം ഉപയോഗിച്ചിരുന്നത്‌. ചൈനയിലും ഇന്ത്യ, ബര്‍മ, തായ്‌ലന്‍ഡ്‌, ആഫ്രിക്കന്‍ രാജ്യങ്ങള്‍ എന്നിവിടങ്ങളിലും വളരെ  വിസ്‌താരമേറിയതും പല നിലകളിലുള്ളതും അരികുകളില്‍  വളരെ മനോഹരമായ പൊടിപ്പുകളും തൊങ്ങലുകളും പിടിപ്പിച്ചിട്ടുള്ളതുമായ ആഡംബരക്കുടകള്‍ ആഘോഷങ്ങളെ മോടിപിടിപ്പിച്ചിരുന്നു. കേരളത്തിലെ ക്ഷേത്രങ്ങളിലെയും ക്രസ്‌തവ ദേവാലയങ്ങളിലെയും ഉത്സവങ്ങള്‍ക്കും ആഘോഷങ്ങള്‍ക്കും ഇന്നും മുത്തുക്കുടകള്‍ ഉപയോഗിച്ചുവരുന്നുണ്ട്‌. വിവിധ മാനദണ്ഡങ്ങള്‍ക്കനുസരണമായി നിര്‍മിച്ചിരുന്ന ചൈനീസ്‌ കുടകള്‍ പദവികളെ സൂചിപ്പിക്കാന്‍കൂടി ഉദ്ദേശിച്ചുള്ളതായിരുന്നു. സയാം സിംഹാസനത്തിനുമേല്‍  നാലുനിലകളില്‍  തീര്‍ത്ത ഒരു ആഡംബരക്കുട സ്ഥാപിച്ചിട്ടുണ്ട്‌. ഒരേ അച്ചുതണ്ടില്‍  സജ്ജമാക്കുന്ന ഈ കുടയുടെ താഴത്തെ നിലയ്‌ക്കു വലുപ്പം കൂടുതലും മുകളിലുള്ള നിലകള്‍ക്കു ക്രമത്തില്‍  വലുപ്പം കുറഞ്ഞും ഇരിക്കും. പൂര്‍വേഷ്യ, ആഫ്രിക്ക എന്നിവിടങ്ങളിലെ അവികസിത മേഖലകളില്‍  അധികാരത്തിന്റെയും പ്രൗഢിയുടെയും ചിഹ്നമായി പരിലസിച്ചിരുന്ന കുട യൂറോപ്പിലെത്തിയതോടെ സ്‌ത്രീകളുടെ ഒരാഡംബരവസ്‌തു മാത്രമായിത്തീര്‍ന്നു. ഒരാഡംബരവസ്‌തുവെന്ന രീതിയില്‍  കുട ഗ്രീസില്‍  പ്രചാരത്തിലിരുന്നുവെന്നതിനു തെളിവാണ്‌ ഗ്രീസില്‍  നിന്ന്‌ കണ്ടെടുക്കപ്പെട്ടിട്ടുള്ള മണ്‍പാത്രങ്ങളിലെയും മറ്റും ചിത്രങ്ങള്‍. ഗ്രീക്കു കുടകളോടു സാദൃശ്യമുള്ള കുടകള്‍ തന്നെയാണ്‌ റോമാക്കാരും ഉപയോഗിച്ചിരുന്നത്‌. ഗ്രീസില്‍  നിന്നാണ്‌ കുട യൂറോപ്പില്‍  എത്തിയത്‌.
[[ചിത്രം:Vol7p568_high_gloss_picks_umbrellas.jpg|thumb|വിവിധ വര്‍ണങ്ങളിലുള്ള ആധുനിക കുടകള്‍]]
തണലിനും ആഡംബരത്തിനും പ്രൗഢിക്കും വേണ്ടി മാത്രമായി ഉപയോഗത്തിലിരുന്ന ശീലക്കുട മഴയില്‍  നിന്നു രക്ഷനേടാനായി ഉപയോഗിച്ചു തുടങ്ങിയതു റോമാക്കാരാണെന്നു വിശ്വസിക്കപ്പെടുന്നു. റോമാസാമ്രാജ്യത്തിന്റെ പതനത്തോടെ കുടയുടെ പ്രചാരത്തിന്‌ മങ്ങലേറ്റു. നവോത്ഥാന കാലഘട്ടത്തോടുകൂടിയാണ്‌ കുടയ്‌ക്കു വീണ്ടും പ്രചാരം ഉണ്ടായത്‌. അധികാരചിഹ്നത്തിന്റെയും ആഘോഷവേളകളില്‍  വര്‍ണപ്പകിട്ടിന്റെയും സ്ഥാനം പിടിച്ചിരുന്ന കുട റോമന്‍ സുന്ദരിമാര്‍ ചര്‍മകാന്തിയുടെ സംരക്ഷണത്തിനായി ഉപയോഗിച്ചു തുടങ്ങിയത്‌ കുടയുടെ ചരിത്രത്തിലെ ഒരു നിര്‍ണായകഘട്ടമായിരുന്നു. മധ്യകാലഘട്ടത്തില്‍  പ്രചാരലുപ്‌തമായിരുന്ന കുട 16-ാം ശതകത്തിന്റെ ഉത്തരാര്‍ധത്തില്‍  ഒരു തിരിച്ചുവരവു തന്നെ നടത്തുകയുണ്ടായി. എന്നാല്‍  ഇക്കാലത്തും മാര്‍പ്പാപ്പയുടെയും ക്രസ്‌തവ മേലധ്യക്ഷന്മാരുടെയും സ്ഥാനമാനങ്ങളെ പ്രതിഫലിപ്പിക്കുന്നതിനാണ്‌ കുട ഉപയോഗിക്കുന്നത്‌. മാര്‍പ്പാപ്പയുടെ അകമ്പടിക്കായി ഇന്നും രണ്ടു കുടകള്‍ ഉപയോഗപ്പെടുത്തുന്നുണ്ട്‌; ഒരു കുട തുറന്നും മറ്റേതു മടക്കിയും. തുറന്ന കുട മാര്‍പ്പാപ്പയുടെ ഭൗതിക ശക്തിയെയും മടക്കിയ കുട അദ്ദേഹത്തിന്റെ ആത്മീയ ശക്തിയെയും പ്രതിനിധീകരിക്കുന്നു എന്നാണ്‌ വിശ്വാസം. 1680 ആയതോടെ ഫ്രാന്‍സിലും തുടര്‍ന്ന്‌ ഇംഗ്ലണ്ടിലും കുടയ്‌ക്കു പ്രചുരപ്രചാരമുണ്ടായി. പശ്ചിമയൂറോപ്പില്‍  ഇതിന്റെ പ്രചാരം വളരെ സാവധാനമായിരുന്നു. 17, 18 ശതകങ്ങളില്‍  മോടിയായി വസ്‌ത്രധാരണം നടത്തിയിരുന്ന സ്‌ത്രീകളിലധികവും കുടകളും കരുതിയിരുന്നു; മഴയില്‍  നിന്നുള്ള രക്ഷയ്‌ക്കായിരുന്നില്ല, മറിച്ച്‌ ഒരു ആഡംബരവസ്‌തുവായാണ്‌ അവര്‍ കുട കൊണ്ടുനടന്നിരുന്നത്‌. നന്നെ ഭാരമേറിയതും വിലക്ഷണമായതും തുകല്‍ കൊണ്ടോ എണ്ണ പുരട്ടിയ സില്‍ ക്കുതുണികൊണ്ടോ നിര്‍മിക്കപ്പെട്ടതും ആയിരുന്നു 17-18 ശതകങ്ങളില്‍  പ്രചാരത്തിലിരുന്ന കുടകള്‍. മാന്യകളെ അനുഗമിക്കുന്ന ഭൃത്യന്മാരാണ്‌ ഈ കുടകള്‍ വഹിച്ചിരുന്നത്‌. കുടക്കമ്പിക്കു പകരം തിമിംഗലത്തിന്റെ അസ്ഥി ഉപയോഗിച്ചു തുടങ്ങിയതോടെ കുടയുടെ ഭാരം ഗണ്യമായി കുറഞ്ഞു. 18-ാം ശതകത്തില്‍  ഇറ്റലി, ഫ്രാന്‍സ്‌, ബ്രിട്ടന്‍, ജര്‍മനി, പോളണ്ട്‌ എന്നിവിടങ്ങളില്‍  കുടയ്‌ക്കു വലിയ പ്രചാരം ഉണ്ടായി. 1750-കള്‍ വരെ ഇംഗ്ലണ്ടില്‍  കൂടുതലായും കുടകള്‍ ഉപയോഗിച്ചിരുന്നതു സ്‌ത്രീകളായിരുന്നു. 1750-ല്‍  ലണ്ടന്‍ നഗരത്തിലൂടെ ജൊനാസ്‌ ഹാല്‍ വേ എന്നയാള്‍ ഒരു കുടയും കൊണ്ടു നടന്നതു നഗരവാസികളില്‍  കൗതുകമുളവാക്കി; അതോടെ കുടയ്‌ക്കു പ്രചാരവും സിദ്ധിച്ചു. 19-ാം ശതകം ആയതോടെ ഇടത്തരക്കാര്‍ ധാരാളമായി കുട ഉപയോഗിച്ചുവന്നു. ഇക്കാലത്ത്‌ ഇതിന്റെ ആകൃതിയിലും ഘടനയിലും ഗണ്യമായ മാറ്റങ്ങള്‍ ഉണ്ടായി; അവയിലെ അലങ്കരണത്തില്‍  കൂടുതല്‍  ശ്രദ്ധ ചെലുത്തുകയും ചെയ്‌തു. 1850-കളില്‍  സ്റ്റീല്‍  ചട്ടക്കൂടു നിര്‍മിച്ചു തുടങ്ങിയതോടെ കുടയുടെ ഭാരം വീണ്ടും കുറഞ്ഞു.
[[ചിത്രം:Vol7p568_HK_Kln_Park Umbrellas.jpg|thumb|പാര്‍ക്കുകളില്‍  ഉപയോഗിക്കുന്ന കുടകള്‍]]
ഫാഷന്റെ ഭാഗമായതോടെ ആഡംബരക്കുടകള്‍ വീണ്ടും അലങ്കരിക്കപ്പെട്ടുതുടങ്ങി. അരികുകളില്‍  തൊങ്ങലുകളും കസവുകളും തുന്നിപ്പിടിപ്പിക്കുക, അപൂര്‍വ ജീവികളുടെ അസ്ഥികളോ അപൂര്‍വമായ തടിത്തരങ്ങളോ കൊണ്ടു കുടക്കാല്‍  നിര്‍മിക്കുക, പിടിയില്‍  സ്വര്‍ണം കെട്ടിക്കുക തുടങ്ങി പല തരത്തിലും കുടകള്‍ മോടിപിടിപ്പിക്കപ്പെട്ടിരുന്നു. 19-ാം ശതകത്തില്‍  യൂറോപ്യന്‍ നഗരങ്ങളില്‍  കുലീനസ്‌ത്രീകളാരും ആഡംബരക്കുടകള്‍ കൂടാതെ പുറത്തിറങ്ങിയിരുന്നില്ല. തങ്ങള്‍ വഹിച്ചിരുന്ന കുടകളിലൂടെ ഇവര്‍ സമൂഹത്തിന്റെ ആദരവ്‌ ആര്‍ജിച്ചിരുന്നു. 19-ാം ശതകത്തിന്റെ ഉത്തരാര്‍ധത്തില്‍  അലങ്കാരക്കുടകളുടെ വലുപ്പം നന്നേ ചുരുങ്ങി; ഇവയുടെ ഉപയോഗശൂന്യത ബോധ്യപ്പെട്ടതോടെ അലങ്കാരക്കുടകളുടെ പ്രചാരം തന്നെ നിലച്ചു. ക്രമേണ കുടയുടെ പ്രയോജനത്തിന്‌ ഊന്നല്‍  നല്‌കപ്പെട്ടതോടെ നഗരങ്ങളില്‍  മഴക്കാലത്തു കുട വാടകയ്‌ക്കു കൊടുക്കുന്ന സമ്പ്രദായം നിലവില്‍  വന്നു. കുടയുടെ ബലവും ഈടും വര്‍ധിപ്പിക്കത്തക്കവണ്ണം നിര്‍മാണരീതിയില്‍  പല പരിഷ്‌കാരങ്ങളും ഇക്കാലത്തു വരുത്തുകയുണ്ടായി.

1912-ലാണ്‌ ആദ്യമായി വര്‍ണശബളമായ സില്‍ ക്ക്‌ തുണികള്‍കൊണ്ടു കുട നിര്‍മിക്കപ്പെട്ടത്‌. പുരുഷന്മാര്‍ സാധാരണയായി വര്‍ണക്കുടകള്‍ ഉപയോഗിക്കാറില്ല. പുരുഷന്മാര്‍ ഉപയോഗിക്കുന്ന കുടകള്‍ക്കു വിസ്‌താരം കൂടുതലായിരിക്കും; പ്രായേണ അവയുടെ നിറം കറുപ്പായിരിക്കും.

മടക്കുകുട (folding umbrella)കളുടെ ആവിര്‍ഭാവം കുടയുടെ നിര്‍മാണചരിത്രത്തിലെ ഒരു പരിവര്‍ത്തനഘട്ടമാണ്‌. കുടക്കാലിന്റെ മുകളറ്റത്തു 8-10 കമ്പികള്‍ ഘടിപ്പിച്ച്‌ അവയില്‍  പ്രത്യേക രീതിയില്‍  തയ്‌ച്ചു ശരിയാക്കിയ കുടത്തുണി ഉറപ്പിച്ചാണ്‌ കുട നിര്‍മിക്കുന്നത്‌. കുടക്കമ്പികളുടെ ഏതാണ്ടു നടുഭാഗത്തു ഘടിപ്പിച്ചിട്ടുള്ള കമ്പികള്‍ കുടക്കാലിലൂടെ മുകളിലേക്കും താഴേക്കും നീക്കാവുന്ന ഒരു ലോഹച്ചുറ്റിലേക്കു ബന്ധിപ്പിക്കുന്നതിലൂടെയാണ്‌ കുട നിവര്‍ത്താനും മടക്കാനും കഴിയുന്നത്‌. പുരുഷന്മാരും സ്‌ത്രീകളും ഉപയോഗിക്കുന്ന ശീലക്കുടകള്‍ക്കു ചില വ്യത്യാസങ്ങളുണ്ട്‌. പുരുഷന്മാര്‍ ഉപയോഗിക്കുന്ന കുടയ്‌ക്കു വലുപ്പം കൂടുതലായിരിക്കും; വളഞ്ഞ പിടിയും മൂട്ടില്‍  തള്ളിനില്‍ ക്കുന്ന കാലും ഉള്ളതുകൊണ്ടു പുരുഷന്മാരുടെ കുട ഊന്നുവടിയായും ഉപയോഗപ്പെടുത്താം. കൈകാര്യം ചെയ്യുന്നതിനുള്ള സൗകര്യത്തെ അടിസ്ഥാനമാക്കി കുടയുടെ നിര്‍മാണത്തില്‍  പല പരിഷ്‌കാരങ്ങളും വരുത്തിയിട്ടുണ്ട്‌. ഇപ്പോള്‍ വിപണിയില്‍  ലഭിക്കുന്ന ഒടിച്ചു മടക്കാവുന്നതോ, വലിച്ചു ചുരുക്കാവുന്നതോ (telescopic) ആയ കുടകള്‍ ഈ രംഗത്തെ ആധുനിക നിര്‍മാണചാതുരിക്കു തെളിവാണ്‌. കുടക്കാലിനോടു ചേര്‍ന്ന്‌ മുകളറ്റത്തു മാത്രമല്ല, കമ്പികളുടെ മധ്യഭാഗത്തുവച്ചും മുകളിലേക്കു മടക്കാവുന്ന തരത്തില്‍  നിര്‍മിച്ചിട്ടുള്ള മടക്കുകുടകള്‍ കൈകാര്യം ചെയ്യാന്‍ സൗകര്യമാണ്‌. കാറ്റ്‌ ശക്തിയായി വീശുമ്പോള്‍ മടങ്ങി ഉയര്‍ന്നുപോകുമെന്നതുകൊണ്ട്‌ ഇത്തരം കുടകള്‍ക്കു പ്രചാരം ലഭിച്ചില്ല. വലിച്ചു ചുരുക്കാവുന്ന തരത്തിലുള്ള കുട നിര്‍മിച്ചു തുടങ്ങിയതോടെ ഈ ന്യൂനത പരിഹരിക്കപ്പെട്ടു. കുട വേഗത്തില്‍  നിവരുന്നതിനുള്ള പ്രത്യേക സംവിധാനങ്ങളുണ്ടായതോടെ കുട നിവര്‍ത്തുന്നതിനുള്ള ശ്രമം ലഘൂകരിക്കപ്പെട്ടിട്ടുണ്ട്‌. 2005-ല്‍  നെതര്‍ലന്‍ഡ്‌സിലെ ഡെല്‍ ഫ്‌റ്റ്‌ സര്‍വകലാശാലയിലെ ഒരു വിദ്യാര്‍ഥിയായ ഗെര്‍വിന്‍ ഹൂഗന്‍ഡൂം കൊടുങ്കാറ്റിലും ഫലപ്രദമായി ഉപയോഗിക്കാവുന്ന ഒരു കുട നിര്‍മിക്കുകയുണ്ടായി. ശക്തമായ കാറ്റില്‍  മുകളിലേക്ക്‌ മടങ്ങി പോകാത്ത, വിമാനത്തിന്റെ ആകൃതിയിലുള്ള ഈ കുട, കുടനിര്‍മാണരംഗത്തെ ഒരു പുതിയ ചുവടുവയ്‌പാണ്‌.

പുരുഷന്മാര്‍ ഉപയോഗിക്കുന്ന കുടയോടു സാമ്യമുള്ളതാണ്‌ ഉത്സവാഘോഷങ്ങള്‍ക്ക്‌ ഉപയോഗിച്ചുവരുന്ന മുത്തുക്കുട. മുത്തുക്കുടകള്‍ക്കു വിസ്‌താരം വളരെ കൂടുതലായിരിക്കും; കുടകളുടെ അരികുകളില്‍  മുത്തുമണികള്‍ കോര്‍ത്തു തൂക്കിയിട്ടിരിക്കുന്നതുകൊണ്ടാണ്‌ ഇവയ്‌ക്ക്‌ ഈ പേരുതന്നെ ലഭിച്ചത്‌. വര്‍ണപ്പകിട്ടുള്ള മുത്തുക്കുടകളാണ്‌ വെണ്‍കൊറ്റക്കുടയായും ശീവേലിക്കുടയായും മറ്റും ഉപയോഗപ്പെടുത്തുന്നത്‌. തൃശൂര്‍പ്പൂരത്തിനോടനുബന്ധിച്ചു നടത്തുന്ന "കുടമാറ്റ'ത്തിനു മുത്തുക്കുടകളാണുപയോഗിക്കുന്നത്‌. പരിചയസമ്പന്നരായ എഴുന്നള്ളിപ്പുകാര്‍ നിരന്നുനില്‍ ക്കുന്ന ഗജവീരന്മാരുടെ മുകളിലിരുന്ന്‌ വര്‍ണപ്പകിട്ടേറിയ മുത്തുക്കുടകള്‍ കൂടെക്കൂടെ മാറ്റിപ്പിടിക്കുന്നത്‌ അത്യാകര്‍ഷകമായ ഒരു കാഴ്‌ചയാണ്‌. നഗരങ്ങളിലെ നാല്‌ക്കവലകളില്‍  നിന്നു ഗതാഗതനിയന്ത്രണം നടത്തുന്നവര്‍ക്ക്‌ മഴയില്‍ നിന്നും വെയിലില്‍ നിന്നും സംരക്ഷണം ലഭിക്കുന്നതിനു സ്ഥാപിച്ചിട്ടുള്ള ട്രാഫിക്‌കുടയെന്ന ആശയം കുടയില്‍  നിന്നാണ്‌ ഉരുത്തിരിഞ്ഞിട്ടുള്ളത്‌.