==ഗരുഡധ്വനി ==

ഇരുപത്തൊമ്പതാമത്തെ മേളകര്‍ത്താരാഗമായ ധീരശങ്കരാഭരണത്തിന്റെ ജന്യരാഗം. ത്യാഗരാജകൃതികളിലൂടെയാണ് ഈ രാഗം പ്രസിദ്ധിയാര്‍ജിച്ചത്. ഇതൊരു ഉപാംഗരാഗമാണ്. ഒരു ഗമകവരികരക്തിരാഗം. രി, ഗ, ധ എന്നീ സ്വരങ്ങള്‍ രാഗച്ഛായാസ്വരങ്ങള്‍. സര്‍വകാലികരാഗമാണിത്. സമ്പൂര്‍ണ ഔഡവരാഗം. സ.പ. എന്നീ സ്വരങ്ങളെക്കൂടാതെ ഈ രാഗത്തില്‍ വരുന്ന സ്വരങ്ങള്‍, ചതുശ്രുതിഋഷഭം, അന്തരഗാന്ധാരം, ശുദ്ധമാധ്യമം, ചതുശ്രുതി ധൈവതം, കാകലിനിഷാദം എന്നിവയാണ്.
 
ആരോഹണം-സരിഗമപധനിസ 
   
അവരോഹണം-സധപഗരിസ 
   
ഇതിലെ അവരോഹണത്തെ ആരോഹണമായും, ആരോഹണത്തെ അവരോഹണമായും മാറ്റി സ്വരക്രമം തിരിച്ചിട്ടാല്‍ ബിലഹരിരാഗമാകും. അതായത് 
   
സ രി ഗ പ ധ സ 
   
സ നി ധ പ മ ഗ രി സ 
   
പധനിസധാപ ഗരിഗമപധനിസ രീസധാപ 
   
ഗമധപ ഗരി സാ സധപ ധനിസാ രിഗമ പധനിസ 
   
രിഗമപ ഗരിസാ ധപ ഗമപധ നിസാധപ ഗമപഗ 
   
രിസ ധപ ധനിസാ... 
   
ത്യാഗരാജസ്വാമികള്‍ രചിച്ച, ആനന്ദ സാഗരിമിദനി എന്ന കൃതിയും, തത്വമെറുഗതരമാ എന്ന കൃതിയും നീതോജെച്ചഗാ എന്ന പല്ലവി ശേഷയ്യരുടെ കൃതിയും പ്രസിദ്ധമാണ്. 

(പ്രൊഫ. എം.കെ. മോഹനചന്ദ്രന്‍)