==ചെങ്കീരി==

കീരിവര്‍ഗത്തില്‍പ്പെട്ട ഒരു സസ്തനി. ശാസ്ത്രനാമം: ഹെര്‍പെസ്റ്റസ് ഫസ്കസ്. ഇന്ത്യയില്‍ കാണപ്പെടുന്ന  കീരിയിനങ്ങളില്‍ ഏറ്റവും വലുപ്പം കൂടിയതും ഇതു തന്നെ. രോമാവൃതമായ കൂര്‍ത്ത മോന്തയും നീണ്ട ഉടലും ഉള്ള ചെങ്കീരിക്ക് 3.5 കി.ഗ്രാം വരെ തൂക്കം വയ്ക്കാറുണ്ട്. നീളം ഏതാണ്ട് 90 സെ.മീ. വരെയും. ശരീരത്തിന് അരണ്ട ചുവപ്പു നിറമാണുള്ളത്. വാല് രോമാവൃതവും നീണ്ടതുമാണ്. കഴുത്തിന്റെ ഇരുവശങ്ങളിലും കറുത്ത വരകളും കാണപ്പെടുന്നു.
   
തറയില്‍ മാളങ്ങളുണ്ടാക്കിയാണിവ ജീവിക്കുന്നത്. ജലസാമീപ്യമുള്ളയിടങ്ങളിലാണിവ കൂടുതലായും കാണപ്പെടുന്നത്. സസ്യാഹാരവും മാംസാഹാരവും ഇവയ്ക്കു പഥ്യമാണ്. ഞണ്ട്, നത്തയ്ക്ക, മണ്ണിര എന്നിവയാണ് ഇവകൂടുതലായും ഭക്ഷിക്കാറുള്ളത്. 
   
ഒരു സ്ഥലത്തും ഒതുങ്ങിയിരിക്കാതെ എപ്പോഴും സഞ്ചരിച്ചുകൊണ്ടിരിക്കുന്ന പ്രകൃതമാണിവയ്ക്കുള്ളത്. ചെങ്കീരി എല്ലാ കാലാവസ്ഥകളിലും ഇണ ചേരാറുണ്ട്. അറുപതു ദിവസത്തോളം നീണ്ടുനില്ക്കുന്ന ഗര്‍ഭകാലത്തിനുശേഷം രണ്ടോ മൂന്നോ കുഞ്ഞുങ്ങളെ പ്രസവിക്കും. ഒരു വര്‍ഷം തന്നെ രണ്ടിലേറെ പ്രാവശ്യം പ്രസവിക്കാറുണ്ട്. വളരെ ചുറുചുറുക്കോടെ ഓടിനടക്കാറുള്ള ചെങ്കീരി മനുഷ്യരോട് അധികം ഇണങ്ങാറില്ല.