==ജഗന്മോഹിനി==

ഒരു ജന്യരാഗം. 15-ാമത്തെ മേളകര്‍ത്താരാഗത്തിലാണ് ഇതുള്‍പ്പെടുന്നത്. ആരോഹണാവരോഹണങ്ങള്‍ ഇങ്ങനെയാണ്.
   
ആ:  സ ഗ മ പ നി സ
   
അവ: സ നി പ മ രി സ
ഇതൊരു ഉപാംഗരാഗമാണ്. ഇതിലെ ഗ, നി എന്നിവ രാഗഛായാ സ്വരങ്ങളാണ്. ഈ രാഗത്തില്‍ നിരവധി പ്രസിദ്ധ രചനകള്‍ ഉണ്ട്. അക്കൂട്ടത്തില്‍ ഏറെ പ്രചാരം നേടിയിട്ടുള്ളവയാണ് ത്യാഗരാജ സ്വാമികളുടെ 'മാമവസതതം...' എന്നു തുടങ്ങുന്ന കൃതിയും 'ശോഭില്ലു സപ്തസ്വര...' എന്ന രചനയും.