=ടെലൂറിയം=

Tellurium

ഒരു അര്‍ധലോഹമൂലകം. സിം. Te. അ.സ. 52. അ.ഭാ. 127.60. ആവര്‍ത്തനപട്ടികയില്‍ ഗ്രൂപ്പ് VI A-യില്‍ സ്ഥിതിചെയ്യുന്ന ഈ മൂലകം ആദ്യമായി കണ്ടുപിടിച്ചത് ഫ്രാന്‍സ് ജോസഫ് മുള്ളര്‍ എന്ന ആസ്ട്രിയന്‍ രസതന്ത്രജ്ഞനാണ് (1782). ഭൂമി എന്ന് അര്‍ഥം വരുന്ന ലത്തീന്‍ പദമായ ടെല്ലസി (Tellus) ല്‍ നിന്നാണ് ഈ പേര് നിഷ്പന്നമായത്. സ്ഥിരതയുള്ള എട്ട് സമസ്ഥാനീയങ്ങള്‍ ഇതിനുണ്ട്. (Te120 മുതല്‍ Te130 വരെ) ഉരുകല്‍ നില 450&deg;C, തിളനില 1390&deg;C. +2, +4, +6 എന്നീ മൂന്ന് സംയോജകതകള്‍ പ്രദര്‍ശിപ്പിക്കാറുണ്ട്.

ടെലൂറിയത്തിന് പ്രധാനപ്പെട്ട അയിരുകള്‍ ഒന്നുംതന്നെ ഇല്ല. മറ്റ് ലോഹങ്ങളുടെ സള്‍ഫൈഡ് അയിരുകളിലെ ഒരു മാലിന്യമായാണ് ടെലൂറിയം കാണപ്പെടുന്നത്. വൈദ്യുതവിശ്ലേഷണം വഴി ചെമ്പ് ശുദ്ധീകരിക്കുമ്പോള്‍ ആനോഡില്‍ അടിയുന്ന ധാതുക്കളുടെ കിട്ടത്തില്‍ (anode mud) നിന്നാണ് വ്യാവസായികാടിസ്ഥാനത്തില്‍ ടെലൂറിയം വേര്‍തിരിച്ചെടുക്കുന്നത്. ആനോഡ്മഡ്, സോഡിയം നൈട്രേറ്റ്, സോഡിയം ഹൈഡ്രോക്സൈഡ് മിശ്രിതവുമായി ചേര്‍ക്കുമ്പോള്‍ ലേയമായ സോഡിയം ടെലൂറൈറ്റ് ഉണ്ടാകുന്നു. അമ്ലത്തിന്റെ സാന്നിധ്യത്തില്‍ ടെലൂറിയം, ഓക്സൈഡ് രൂപത്തില്‍ അവക്ഷേപിക്കപ്പെടുന്നു.

Te+NaOH+O<sub>2</sub>&rarr;Na<sub>2</sub>TeO<sub>3</sub>+H<sub>2</sub>O

Na<sub>2</sub>TeO<sub>3</sub>+H<sub>2</sub>SO<sub>4</sub> &rarr;Na<sub>2</sub>SO<sub>4</sub>+TeO<sub>2</sub>

കാര്‍ബണ്‍ ചേര്‍ത്തു ചൂടാക്കുമ്പോള്‍ ടെലൂറിയം ഓക്സൈഡ് അപചയിച്ച് ടെലൂറിയം വേര്‍തിരിക്കാം.

രാസപ്രതിക്രിയാക്ഷമത മിതമായ തോതില്‍ പ്രദര്‍ശിപ്പിക്കുന്ന ഒരു മൂലകമാണ് ടെലൂറിയം. വെള്ളിയുടെ നിറമുള്ള ടെലൂറിയം നിറം മങ്ങാതെ ദീര്‍ഘകാലം നിലനില്‍ക്കും. ഉരുകിയ ദ്രവാവസ്ഥയിലുള്ള ടെലൂറിയം വളരെ എളുപ്പത്തില്‍ ഓക്സീകൃതമായി ടെലൂറിയം ഓക്സൈഡ് (Te O<sub>2</sub>) ഉണ്ടാകുന്നു. ടെലൂറിയം ഓക്സൈഡ്, ഹാലജനുകളും അനവധി ലോഹങ്ങളും അലോഹങ്ങളുമായി പ്രതിപ്രവര്‍ത്തിക്കുന്നു. ഗാഢ സള്‍ഫ്യൂറിക്, നൈട്രിക് അമ്ളങ്ങളുമായി പ്രതിപ്രവര്‍ത്തിച്ച് ടെലൂറിയം സള്‍ഫൈറ്റ് (Te SO<sub>3</sub>), ടെലൂറിയം ഓക്സിനൈട്രേറ്റ് (2 Te O<sub>2</sub> HNO<sub>3</sub>) എന്നിവ ഉണ്ടാകുന്നു. ഹൈഡ്രോക്ലോറിക് അമ്ലവുമായി ടെലൂറിയം പ്രതിപ്രവര്‍ത്തിക്കുന്നില്ല. ടെലൂറിയം ഓക്സൈഡ് (TeO<sub>2</sub>) ജലത്തില്‍ ലയിക്കുമ്പോള്‍ നേര്‍ത്ത ടെലൂറസ് അമ്ലം (H<sub>2</sub>TeO<sub>3</sub>) ഉണ്ടാവുന്നു. ടെലൂറിയം ഡൈ ഓക്സൈഡോ, ടെലൂറൈറ്റുകളോ ശക്തമായ ഓക്സികാരകങ്ങളുപയോഗിച്ച് ഓക്സീകരിക്കുമ്പോള്‍ ടെലൂറിക് അമ്ലം (Te (OH)<sub>6</sub>) ഉണ്ടാവുന്നു. സോഡിയം ഹൈഡ്രോക്സൈഡുമായി പ്രവര്‍ത്തിച്ച് സോഡിയം ടെലുറൈറ്റ് (Na<sub>2</sub>TeO<sub>3</sub>), ടെലുറേറ്റ് (Na<sub>2</sub>TeO<sub>4</sub>) എന്നിവയുണ്ടാകുന്നു.

ചെമ്പിന്റെയും ഉരുക്കിന്റെയും കൂടെ ടെലൂറിയം ചേര്‍ത്ത് അവയുടെ കാഠിന്യം, ഉറപ്പ്, തിളക്കം എന്നിവ വര്‍ധിപ്പിക്കാറുണ്ട്. ടെലൂറിയം ചേര്‍ക്കുന്നതുവഴി ഈ ലോഹങ്ങള്‍ അനായാസം അടിച്ചുപരത്തി തകിടുകളാക്കാം. അര്‍ധവൈദ്യുതി വാഹികളുടെയും താപവൈദ്യുത അലോയികളുടെയും (Bi<sub>2</sub> Te<sub>3</sub>) നിര്‍മാണത്തിന് ടെലൂറിയം ഉപയോഗിക്കുന്നു. കാഡ്മിയം ടെലുറൈഡ് (Cd Te) സോളാര്‍ സെല്ലുകളില്‍ ഉപയോഗിക്കുന്നു. ടെലൂറിയം ഡൈഈതൈല്‍ ഡൈതയോകാര്‍ബമേറ്റ് [(C<sub>2</sub> H<sub>5</sub>)<sub>2</sub> NCSS]<sub>4</sub> Te] മെര്‍കാപ്റ്റോബെന്‍സോതയസോളുമായി ചേര്‍ത്ത് ബ്യൂട്ടൈല്‍ റബര്‍ ഉത്പാദനത്തിലെ ഏറ്റവും നല്ല രാസത്വരകമായി ഉപയോഗിക്കുന്നു.