=ഡോലക്ക്=

[[Image:dholak final.jpg|thumb|250x300px|left|വിവിധതരം ഡോലക്കുകള്‍]]ഒരു ചര്‍മവാദ്യം. ഉത്തരേന്ത്യയിലാണ് ഈ വാദ്യം കൂടുതല്‍ പ്രചാരത്തിലുള്ളത്. ആകൃതിയില്‍ മൃദംഗത്തില്‍ നിന്നു വ്യത്യസ്തമാണ്. കനം കുറഞ്ഞ് നീളം കൂടിയ ആകൃതിയാണ് ഇതിനുള്ളത്. ഇരുവശവും തോല്‍ കെട്ടി ഉറപ്പിച്ചിരിക്കുന്നു. മണിപ്പൂരി നൃത്തയിനങ്ങളായ പുങ്ചോലം, കര്‍തന്‍ചോലം മുതലായവയില്‍ നര്‍ത്തകര്‍ നൃത്തം ചെയ്യുമ്പോള്‍ ഡോലക്ക് കയ്യിലേന്തി വാദനം നടത്താറുണ്ട്. തബല, മൃദംഗം, ഗഞ്ചിറ, ഡോലക്ക് എന്നിവയുടെയെല്ലാം വാദനത്തില്‍ സമാനത കാണുവാന്‍ സാധിക്കും.

ദക്ഷിണേന്ത്യന്‍ വാദ്യമായ ഗഞ്ചിറയ്ക്ക് ചില സ്ഥലങ്ങളില്‍ ഡോലക്ക് എന്ന പേരുണ്ട്. അയ്യപ്പഭജനയ്ക്കും മറ്റും ഇത് തെക്കന്‍ കേരളത്തില്‍ ഉപയോഗിക്കുന്നുണ്ട്. തബല പോലെ മറ്റൊരു വാദ്യവും ഈ പേരില്‍ പ്രചരിച്ചിട്ടുണ്ട്.

കാതില്‍ ഞാത്തിയിടുന്ന ഒരാഭരണവും ഈ പേരില്‍ അറിയപ്പെടുന്നുണ്ട്.