=തിരിയുഴിച്ചില്‍= 

ഒരു അനുഷ്ഠാനം. സര്‍പ്പപ്രീതിക്കുവേണ്ടി പുള്ളുവര്‍ നടത്തുന്ന തിരിയുഴിച്ചിലാണ് ഉത്തരകേരളത്തില്‍ നിലവിലുള്ളത്. പത്തോ പന്ത്രണ്ടോ വലിയ തിരികള്‍ ഒന്നിച്ചുചേര്‍ത്ത് വെളിച്ചെണ്ണയില്‍ മുക്കി കത്തുന്ന ഭാഗമൊഴിച്ചുള്ള ഭാഗങ്ങള്‍ വാഴപ്പോളകൊണ്ട് പൊതിഞ്ഞിട്ട്, അത് സ്വന്തം ശരീരത്തില്‍ മുഴുവന്‍ ഉഴിഞ്ഞ്, കാര്‍മികന്‍ നൃത്തം ചെയ്യും. തിരി കത്തിത്തീരുന്നതിനനുസരിച്ച് വാഴപ്പോളയും മുറിച്ചുകളഞ്ഞുകൊണ്ടിരിക്കും. സാഹസികമായ ഒരനുഷ്ഠാനമാണ് ഇത്. പുള്ളുവക്കുടവും വീണയും ഇതിന് വാദ്യമേളമൊരുക്കും. നാഗയക്ഷി പ്രീതിക്കും സന്താനലാഭത്തിനും കണ്ണേറൊഴിയുന്നതിനുമാണ് തിരിയുഴിച്ചില്‍ നടത്താറുള്ളത്.

പാന മുതലായ ചില അനുഷ്ഠാനങ്ങളിലും തിരിയുഴിച്ചില്‍ ഉണ്ട്.