=തിയോബ്രോമിന്‍= 
Theobromine

കോക്കോയിലടങ്ങിയിട്ടുള്ള ഒരു ആല്‍ക്കലോയ്ഡ്. കാപ്പിയിലടങ്ങിയിട്ടുള്ള കഫീന്‍, തേയിലയിലടങ്ങിയിട്ടുള്ള തിയോഫൈലീന്‍ എന്നീ ആല്‍ക്കലോയിഡുകള്‍ക്കു സമാനമായ ഘടനയും പ്രവര്‍ത്തനവുമാണ് തിയോബ്രോമിന്റേത്. 
[[Image:p546.png|center]]
കഫീന്‍, തിയോബ്രോമിന്‍, തിയോഫൈലീന്‍ എന്നീ മൂന്ന് ആല്‍ക്കലോയിഡുകളെയും ഒന്നിച്ച് സാന്തീനുകളെന്നാണ് പറയുന്നത്. കോക്കോച്ചെടി(''Theobroma cacoa'')യുടെ പഴുത്തുണങ്ങിയ വിത്തില്‍ നിന്നാണ് തിയോബ്രോമിന്‍ നിഷ്കര്‍ഷണം ചെയ്യുന്നത്. കോക്കോ, ചോക്കളേറ്റ് വ്യവസായങ്ങളുടെ ഒരു ഉപോത്പന്നമാണ് തിയോബ്രോമിന്‍. യൂറിക്ക്അമ്ളത്തില്‍ നിന്ന് തിയോബ്രോമിന്‍ സംശ്ളേഷണം ചെയ്യാനാകും.

മറ്റ് സാന്തീനുകളെപ്പോലെ തിയോബ്രോമിനും കേന്ദ്ര നാഡീ വ്യൂഹത്തിനെ ഉത്തേജിപ്പിക്കുവാനുള്ള കഴിവുണ്ട്. കോക്കോ പാനീയങ്ങളുടെ ഉത്തേജക ഗുണത്തിന് പ്രധാന കാരണം തിയോബ്രോമിനാണ്. ശരീരത്തിലുണ്ടാകുന്ന പല തരത്തിലുള്ള നീര്‍വീക്കങ്ങളുടെ ചികിത്സയ്ക്ക് ഒരു മൂത്ര സംവര്‍ധകമായി തിയോബ്രോമിന്‍ ഉപയോഗിക്കാറുണ്ട്. ഹൃദയപേശികള്‍ക്ക് അയവു വരുത്തുവാനും അന്‍ജൈന(Angina)യുണ്ടാകുമ്പോള്‍ ഹൃദയത്തിലെ രക്തക്കുഴലുകളില്‍ രക്തയോട്ടം കൂട്ടുവാനും തിയോബ്രോമിന്‍ ഉപയോഗിക്കുന്നു. ജലത്തിലും മറ്റു സാധാരണ ലായകങ്ങളിലും വളരെ കുറച്ചു മാത്രമേ ലയിക്കുകയുള്ളൂ. അതിനാല്‍ കൂടുതല്‍ ലേയമായ മിശ്രിതങ്ങളുടെ രൂപത്തിലാണ് തിയോബ്രോമിന്‍ ഉപയോഗിക്കുന്നത്.