=താജികം= 

ജ്യോതിഷത്തിന്റെ ഒരു ശാഖ. താജികത്തിന്റെ ഉപജ്ഞാതാക്കള്‍ ഭാരതീയ പണ്ഡിതന്മാരായിരുന്നില്ല എന്നാണ് ചിലര്‍ കരുതുന്നത്. എന്നാല്‍ ജാതകം എന്ന ശബ്ദം താജകം എന്നും പിന്നീട് താജികം എന്നും മാറിയതായി അനുമാനിക്കാം. ഇതിലുള്ള ഒരു പ്രാമാണിക ഗ്രന്ഥമാണ് താജികനീലകണ്ഠി. നീലകണ്ഠ ദൈവജ്ഞനാല്‍ വിരചിതമായ ഈ ഗ്രന്ഥത്തില്‍ താജികത്തിലെ മാര്‍ഗങ്ങള്‍ വിശദീകരിക്കുന്നു. പ്രധാനമായ ഒന്ന് വര്‍ഷഫലകഥന രീതിയാണ്. മുംഥഹാ എന്ന സാങ്കല്പിക ഗ്രഹത്തേയും അതിന്റെ ഗണനത്തേയും കുറിച്ചും പ്രതിപാദിച്ചിട്ടുണ്ട്. കൂടാതെ പ്രശ്ന രീതിയും വ്യത്യസ്തമായ രീതിയില്‍ പറഞ്ഞിട്ടുണ്ട്. യാത്ര, മോഷണം, വിദേശജീവിതം, സന്താനം, ഭോജനം തുടങ്ങിയവയെക്കുറിച്ചുള്ള ഗുണദോഷ നിരൂപണവും ഉള്‍ക്കൊള്ളുന്നു.

(ഡോ. എസ്. മാധവന്‍)