=ദേലമ്പാടി= 

കാസര്‍ഗോഡ് ജില്ലയിലെ ദേലമ്പാടി ബ്ളോക്കില്‍ ഉള്‍പ്പെട്ട ഒരു ഗ്രാമ പഞ്ചായത്ത്. കിഴക്കും വടക്കും കര്‍ണാടക സംസ്ഥാനം അതിര്‍ത്തി നിര്‍ണയിക്കുന്ന ദേലമ്പാടിയുടെ പടിഞ്ഞാറ് കാറഡുക്ക ഗ്രാമ പഞ്ചായത്തും തെക്ക് കുറ്റിക്കോല്‍ ഗ്രാമ പഞ്ചായത്തും സ്ഥിതിചെയ്യുന്നു. വിസ്തൃതി: 79.56 ച.കി.മീ.

വിവിധ മത-ഭാഷാ സംസ്കൃതികളുടെ സംഗമസ്ഥലമായ ദേലമ്പാടിയില്‍ തുളു, മലയാളം, കന്നഡ, മറാഠി എന്നീ ഭാഷകള്‍ക്കാണ് പ്രാമുഖ്യം. കാര്‍ഷിക ഗ്രാമമായ ദേലമ്പാടിയിലെ തദ്ദേശീയരില്‍ ഭൂരിഭാഗവും കര്‍ഷകരും കര്‍ഷകത്തൊഴിലാളികളുമാണ്. പയസ്വിനിപ്പുഴയാണ് മുഖ്യ ജലസ്രോതസ്സ്. കവുങ്ങ്, തെങ്ങ്, റബ്ബര്‍, നെല്ല്, കശുമാവ് എന്നിവയാണ് പ്രധാന വിളകള്‍.