=നാഗൂര്‍=

തമിഴ്നാട്ടിലെ തഞ്ചാവൂര്‍ ജില്ലയിലുള്ള ഒരു തീര്‍ഥാടന കേന്ദ്രം. നാഗപട്ടണത്തുനിന്ന് സു. 10 കി.മീ. വ. സ്ഥിതിചെയ്യുന്ന നാഗൂറിന്റെ പ്രശസ്തിക്കുകാരണം ഇവിടത്തെ 'നാഗൂര്‍ ദര്‍ഗ' എന്ന മുസ്ലിം ദേവാലയമാണ്.

[[Image:nagore Dargah.png]]

വിശുദ്ധ ഷാഹുല്‍ ഹമീദി(മീരാന്‍ സാഹിബ്)ന്റെ ശവകുടീരമാണ് നാഗുര്‍ ദര്‍ഗ. നാഗൂരില്‍ ജീവിച്ചിരുന്ന ഇദ്ദേഹത്തെ തഞ്ചാവൂരിലെ ഭരണാധികാരികള്‍ പോലും ആദരിച്ചിരുന്നു. നാഗൂര്‍ പള്ളിയില്‍ വര്‍ഷംതോറും നടത്തുന്ന 'കൊന്തോരി' (Kondori) മഹോത്സവത്തില്‍ പങ്കെടുക്കാന്‍ തദ്ദേശവാസികളെക്കൂടാതെ ഇന്ത്യയുടെ മറ്റുഭാഗങ്ങളില്‍നിന്ന് ജാതി-മതഭേദമെന്യേ നിരവധി പേര്‍ എത്താറുണ്ട്.