


തിരുവനന്തപുരം ജില്ലയിലെ പേയാടു് സ്വദേശിനി. മൈക്രോ ബയോളജിയിൽ ബിരുദാനന്തര ബിരുദം നേടിയിട്ടുണ്ടു്. ഇപ്പോൾ എസ്. ടി. എം. ഡോക്സിൽ കോപ്പി എഡിറ്റർ ആയി ജോലി ചെയ്യുന്നു. ചെറുപ്പകാലം മുതൽക്കെ ക്രാഫ്റ്റിലും ആർട്ടിലും താൽപര്യം ഉള്ളതിനാൽ ഒഴിവു് സമയം അതിലേയ്ക്കായി വിനിയോഗിക്കുന്നു.
