(ജൂൺ 28 മുതൽ ജൂലൈ 4 വരെ ലഭിച്ച പ്രതികരണങ്ങളാണു് ഈ ലക്കത്തിലുള്ളതു്).


“പുരുഷാകൃതി പൂണ്ട ദൈവമോ?
നരദിവ്യാകൃതി പൂണ്ട
ധർമ്മമോ?
പരമേശപവിത്ര പുത്രനോ?
കരുണാവാൻ നബി
മുത്തുരത്നമോ?”
(ശ്രീ നാരായണ ഗുരു: അനുകമ്പാദശകം: 7)
“ആർക്കുമേ തിരിയുകില്ലാ
എൻ കിഴക്കൻ പേച്ച്,
ആർക്കതു തിരിയുേമാ ആ
ആൾ കിഴക്കൻ തന്നെ”
(ബോലീ ഹമരീ പൂരബീ)
(ജൂലൈ 05 മുതൽ 11 വരെ ലഭിച്ച പ്രതികരണങ്ങളാണു് ഈ ലക്കത്തിലുള്ളതു്).

(ജൂലൈ 12 മുതൽ 18 വരെ ലഭിച്ച പ്രതികരണങ്ങളാണു് ഈ ലക്കത്തിലുള്ളതു്).

ഒറ്റക്കണ്ണ്.
ഒരുപാട് നോട്ടങ്ങൾ.
ഒരായിരം കാഴ്ചകൾ.
അവസാനിക്കില്ലെന്ന് തോന്നിക്കുന്ന ഉൾക്കാഴ്ചകൾ.
അവയുടെ ഫ്രയിമുകൾ.
നിറം തന്നെ നിറവ്.
മധുവിന്റെ എഴുത്ത്,
‘അക’ത്തെ വെളിച്ചം കാണുന്ന
തോന്നക്കലെ ആ തോന്നൽ പോലെ.

(ജൂലൈ 19 മുതൽ 25 വരെ ലഭിച്ച പ്രതികരണങ്ങളാണു് ഈ ലക്കത്തിലുള്ളതു്).

(ജൂലൈ 26 മുതൽ ആഗസ്റ്റ് 1 വരെ ലഭിച്ച പ്രതികരണങ്ങളാണു് ഈ ലക്കത്തിലുള്ളതു്).

(ആഗസ്റ്റ് 2 മുതൽ 8 വരെ ലഭിച്ച പ്രതികരണങ്ങളാണു് ഈ ലക്കത്തിലുള്ളതു്).

(ആഗസ്റ്റ് 9 മുതൽ 15 വരെ ലഭിച്ച പ്രതികരണങ്ങളാണു് ഈ ലക്കത്തിലുള്ളതു്).

ഒന്നിന്നുമാകാ പിരിക്കാൻ കവിതയി-
ലൊന്നായ രണ്ടൊഴുക്ക്.

(ആഗസ്റ്റ് 16 മുതൽ 22 വരെ ലഭിച്ച പ്രതികരണങ്ങളാണു് ഈ ലക്കത്തിലുള്ളതു്).

… അലക്കുകാരനും കഴുതയും
പുതിയ വിഴുപ്പുമായി വീണ്ടും
വെള്ളമുള്ള നാടു് തേടി യാത്രയായി.
വിടർന്ന പീലികൾ ചുരുക്കിക്കെട്ടി
ഒരു ചൂലാക്കി ഞങ്ങൾക്കു് തന്നിട്ടു്
സ്വപ്നകാലത്തിന്റെ മയിൽ യാത്രയായി…
കെ. ജി. എസ്സ്.
സച്ചിദാനന്ദന്റെ തിരിച്ചു് വരവു് ഓണം ഇരട്ടി സന്തോഷമുള്ളതാക്കി.
(ആഗസ്റ്റ് 23 മുതൽ സെപ്റ്റംബർ 1 വരെ ലഭിച്ച പ്രതികരണങ്ങളാണു് ഈ ലക്കത്തിലുള്ളതു്).

“അരുളൻപനുകമ്പ മൂന്നിനും
പൊരുളൊന്നാണിതു് ജീവതാരകം
‘അരുളുള്ളവനാണു ജീവി’യെ-
ന്നുരുവിട്ടീടുകയീ നവാക്ഷരി.”
(അനുകമ്പാ ദശകം 3)

“അരുളുള്ളുവനാണു് ജീവി” എന്ന നിർവ്വചനം മാനവികതയുെട ചക്രവാളങ്ങളെ ഭേദിക്കുന്നു. ദുരിതക്കടൽതാണ്ടുവാൻ ജീവിയെ സഹായിക്കുന്ന “ജീവതാരകമായ” “നവാക്ഷരിയാണു്” ഗുരുനൈതികതയുടെ ബീജമന്ത്രം. ആത്മസുഖവും അപരസുഖവും അപരജീവി സുഖവും ഒന്നാവുന്നു. അപര മനുഷ്യരെന്നപോലെ അപരജീവികളും ആത്മസഹോദരങ്ങളാകുന്നു, യുഗ്മകളാകുന്നു. ദ്വന്ദ്വങ്ങൾ, ആത്മാപര വൈരുദ്ധ്യങ്ങൾ, തകർക്കപ്പെടുന്നതു് താത്വിക ചിന്തയിലൂടെയോ യോഗാനുഷ്ഠാനങ്ങളിലൂടെയോ അല്ല, അരുൾ എന്ന ഭാവശക്തിയുടെ ഭൗതിക നൈതിക പ്രവർത്തനങ്ങളിലൂടെയാണു്. സഹജീവിയോടുള്ള ആർദ്രതയിലൂടെയാണു്…
മലയാളത്തിൽ ഗുരുദർശനത്തെക്കുറിച്ചു് ഒട്ടനവധി അന്വേഷണങ്ങളും എഴുത്തുകളുമുണ്ടായിട്ടുണ്ടു്. പി. കെ. ബാലകൃഷ്ണൻ, ടി. ഭാസ്ക്കരൻ, ഡോ. സുഗതൻ, നിത്യചൈതന്യയതി… എന്നിങ്ങനെയുള്ളവരുടെ എഴുത്തുകളുടെ ഒരു ഘട്ടം.
അതിനുശേഷം, തത്വചിന്താപരമായ പുതിയ ഉൾവെളിച്ചത്താൽ മൗലികമായ രീതിയിൽ സമീപിച്ച എഴുത്തുകളാണു് നിസ്സാർ അഹമദ്, ബി. രാജീവൻ, കെ. വിനോദ് ചന്ദ്രൻ എന്നിവരുടെതു്.
പാശ്ചാത്ത്യ ഉത്തരാധുനിക ചിന്തകർ അവതരിപ്പിച്ച സങ്കല്പനങ്ങളെ അവർ ഗുരു പഠനത്തിലേക്കു് (Guru Studies) കൊണ്ടുവന്നു. വഴിത്തിരിവായ അന്വേഷണങ്ങളാണു് അതൊക്കെ.
അതിനെ പിൻപ്പറ്റിക്കൊണ്ടു് പലരും സമാനമായ വിധത്തിൽ വിസ്തരിച്ചു എഴുതുന്നുണ്ടെങ്കിലും, ചിന്താപരമായി മൗലികതയുടെ അഭാവം നിമിത്തമാകാം പഴയകാര്യങ്ങളുടെ പുനരാവിഷ്ക്കാരം മാത്രമായി അവശേഷിക്കുന്നു…
Minorization ന്യൂനപക്ഷവല്ക്കരണമെന്നാണു്. ന്യൂനീകരണമെന്നല്ല.
(സെപ്റ്റംബർ 2 മുതൽ 5 വരെ ലഭിച്ച പ്രതികരണങ്ങളാണു് ഈ ലക്കത്തിലുള്ളതു്).
(സെപ്റ്റംബർ 6 മുതൽ 12 വരെ ലഭിച്ച പ്രതികരണങ്ങളാണു് ഈ ലക്കത്തിലുള്ളതു്).

(സെപ്റ്റംബർ 13 മുതൽ 19 വരെ ലഭിച്ച പ്രതികരണങ്ങളാണു് ഈ ലക്കത്തിലുള്ളതു്).

‘വരിക, ശിവനെച്ചുറ്റി നാം കൈകൾ കോർക്കുക
അവനു കൊടിയായിക്കലപ്പകളുയർത്തുക’

എന്നിങ്ങനെ വചനകവിതാപ്രസ്ഥാനത്തിന്റെ ജ്ഞാന-കർമ്മസങ്കല്പനങ്ങളിലെ പാരസ്പര്യം സൂചിപ്പിക്കുകയും വൈകാതെ അതു്,
‘നിലമുഴും കരി ശിവൻ,
കൊയ്യുമരിവാൾ ശിവൻ
അതു കൊയ്തതാറ്റിക്കൊഴിക്കും
മുറം ശിവൻ’
എന്നിങ്ങനെ ബഹുത്വത്തിലേക്കും ഐക്യത്തിലേക്കും വികസിപ്പിക്കുകയും ചെയ്തിട്ടുണ്ടു്, അദ്ദേഹം. ബസവണ്ണയുടെ വചനങ്ങളിലേക്കു കടക്കുന്നതിനു മുമ്പു് ഇതും ഓർമ്മിക്കാവുന്നതാണു്. വചനകവിതയുടെ ഒരു സവിശേഷത, അതിന്റെ പേരിൽത്തന്നെയുള്ള വചനസ്വഭാവമാണു്. വൃത്തം ദീക്ഷിക്കാതെതന്നെ, സംസാരത്തിന്റെ ആന്തരികവും ബാഹ്യവുമായ താളത്തെ ജൈവികമായി ആവിഷ്കരിക്കുന്ന രൂപമാണു് മിക്ക വചനങ്ങൾക്കുമുള്ളതു്. മുതിർന്ന കന്നഡ കവി എച്ച്. എസ്. ശിവപ്രകാശ് ചൊല്ലിയും ചില ഗായകർ പാടിയും കേട്ടതുകൊണ്ടതുകൂടിയാവും, ജൈവികവും സവിശേഷവുമായ ആ രൂപപരതയെ മലയാളത്തിലേക്കു് സ്വാംശീകരിക്കാൻ സച്ചിദാനന്ദനു് അനായാസം കഴിയുന്നു.
ലോകത്തെ മനസ്സിലാക്കാൻ നാം ആശ്രയിക്കുന്ന ദ്വന്ദ്വങ്ങളുടെയും ലോകത്തിന്റെ ബഹുത്വത്തിനും ജ്ഞാനത്തിന്റെ ഐക്യത്തിനുമിടയിൽ വന്നുചേരുന്ന തടസ്സങ്ങളുടെയും മുന്നിൽ ഹതാശനായി നില്ക്കുകയും ഇവയുടെ അന്തരങ്ങളൊഴിവാക്കി സമഗ്രജ്ഞാനത്തിലേക്കു തന്നെ വിമോചിപ്പിക്കുവാൻ അപേക്ഷിക്കുകയും ചെയ്യുന്ന ബസവണ്ണ അങ്ങനെ മലയാളത്തിന്റേതുകൂടിയായിത്തീരുന്നു. ആന-തോട്ടി, മാമല-മിന്നൽ, കൂരിരുട്ടു്-കൊച്ചുവിളക്കു്, ശിവൻ-മർത്ത്യഹൃദയം എന്നീ വലിപ്പച്ചെറുപ്പങ്ങളെപ്പറ്റി ഉത്കണ്ഠപ്പെടുന്ന ആദ്യവചനംതന്നെ അങ്ങനെയൊരനുഭവമായിത്തീരുന്നുണ്ടു്.
‘അടുപ്പു കത്തുമ്പോൾ
അടുത്തുനിന്നിടാം
ഉലകം കത്തുമ്പോൾ
എവിടെപ്പോകും നാം’
എന്നിങ്ങനെ മലയാളത്തിന്റെ കാവ്യഭാഷയോടു് വചനങ്ങൾ ഇണങ്ങിച്ചേരുന്നതു് എത്ര സ്വാഭാവികമായാണു്!
‘ജീവിച്ചിരിപ്പവൻ
ആഹാരം ചോദിച്ചാൽ
‘പോ പുറത്തെ’ന്നു പറയും
മൂകം ശിവലിംഗം
കാണുകിൽ ചങ്ങാതി,
‘ചോറു നല്കെ’ന്നു കല്പിക്കും’
എന്നിങ്ങനെ ഭക്തിയും ജീവിതവും യഥാർത്ഥജ്ഞാനവും തമ്മിലുള്ള പൊരുത്തക്കേടുകളെ സംബോധന ചെയ്യുന്ന വചനങ്ങൾക്കു് മൊഴിമാറ്റത്തിലും അതേ മിഴിവുണ്ടു്.
‘ചന്ദ്രോദയം:
വേലിയേറ്റം കടലിനു്.
ചന്ദ്രക്ഷയം:
കടൽ വേലിയിറക്കമായ്’
എന്ന ദൃഢമായ കൃത്യതയുടെ ഭാഷയും
‘പക്ഷിയെ കൂട്ടിലടച്ചൂ,
എണ്ണ വിളക്കിൽ നിറച്ചൂ,
എണ്ണത്തിരിയും തെറുത്തൂ,
ഇപ്പോഴവൻ വരുമമ്മേ’
എന്ന ലളിതമായ ബാലകവിതയുടെ മട്ടും
‘പോയ് വ്യഭിചരിക്കാൻ ഞാൻ
കള്ളനാണയം കിട്ടീ,
പോയ് മതിലിനു പിന്നിൽ
തേളുകളെന്നെക്കുത്തീ’
എന്ന പരുക്കൻ ജീവിതാവിഷ്കാരവും
‘ദളിതന്റെ തെരുവിനും
ശിവമന്ദിരത്തിനും
ഈ ഭൂമിയൊരുപോലെ’
എന്ന ദൃഢപ്രസ്താവവും ഒരേ നിറവോടെ, ഏറെ തിളക്കത്തോടെ മലയാളത്തിലും വന്നു് ഈ മൊഴിമാറ്റങ്ങളെ ജീവസ്സുറ്റതാക്കുന്നു.
ഇവിടെ ഉദാഹരിച്ച ഭാഗങ്ങൾക്കുതന്നെയുള്ള രൂപപരമായ വൈവിധ്യവും അതിനു് ഉള്ളടക്കവുമായുള്ള ചേർച്ചയും വ്യക്തമാണു്.
‘അവരെക്കാണുക:
നീരിൻ പോളയെ രക്ഷിക്കാനായ്
കാരിരുമ്പിൻ കൂടുണ്ടാക്കും പാവങ്ങൾ’
എന്നതു പോലെ പദ്യ-ഗദ്യതാളങ്ങൾ വേർതിരിക്കാനാവാത്ത വിധം ഇണചേർന്ന വരികളും,
‘വേഗം പോട്ടെ വേഗം ഊം ഊം
ഇഷ്ടംപോലെ നടക്കട്ടെ ഊം’
എന്നിങ്ങനെ മൂളൽ പോലും അതിന്റെ കവിതാപരമായ ധർമ്മം നിർവഹിക്കുന്ന ഭാഗങ്ങളും ഈ വിവർത്തനങ്ങളിൽ കാണാം.
‘താളമറിയില്ലെനി, ക്കറിയില്ല വൃത്തം
വീണയുടെ, ചെണ്ടയുടെ താളക്കണക്കും’
എന്നു പറഞ്ഞു്, സ്നേഹത്തിന്റെ താളത്തിൽ ഗാനം പാടുന്ന വചനകവിയെ ഇങ്ങനെതന്നെയാണല്ലോ പുനരാവിഷ്കരിക്കേണ്ടതു്!
‘കാലുകൾ നൃത്തം ചെയ്യും
കണ്ണുകൾ കാണും
നാവോ പാടും’
എന്നിങ്ങനെ അതതു് ഇന്ദ്രിയങ്ങൾ സ്വയം പ്രവർത്തിക്കുന്നതുപോലെ സ്വാഭാവികമാവുന്നുണ്ടതു്.
നമ്മുടെ മുന്നിൽത്തന്നെയുള്ള ഈ വചനങ്ങളെപ്പറ്റി ഞാൻ വാചാലനാവുന്നില്ല. സായാഹ്ന ഫൗണ്ടേഷൻ കവിതകൾക്കിണങ്ങുംവിധം സുന്ദരമായാണു് ഈ പുസ്തകം തയ്യാറാക്കിയിരിക്കുന്നതു്. എൻ. ഭട്ടതിരിയുടെ കലിഗ്രാഫി ഇതിനു് അഴകും മിഴിവും കൂട്ടുന്നു. ഇതിനെല്ലാം കവിയോടും പ്രസാധകരോടും മലയാളം കടപ്പെട്ടിരിക്കുന്നു. അത്രയെങ്കിലും പറയാതിരിക്കാൻ വയ്യ.
‘മുറിനാവു് ’ എന്ന നോവൽ എഴുതുന്ന കാലത്തു് അതിലെ ഒരു പ്രധാനകഥാപാത്രമായ ഗൊഗ്ഗവ്വയോടൊപ്പം കന്നഡ മൊഴികളിലൂടെ സഞ്ചരിച്ചതിന്റെ ഓർമ്മ; ഒപ്പം ബസവണ്ണ ബാല്യകാലം ചെലവിട്ട കൂടലസംഗമത്തിലൂടെ, അദ്ദേഹം സ്വപ്നഭൂമിയാക്കിയെങ്കിലും ഇന്നൊരു പാവം ഗ്രാമമായി അവശേഷിക്കുന്ന കല്യാണയിലൂടെ, അവിടുത്തെ കോട്ടയിലൂടെ, അനുഭവമണ്ഡപത്തിലൂടെ, അക്ക മഹാദേവിയും അല്ലമ പ്രഭുവും അന്ത്യകാലം ചെലവഴിച്ച ശ്രീശൈലത്തിലൂടെ, മല്ലികാർജ്ജുനന്റെ സവിധത്തിലൂടെ നേരിട്ടു യാത്ര ചെയ്ത അനുഭവം; എന്നെ തെളിച്ചെടുത്ത ആ വൈകാരികതകളെ ഒന്നുകൂടി ഗാഢമാക്കിയ ഈ മൊഴിമാറ്റത്തെ ഞാൻ ഉള്ളിനോടു ചേർത്തുപിടിക്കുന്നു.
“സ്നേഹകാരുണ്യങ്ങളില്ലാതൊക്കുമോ വിശ്വാസിയാവുകാൻ.”
ബസവണ്ണനെ സായാഹ്നയിലെത്തിച്ച എല്ലാവർക്കും നന്ദി.
തെല്ലതിൻ സ്പർശമില്ലാതെ
ഇല്ല വിവർത്തനമൊന്നുമേ.
(സെപ്റ്റംബർ 20 മുതൽ 26 വരെ ലഭിച്ച പ്രതികരണങ്ങളാണു് ഈ ലക്കത്തിലുള്ളതു്).

(സെപ്റ്റംബർ 27 മുതൽ ഒൿടോബർ 3 വരെ ലഭിച്ച പ്രതികരണങ്ങളാണു് ഈ ലക്കത്തിലുള്ളതു്).

“ബയ്ലോട്ടു് പോലാ,ണേ
ബൗതീറ്റു് ബീണ്വോകും
എടത്തോട്ടു് പോലാ,ണേ
എരടീറ്റു് ബീണ്വോകും
ബലത്തോട്ടു് പോലാ,ണേ
ബയിതെറ്റി കൊയഞ്ഞോകും
സീതന്നെ പോയ്ക്കോണേ
സീതേനപ്പോലെ നീർന്നോണേ.

കാസർഗോഡിന്റെ തനതു വാമൊഴി സൃഷ്ടിക്കുന്ന അതിശക്തമായ പരിസ്ഥിതി രാഷ്ട്രീയം ഈ കഥയെ കാലാതീതമാക്കും.
നന്ദി സായാഹ്ന! ഈ പകലിനു്…
(ഒൿടോബർ 4 മുതൽ 10 വരെ ലഭിച്ച പ്രതികരണങ്ങളാണു് ഈ ലക്കത്തിലുള്ളതു്).

(ഒൿടോബർ 11 മുതൽ 17 വരെ ലഭിച്ച പ്രതികരണങ്ങളാണു് ഈ ലക്കത്തിലുള്ളതു്).

കന്നഡഗ്രാമങ്ങളിലെ ‘സാധു’ക്കളിൽ നിന്നു് വാമൊഴിയായി കേട്ട വചനധാരകൾ ഹൃദയനാളങ്ങളിൽ സൃഷ്ടിച്ച മുഴക്കങ്ങളാണു് ഈ പരിഭാഷായത്നത്തിനു് വഴിയും ശ്രുതിയും ഇട്ടതെന്നു് വിനയ പറയുന്നു. കന്നഡയിലെ മൂലഗ്രന്ഥങ്ങളും ആംഗല പരിഭാഷകളും സംശോധനചെയ്തു്, വചനസത്യങ്ങളെ മനനം ചെയ്തു്, പത്തുകൊല്ലത്തോളം തുടർന്നുപോന്ന ഒരു തപശ്ചര്യയുടെ ഫലമാണു് ഈ വചനങ്ങളെന്നതു് വിനയയുടെ മൊഴിമാറ്റത്തെ ഈടുറ്റതാക്കുന്നു.
കന്നഡവാണിയുടെയും വചനങ്ങളുടെയും വ്യത്യസ്ഥതകളെ, മലയാളഭാഷയിലും ഈണതാളങ്ങളിലും മുക്കിക്കളയുവാനല്ല, മറിച്ചു് ഈ വ്യത്യസ്ഥതകളെ അങ്കനം ചെയ്യുവാനാണു് പരിഭാഷകൻ ശ്രമിക്കുന്നതു് എന്നതും ശ്രദ്ധേയമാണു്. വായനാ സുഖത്തെക്കാൾ മൂലകൃതിയോടുള്ള വിശ്വസ്തതയ്ക്കാണു് താൻ പ്രാധാന്യം നൽകിയതെന്നു് തന്റെ ഇംഗ്ലീഷ് പരിഭാഷയുടെ ആമുഖത്തിൽ അദേഹം പറയുന്നതു് ഇവിടെയും പ്രസക്തമാണു്.
ലതാമങ്കേഷ്ക്കറുടെ മീരാഭജനം പോലെയോ, അരങ്ങുകവികൾക്കു് തൊണ്ടപൊട്ടിപ്പാടാൻ പാകത്തിലുള്ള വായ്ത്താരികളായോ അക്കാവചനങ്ങളെ, ഈണപ്പെടുത്തി, മയപ്പെടുത്തി, പൈങ്കിളീകരിക്കുവാൻ തയാറല്ല എന്നതാണു് ഈ പരിഭാഷയുടെ മേന്മ. അക്കാദേവിയുടെ പരുപരുത്ത, മെരുങ്ങാത്ത, ഇണങ്ങാത്ത, ഒതുങ്ങാത്ത, അടങ്ങാത്ത, വചനങ്ങളോടു് നീതികാട്ടുവാൻ പരിഭാഷകൻ പരമാവധിശ്രമിക്കുന്നു. അക്കാവചനങ്ങളുടെ കടുപ്പവും കയ്പ്പും ചവർപ്പും എരിവും പുളിയും രൗദ്രമധുരവും നഷ്ടപ്പെടാതെ, അനന്യതയെ ഹനിക്കാതെ, പകർന്നു നൽകുവാനുള്ള ഈ ധീരശ്രമം തികച്ചും അഭിനന്ദനാർഹമാണു്. കന്നഡയും മലയാളവും തമ്മിലുള്ള സമാനതകളാണു് ഈ പരിഭാഷയെ കൂടുതൽ വിഷമകരമാക്കിയതെന്നദ്ദേഹം പറയുന്നു. സമാനതകൾക്കല്ല, വ്യത്യസ്ഥതയ്ക്കാണു്, പരിചിതത്വത്തിനല്ല, അപരിചിതത്വത്തിനാണു്, ഈ പരിഭാഷ പ്രാധാന്യം കൊടുക്കുന്നതെന്നു് സാരം.
മീരാഭജനങ്ങളുടെ വൈഷ്ണവമാധുര്യമല്ല വീരശൈവത്തിന്റെ, വീരസ്ത്രൈണത്തിന്റെ, രൗദ്രസൗന്ദര്യമാണു് അക്കാവചനങ്ങളെ അനന്യമാക്കുന്നതു്. മെരുങ്ങാത്ത പെൺവചനങ്ങളുടെ പരുക്കൻ സ്വഭാവത്തെ അതേപടി നിലനിർത്തുന്നുണ്ടു് ഈ പരിഭാഷ. ഒരുദാഹരണം:
എടീ തായേ, നീയവിടെയിരി,
എടോ തന്തേ, നീയവിടെയിരി,
എടോ ബന്ധുവേ, നീയവിടെയിരി,
എടോ കുലമേ, നീയവിടെയിരി,
എടോ ബലമേ നീയവിടെയിരി,
ചന്നമല്ലികാർജുനനോടു ചേരുവാൻ
തിടുക്കപ്പെട്ടു പോകുന്നേൻ,
നിങ്ങൾക്കു ശരണം, ശരണം.
(244)
അടങ്ങിയൊതുങ്ങി വഴങ്ങിക്കഴിയുന്ന അബലാത്വമല്ല, മനോരഞ്ജകമായ ‘കുലീന’വനിതാത്വമല്ല, കൂലം കുത്തി ഇരമ്പിയൊഴുകുന്ന വീരസ്ത്രൈണമാണു് അക്കാവചനങ്ങളെ അനന്യമാക്കുന്നതു്. നൂറ്റാണ്ടുകൾക്കു് മുമ്പു്, പുരുഷാധിപത്യം കൊടുമ്പിരിക്കൊള്ളുന്ന കാലങ്ങളിൽ, വിവസ്ത്രയും നഗ്നയുമായി നടന്ന അക്കാദേവി ഇപ്പോഴും നമുക്കൂഹിക്കുവാൻ കഴിയാത്ത ഒരു സ്ത്രൈണമുന്നേറ്റത്തെ, പുരുഷാധിപത്യ സമൂഹത്തെ കിടിലം കൊള്ളിക്കുന്ന രൂക്ഷ സമരത്തെയാണു് ആവിഷ്ക്കരിക്കുന്നതെന്നു് ഈ ധീരവചനങ്ങൾ തെളിയിക്കുന്നു. ദിഗംബരത്വം എന്നതു് നഗ്നതാപ്രദർശനമല്ലെന്നും, പുരുഷമൂല്യങ്ങളുടെയും, സദാചാര ധർമ്മസംഹിതകളുടെയും, ആധിപത്യങ്ങളുടെയും, ഉച്ചനീചത്വങ്ങളുടെയും തുണിയുരിക്കുന്ന, മറയറുക്കുന്ന, വിപ്ലവകരമായ ഒരു രാഷ്ട്രീയപ്രയോഗമാണെന്നു് ഈ വചനങ്ങൾ സാക്ഷ്യപ്പെടുത്തുന്നു. അക്ക ചൊല്ലുന്നു:
ദിഗംബരി ആയാലെന്തു? അയ്യാ
മനം നഗ്നമായിരിക്കണം.
സ്വാതന്ത്ര്യസമരത്തിന്റെ സൂക്ഷ്മ തീക്ഷ്ണവും ആത്യന്തികവുമായ രൂപമാണു് അപാരവുമായുള്ള വേഴ്ചയും സംവാദവുമെന്നു് അക്കാവചനങ്ങൾ നമ്മെ ഒരിക്കൽ കൂടി ഉണർത്തുന്നു. ശക്തീസംയുക്തമായ, ഭാവാവിഷ്ടമായ, ‘പരമ അനന്തം’, ‘അപാരം’, ആണു് മുല്ലപ്പൂക്കളാൽ ആഛന്നനായ അക്കയുടെ ശിവൻ. അപാരവുമായുള്ള ഈ സ്വയംവര മുഹൂർത്തങ്ങളെ അക്കാവചനങ്ങൾ രേഖപ്പെടുത്തുന്നതു് ശ്രദ്ധിക്കുക:
ജലത്തിൻ മണ്ഡപത്തിന്മേൽ
എരിതീയിൻ പന്തലിട്ടു്
ആലിപ്പഴമെത്തവിരിച്ചു്, പട്ടവും കെട്ടി
കാലില്ലാത്ത പെണ്ണിനെ
തലയില്ലാത്ത ചെക്കൻ വന്നു
കല്യാണം ചെയ്തു.
എന്നെന്നും വിടാത്ത
വാഴ്‌വിനു കൊടുത്തെന്നെ,
ചന്നമല്ലികാർജുനൻ എന്ന കാന്തൻ
എന്നെ കല്യാണം കഴിച്ചമ്മാ.
(54)
‘പരമാനന്തവു’മായുള്ള ഐഹികമായ സംയോഗം എന്ന ആദ്ധ്യാത്മിക അനുഭവത്തെ, യൗഗികക്രിയയെയാണു് ഈ വിചിത്രവേളീരംഗം നഗ്നമായ നാട്ടുമൊഴികളിൽ നിവേദനം ചെയ്യുന്നതു്. പ്രബുദ്ധമായ പെണ്മയുടെ രൗദ്രമൊഴികൾ പച്ചമലയാളത്തിലാക്കിയ വിനയചൈതന്യയ്ക്കു് അഭിവാദ്യങ്ങൾ!
ജാതി, പൌരോഹിത്യം തുടങ്ങിയ മർദ്ദക/ചൂഷണ സമ്പ്രദായങ്ങൾക്കെതിരായുള്ള ഒരു പ്രതിരോധമായിട്ടാണു് വീരശൈവ പ്രസ്ഥാനം ഉയിർകൊള്ളുന്നതു്. ആണധികാരത്തെ കൊണ്ടാടുന്ന ബ്രാഹ്മണിക്കൽ വിശ്വാസങ്ങളെയും നീതിശാസ്ത്രങ്ങളെയും ഉല്ലംഘിക്കുകയാണു് വീരശൈവ വചന കാവ്യങ്ങൾ.
അക്കമഹാദേവിയുടെ വചനങ്ങൾ എത്രമാത്രം ഒതുക്കിയെഴുതപ്പെട്ടതാണെന്നു് ആമുഖമായി ചേർത്തിട്ടുള്ള ചന്നബസവണ്ണന്റെ ഒരു വചനത്തിൽ കാണാം.
“ആദ്യരുടെ അറുപതുവചനത്തിനു്
ദണ്ണായകരുടെ ഇരുപതുവചനം!
ദണ്ണായകരുടെ ഇരുപതുവചനത്തിനു്
പ്രഭുദേവരുടെ പത്തുവചനം!
പ്രഭുദേവരുടെ പത്തുവചനത്തിനു്
അജഗണ്ണന്റെ അഞ്ചുവചനം!
അജഗണ്ണന്റെ അഞ്ചുവചനത്തിനു്
കൂടലചന്നസംഗയ്യനിൽ
മഹാദേവിയക്കഗളുടെ ഒരു
വചനം നിർവ്വചനം,
കാണൂ സിദ്ധരാമയ്യാ”…
ലൌകിക ജീവിതത്തിന്റെ നിസ്സാരതയും നിസ്സഹായതയും വെളിവാക്കുന്ന വചനങ്ങൾ മുതൽ ദാർശനിക ആഴങ്ങളടങ്ങുന്ന വചനങ്ങൾ വരെ അക്കമഹാദേവിയുടെ രചനകൾക്കു് വലിയ വൈവിദ്ധ്യം.
വെന്ത സംസാരം വിടാതെ
പീഡിപ്പിക്കുന്നയ്യാ,
എന്തെന്തു് ചെയ്യുമേൻ അയ്യാ?
(22)
‘സംസാരമെന്ന പകയാണയ്യാ
എന്റെ തന്ത,
എന്റെ വംശക്കാർ എങ്ങും വിടാതെ
തെരക്കി വരുന്നുണ്ടയ്യാ,
എന്നെ തെരഞ്ഞുതെരഞ്ഞു്
പിടിച്ചുകൊല്ലുന്നയ്യാ,…’
(23)
‘ഞാൻ പിറന്നപ്പോൾ സംസാരം പിറന്നു,
സംസാരം പിറന്നപ്പോൾ
അജ്ഞാനം പിറന്നു,
അജ്ഞാനം പിറന്നപ്പോൾ ആശ പിറന്നു,
ആശ പിറന്നപ്പോൾ കോപം പിറന്നു,…’
(25)
എന്നിങ്ങനെ ലൌകിക ദുഃഖ കാരണങ്ങളെ ഈ വചനങ്ങളിൽ കണ്ടെത്തുന്നു. വചനം 27-ൽ ‘സംസാരത്തിൻ പൊള്ളത്തരം വന്നാടിയല്ലോ’ എന്നും മൊത്തം വേഷപ്പകർച്ചകളെ ‘ജഗന്നാടക’മെന്നും വിശേഷിപ്പിച്ചുകൊണ്ടു് ലൌകികജീവിതത്തിന്റെ നിരാസമാണു് അഭികാമ്യമെന്ന തോന്നൽ ഉളവാക്കുന്നു.
അക്കമഹാദേവിയുടെ വചനങ്ങളിൽ പന്ത്രണ്ടാം നൂറ്റാണ്ടിലെ സ്ത്രീസ്വത്വ നിർമ്മിതി കാണാം. നഗ്നത ഇവിടെ അശ്ലീലമേയല്ല. ആധുനിക സ്ത്രീവിരുദ്ധ ഇന്ത്യൻ മനഃസാക്ഷിക്കു് ഇതു് സങ്കൽപ്പിക്കാൻ കഴിയുമോ?
നാണം മറയ്ക്കും നൂലു പൊട്ടിയാൽ
നാണിക്കുന്നവർ, നോക്കൂ,
ആൺപെണ്ണെന്ന ജാതികൾ.
പ്രാണത്തിനുടയോൻ ജഗത്തിൽ
മുങ്ങാൻ തരമില്ലാതിരിക്കുമ്പോൾ
ദേവന്റെ മുന്നിൽ നാണിക്കാൻ ഇടയുണ്ടോ?
ചന്നമല്ലികാർജുനൻ ജഗത്തെല്ലാം
കണ്ണായി നോക്കിയിരിക്കവേ
മൂടിമറയ്ക്കുന്നിടം ഏതു്, ചൊല്ലയ്യാ!
(149)
ധാർമ്മികതയും അധാർമ്മികതയും തമ്മിലുള്ള വൈരുദ്ധ്യങ്ങളെ അക്കമഹാദേവി വിവരിയ്ക്കുന്നതിങ്ങനെ:
‘ഉള്ളിലെ ഭർത്താവു്, പുറത്തെ ജാരൻ.
രണ്ടുംകൂടി നടത്താനാവില്ലയ്യാ.
ലൗകിക പരമാർത്ഥങ്ങൾ
രണ്ടുംകൂടി നടത്താനാവില്ല,
ചന്നമല്ലികാർജുനയ്യാ…’
(150)
പശി, കാമം, ക്രോധം, മത്സരം എന്നിവയെല്ലാം നിൽക്കട്ടെ എന്നു് മറ്റൊരു വചനത്തിൽ (155). മരത്തിനു ഫലം വേണമെന്നും ധനത്തിനൊപ്പം ദയവേണമെന്നും രൂപത്തിനു ഗുണം വേണമെന്നും അല്ലെങ്കിൽ അവയെല്ലാം നിഷ്ഫലമാണെന്നും പറയുന്ന കവി ചന്നമല്ലീശ്വരന്റെ ജ്ഞാനമില്ലായിടത്തോളം താനിരുന്നിട്ടു് ഫലമെന്തെന്നു കൂടി സന്ദേഹിക്കുന്നു. ഭക്തിയെന്നാൽ അറിവാണെന്നും അറിവാണു് യഥാർത്ഥ ഭക്തിയെന്നും അന്തമില്ലാത്ത ഭക്തി കാപട്യമാണെന്നുമുള്ള നിരീക്ഷണം എക്കാലത്തും പ്രസക്തം (203, 204, 205).
അക്കമഹാദേവിയുടെ വചനങ്ങളുടെ പൊരുളും സ്വരവും പിഴയ്ക്കാതെയുള്ള മൊഴിമാറ്റം ദുർഘടമാണു്. കന്നഡയിൽ നിന്നു് ഈ വചനമലയാളം ജപിച്ചു തന്ന വിനയചൈതന്യക്കു് അഭിവാദ്യങ്ങൾ, സായാഹ്നയ്ക്കും.

(ഒൿടോബർ 18 മുതൽ 24 വരെ ലഭിച്ച പ്രതികരണങ്ങളാണു് ഈ ലക്കത്തിലുള്ളതു്).

ആദിയിൽ വചനമുണ്ടായി
വചനം രചനയായി
പടച്ചോനും പടപ്പുകളുമായി
അക്കയും അണ്ണനും വെളിവുകളുമായി
വെളിവുകൾ വളർന്നു്
ഏകഭാഷാബാബേലാകെ
വചനദൈവങ്ങൾ ഇടഞ്ഞു.
ദിവ്യബോംബായി ഭാഷ തകർത്തു.
ചിതറിത്തെറിച്ച പൊരുൾത്തുണ്ടുകൾ
ഭാഷാരാജ്യങ്ങളും ഭാഷാഗോത്രങ്ങളുമായി.
ഒരുമ വീണ്ടെടുക്കാൻ വിവർത്തകർ വന്നു,
വചനങ്ങളിൽ അഴിച്ചുപണി തുടങ്ങി.
ദൈവങ്ങളേ ഇടയരുതേ
വിവർത്തനബാബേൽ തകർക്കരുതേ.

‘ദൈവങ്ങളേ ഇടയരുതേ
വിവർത്തനബാബേൽ തകർക്കരുതേ.’
വചനകവിതകളുടെ പുതു വായനകളിൽ അസ്വസ്ഥരായ ദൈവങ്ങളോടു് ‘പ്രാർത്ഥിക്കുന്നെങ്കിൽ ഇങ്ങനെ’ വേണം. കെ. ജി. എസ്സിന്റെ കുറിപ്പു് സമഗ്രം, കാവ്യാത്മകം.
ഉള്ളവരു ശിവാലയ മാഡു വരു
നാനേന മാഡലി ബഡവനയ്യാ
എന്ന കാലേ കംബ ദേഹവേ ദേഗുല
ശിരവേ ഹൊന്ന കലശമയ്യാ
സ്ഥാവരക്കളിവുംടു ജംഗമക്കളിവില്ലെ
കൂടലസംഗമദേവാ കേളയ്യാ
ഉള്ളവർ ശിവാലയം പണിയും
ഞാനെന്തു ചെയ്യാൻ ദരിദ്രനയ്യാ
എന്റെ കാലേ തൂണു് ഉടലേ കോവിൽ
ശിരസ്സേ പൊന്നിൻ കലശമയ്യാ
സ്ഥാവരത്തിനഴിവുണ്ടു് ജംഗമത്തിനഴിവില്ല
കൂടലസംഗമദേവാ കേൾക്കയ്യാ
(ഒൿടോബർ 25 മുതൽ 31 വരെ ലഭിച്ച പ്രതികരണങ്ങളാണു് ഈ ലക്കത്തിലുള്ളതു്).

സൗന്ദര്യത്തിലേക്കു്
എത്രയെത്ര ലിപികൾ.

ശർവാനാഥൻ ഉരുവി സൃഷ്ടി ചെയ്യും മുന്നാമേ
ദിവ്യ രൂപമായി നിർമിച്ച മാതൃ മരിയെ.
ആനന്ദ ഭൈരവി രാഗത്തിൽ ആണു് പാടിയിരുന്നതു്.
ഫോണ്ടുകളുടെ പ്രശ്നം പറഞ്ഞാൽ ഞങ്ങളുടെ കാലത്തു കൈയ്യെഴുത്തു വിദ്യാർത്ഥികൾക്കു പരീക്ഷണത്തിന്റെ ഒരു വിള നിലമായിരുന്നു. ഇതാണു് ഞങ്ങൾ ചെയുന്നതെന്നു ആരും പറഞ്ഞു തരുവാൻ ഉണ്ടായിരുന്നില്ല. കാലിഗ്രാഫിക് കല മലയാളത്തെ മോഡി പിടിപ്പിക്കട്ടെ. അതു പോലെ തന്നെ ഒരു കലാരൂപം എന്നു് അംഗീകരിച്ചു പ്രഥമ സ്ഥാനം കൊടുക്കട്ടെ.
“ആരാണെഴുത്തച്ഛൻ? എന്റെ ഭാഷാപിതാ-
വദ്ദേഹമാണെന്നു സാക്ഷരതാക്ലാസ്സി-
ലദ്ധ്യാപകൻ തീർച്ച ചൊന്നൂ-ക്ഷമിച്ചു ഞാൻ
അദ്ധ്യാത്മരാമായണമല്ലോ ജീവിതം!
ഉപ്പു നോക്കാൻ പോലുമാനന്ദമില്ലാത്തൊ-
രിപ്പാപി കൂലിക്കു പേശുന്ന ഭാഷയ്ക്കു-
മപ്പനുണ്ടെന്നു പറയുന്ന കോവിദാ,
അല്പത്തമിത്രയ്ക്കു് മൂത്താൽ ചിതം വരാ”
(കെ. ആർ. ടോണി, ഒരു പ്രതിസാഹിത്യവിചാരം).
ഭാഷാദ്ധ്യാപകനായ ടോണിക്കു് എഴുത്തച്ഛനോടു് അനാദരവുണ്ടാവില്ല. എന്നാലും ഭാഷയുടെ പെെതൃകത്തെപ്പറ്റി അദ്ദേഹം ഉന്നയിക്കുന്ന ചോദ്യത്തിലെ പരിഹാസം മൂർച്ചയുള്ളതാണു്. എഴുത്തച്ഛൻ ഭാഷയുടെ പിതാവാകുന്നതു് കവികൾക്കു മാത്രമാണു്. അതും ഇന്നു് ആരും നിസ്സംശയം പറയുമെന്നു തോന്നുന്നില്ല. മലയാളത്തിന്റെ തമിഴ് തായ് വഴിയെ പാർശ്വവൽക്കരിക്കുകയായിരുന്നു എഴുത്തച്ഛൻ എന്നൊരു ശക്തമായ പ്രതിപക്ഷവാദം ഇന്നു് സജീവമാണു്.
നമ്മുടെ വ്യവഹാരഭാഷയിൽ എഴുത്തച്ഛന്റെ സ്വാധീനം വളരെക്കുറവാണു്. ദക്ഷിണേന്ത്യൻ ഭാഷകളുടെ ഉടപ്പിറന്നവളാണു് നാം സംസാരിക്കുന്ന മലയാളം. നീയും ഞാനും നിങ്ങളും നമ്മളും അവനുമവളുമവരും ഉണ്ണുന്നതുമുറങ്ങുന്നതും എണ്ണുന്നതും കൂട്ടുന്നതും കിഴിക്കുന്നതും നാളു പക്കം നോക്കുന്നതും ചിരിക്കുന്നതും കരയുന്നതും വീടു വയ്ക്കുന്നതും കാടുകാട്ടുന്നതും കളി കാര്യമാക്കുന്നതും കൂലിക്കു് പേശുന്നതും, അടിച്ചുപൊളിക്കുന്നതും… അങ്ങനെയങ്ങനെ അന്തി മുതൽ മുന്തി വരെയും ഇരുട്ടിൽ തപ്പിത്തടഞ്ഞു വിളക്കു് കത്തിച്ചും ചെയ്യുന്നതിൽ പലതും എഴുത്തച്ഛനിൽ നിന്നു് കിട്ടിയതല്ല. കൊടുങ്ങല്ലൂർക്കളരിയിലെ തമ്പുരാക്കന്മാരും പണ്ഡിറ്റ് കറുപ്പനെപോലെ തമ്പുരാൻ പദവിയില്ലാത്തവരും ഒരു പക്ഷേ, എഴുത്തച്ഛനെക്കാൾ മലയാളി പേശുന്ന ഭാഷയെ പോഷിപ്പിച്ചവരാണു്.
വാമൊഴിയിലൂടെ പകർന്നു കിട്ടിയ കഥകളും വികാരവിചാരങ്ങളുമാണു് ജീവതു് ഭാഷയുടെ ഊർജം. കവിതകളും കഥകളും പിറക്കുന്നതും ആ ഭാഷയിൽനിന്നാണു്.
‘നിന്നോടെതിരോരു നൂറുനൂറായിരം
രജനിചരകുലപതികളായ് ഞെളിഞ്ഞുള്ളോരു
രാവണന്മാരെതിർത്താലുമനാകുലം
നിയതുമതു മമ ചെറുവിരൽക്കുപോരാ…’
എന്ന ഹനുമാന്റെ പരിഹാസത്തിലെ ‘നൂറുനൂറായിര’വും ‘ഞെളിഞ്ഞിരി’ക്കലും ‘ചെറുവിര’ലും എഴുത്തച്ഛനു് കിട്ടിയതു് ജനസാമാന്യത്തിന്റെ ഭാഷയിൽനിന്നാണു്.
അങ്ങനെ പറയുമ്പോൾ വാമൊഴിയെ പോഷിപ്പിച്ചവരാവണം ശരിക്കും ഭാഷയുടെ പിതാക്കൾ. (ഭാഷയ്ക്കു് പിതാവല്ല, പിതാക്കളാണുള്ളതു്). ചന്തുമേനോനിൽ നിന്നോ, സി വിയിൽ നിന്നോ, ഗുണ്ടർട്ടിൽ നിന്നോ, ഭാഷാനാടകങ്ങളിൽ നിന്നോ ഭാഷാപിതാക്കളുടെ പരമ്പര തുടങ്ങുന്നുവെന്നു് പറയുന്നതല്ലെ ശരി?
(നവംബർ 1 മുതൽ 7 വരെ ലഭിച്ച പ്രതികരണങ്ങളാണു് ഈ ലക്കത്തിലുള്ളതു്).

‘ഏതുകല്ലെങ്ങോട്ടെറിഞ്ഞതു
മെങ്കൽത്താൻ തുള
ച്ചേറിമാലിന്യങ്ങളെക്കഴുകും
നിണം ചോർത്തൂ.’
(വിശ്വഹൃദയം).
അതുപോലെ,
‘ആരുടെകാലിൽ തറക്കുന്ന മുള്ളുമെ
ന്നാത്മാവിനെ കുത്തി നോവിക്കും.’
(യാത്രയിൽ)
‘യയാതി’യിലും ഇതു കാണാം.
‘ആയിരം കണ്ണുതുടയ്ക്കുവാനുഴറുവോ
ർക്കാദിയെക്കാറില്ലുയർച്ച താഴ്ചകൾ’
ശ്രീ. നാരായണൻ പറയുന്നതുപോലെ ‘മാതൃത്വത്തിന്റെ അകളങ്കപ്പൂക്കൾ മാത്രം വിരിയിച്ച മുള്ളില്ലാത്ത ഒരു പനിനീർച്ചെടിയാക്കി അവരെ മലയാളി’ ലഘൂകരിച്ചുവോ? കാവ്യചർച്ചകളിൽ അവർ അദൃശ്യയാക്കപ്പെട്ടോ? ബാലമണിയമ്മ, കവിത എഴുതിയപ്പോഴെല്ലാം അതു് മാതൃഭൂമി ആഴ്ചപ്പതിപ്പിൽ ഒന്നാം പേജിലേ വന്നിരുന്നുള്ളൂ. കാവ്യചർച്ചകളിലെ കാര്യം ഈ ലേഖകനു പരിചയമില്ല. എന്നാൽ, ബാലാമണിയമ്മയെക്കുറിച്ചു് ഒട്ടനവധി ഗഹന പഠനങ്ങൾ കാലാകാലങ്ങളിൽ നടന്നിട്ടുണ്ടു്. ലീലാവതി ടീച്ചർ നടത്തിയ വിസ്തൃത പഠനം, കവികളായ അയ്യപ്പപണിക്കരും സച്ചിദാനന്ദനും ചരിത്രകാരൻ എം. ജി. എസ്സും ഉൾപ്പെടെ അനവധി പേരുടെ അഗാധ പഠനങ്ങൾ മറന്നു കൂടാ. അയ്യപ്പപണിക്കരുടെ ‘ദ ത്രീ വേൾഡ്സ് ഓഫ് ബാലാമണി അമ്മാസ് പോയട്രി’ പോലെ പല സൂക്ഷ്മ പഠനങ്ങൾ ഇംഗ്ലീഷിലും കണ്ടിട്ടുണ്ടു്. സാരം: മലയാളി സമൂഹം എന്നെന്നേ മഹിമ തിരിച്ചറിഞ്ഞ കവിതയാണു് ബാലാമണിയമ്മക്കവിത. എല്ലാ ബഹുമതികളും—പദ്മഭൂഷൺ, എഴുത്തച്ഛൻ പുരസ്കാരം, സാഹിത്യ അക്കാദമി പുരസ്കാരം, സരസ്വതിസമ്മാൻ… ബാലാമണിയമ്മയെ ആദരിച്ചിട്ടേയുള്ളൂ മലയാളം.
[1] https://en.wikipedia.org/wiki/Manhattan_Project.
[2] https://edwardsnowden.com/revelations/.
[3] https://blog.google/topics/ai/ai-principles/.
[4] https://www.ibm.com/blogs/policy/facial-recognition-sunset-racialjustice-reforms/.
[5] https://blog.aboutamazon.com/policy/weareimplementing-aone-yearmoratorium-on-police-use-of-rekognition.
[6] https://www.freecodecamp.org/news/the-code-im-still-ashamed-ofe4c021dff55e/.
[7] https://en.wikipedia.org/wiki/Algorithmic_bias, https://www.educative.io/blog/racial-bias-machine-learningalgorithms.
[8] https://ethics.acm.org/.
[9] https://www.dublincore.org/specifications/dublincore/usageguide/.

(നവംബർ 8 മുതൽ 14 വരെ ലഭിച്ച പ്രതികരണങ്ങളാണു് ഈ ലക്കത്തിലുള്ളതു്).
അവകാശങ്ങൾക്കും അഭിപ്രായങ്ങൾക്കും നീതിക്കും ചുറ്റും
വിളക്കെല്ലാം മറച്ചു നിവരുന്ന തടവറമതിലുകളും… ഇന്നു്
അങ്ങനെയുമൊരു നിശ്ചല ദീപാവലി ദൃശ്യവും.

പിറവിരഹസ്യ മെന്തുമാകട്ടെ,
അല്ലമാ, നിൻ
പറയലിൽ പാടുന്നു
പാടലിൽ പാറുന്നു
പ്രാണന്റെ ഈണം.

(നവംബർ 15 മുതൽ 21 വരെ ലഭിച്ച പ്രതികരണങ്ങളാണു് ഈ ലക്കത്തിലുള്ളതു്).

(നവംബർ 22 മുതൽ 28 വരെ ലഭിച്ച പ്രതികരണങ്ങളാണു് ഈ ലക്കത്തിലുള്ളതു്).

“പറയില്ല ഞാൻ പൂക്കൈതയെ സൂര്യനാക്കിയ
പഴയപോരാട്ടം പാഴായെന്നു്; വേദികളിൽ
ആളിക്കുന്നുണ്ടു് വിവേകികൾ
നേരം പോയ് നേരം പോയ് എന്ന
നീതിപ്പാട്ടിലെ തുല്യനീതിയുടെ
എതിർ ജ്യോതി”.

2-നീതിയ്ക്കായുള്ള ചെറുത്തു് നില്പിന്റെ രാഷ്ട്രീയത്തോടൊപ്പം ജീവിത പ്രതിജ്ഞാപകമായ ഒരു നൈതിക രാഷ്ട്രീയത്തെ ഈ കവിത ഉയർത്തിപ്പിടിക്കുന്നു. രാഷ്ട്രീയത്തിന്റെ നൈതികീകരണവും നീതിയുടെ (justice), നൈതികതയുടെ (ethics) രാഷ്ട്രീയവൽക്കരണവും. ചുരുക്കിപ്പറഞ്ഞാൽ നീതി (justice) ബോധത്തിൽ നിന്നു് നൈതിക രാഷ്ട്രീയത്തിലേക്കുള്ള (ethical politics) രൂപാന്തരണം (justice plus ethics) ആണു് ഈ കവിതയെ അനന്യമാക്കുന്നതു്.
3-ഇത്തരമൊരു രൂപാന്തരീകരണം സാധ്യമാക്കപ്പെടുന്നതു് ഫൂക്കോ പറയുന്ന ഒരു നൈതിക കർത്തൃത്വത്തിന്റെ നിർമ്മിതിയിലൂടെയാണു്. ഈ നവനൈതിക കർത്തൃത്വത്തെ കവിത നാമകരണം ചെയ്യുന്നു: “സംഭവൻ”. സംഭവൻ എന്നു് പേരു തന്നെ കർത്തൃത്വപരമായ ഒരു വിഛേദനത്തെ ഒരു രൂപാന്തരണത്തെയാണു് സൂചിപ്പിക്കുന്നതു്. ഈ സംഭവാത്മകതയെ പിടിച്ചെടുക്കാൻ സച്ചിദാനന്ദൻ പറയുന്ന ‘ആഗന്തുകൻ’ എന്ന സങ്കല്പനത്തിനു കഴിയുന്നില്ല. ഒരു സംഭവകർത്തൃത്വത്തിന്റെ (evental subjectivity) നിർമ്മിതിയെത്തന്നെയാണു് ഈ നാമകരണം സൂചിപ്പിക്കുന്നതു്. സംഭവത്തിൻ സന്തതി എന്ന നിലയിൽ, സംഭവത്തിന്റെ സ്രഷ്ടാവു് എന്ന നിലയിൽ, സംഭവത്തോടു് വിശ്വസ്ഥൻ എന്ന നിലയിൽ, സംഭവത്തിനായി കാതോർക്കുന്നവൻ എന്ന നിലയിൽ.
എന്റെ കുലം അയ്യങ്കാളിയുടെ
തല ശംബൂകന്റെ
കൈ ഏകലവ്യന്റെ
മനസ്സു് കബീറിന്റെ
സ്വപ്നം നെരൂദയുടെ
വെളിവു് നീതിവംശത്തിന്റെ”
ഈ സംഭവമാനത്തെ മനസ്സിലാക്കുന്നതിൽ മൂന്നു് ജ്ഞാനികളായ മാഷുമ്മാരെപ്പോലെത്തന്നെ നാട്ടുകാരും, സാംസ്ക്കാരിക റിപ്പോർട്ടർമാരും വിമർശകരും പരാജയപ്പെടുന്നതു്, ആനയെക്കണ്ട അന്ധന്മാരാവുന്നതു് സ്വാഭാവികമത്രെ. ചരിത്രത്തിൽ നിന്നു് വിഛേദിക്കുകയും ചരിത്ര നിയമങ്ങളെ തകർക്കുകയും ചെയ്തു് കൊണ്ടു് ചരിത്രത്തിനുള്ളിൽ തന്നെ സംഭവിക്കുന്ന രൂപാന്തരീകരണത്തിന്റെയും ആയിത്തീരലിന്റെയും പ്രക്രിയകളെത്തെയാണു് സംഭവം, എന്ന തത്വശാസ്ത്ര പരികല്പന സൂചിപ്പിക്കുന്നതു്.
ഈ കർത്തൃത്വ നിർമ്മിതിയുടെ രാഷ്ട്രീയമാനം കരുണാകരൻ പറയുന്ന ഏക ഹേതുവും ഏകമാനവുമായ രാഷ്ട്രീയ സങ്കല്പത്തിൽ നിന്നു് എത്രകണ്ടു് വ്യത്യസ്ഥമാണെന്നു് സൂചിപ്പിക്കുവാനാണു് ഇത്രയും പറഞ്ഞതു്. കവിതയെപ്പറ്റി ഈ സന്ദർഭത്തിൽ കൂടുതൽ പറയുന്നതു് കവിതാവായനയിൽ നിന്നു് ഭാവുകനെ തടയാനിടയാവുമെന്നതിനാൽ ഇവിടെ നിർത്തുന്നു. ‘പൂക്കൈത’യുടെ രചയിതാവായ കെ. ജി. എസ്സിനും, പൂക്കൈതയെ പഠനവിധേയമാക്കിയവർക്കും, ഇത്തരമൊരു ചർച്ച സാധ്യമാക്കിയ കരുണാകരനും സായാഹ്നയ്ക്കും അഭിവാദ്യങ്ങൾ.
“തകഴിയും മാന്തികക്കുതിരയും” എന്ന കവിത ഒരു ദുഃസ്വപ്നത്തോടെയാണു് തുടങ്ങുന്നതു്:
‘കൊയ്യാറായ വയൽ ആരോ കട്ടു് കൊയ്യുന്നെന്നു്
ദുഃസ്വപ്നം കണ്ടു് ഞെട്ടിയുണർന്നു, തകഴി.’
പാതിരാക്കുരകൾ ഉയരുന്നു.
‘ടോർച്ചും വടിയും നായ്ക്കുരകളുമായി
പാടത്തേക്കു് പായുമ്പോൾ’
തകഴിക്കു് സംശയം:
വള്ളക്കാരനെ വിളിച്ചുണർത്തണോ?
കാരണം, ഇതൊരു സ്വപ്നമല്ലേ?
‘വിശ്വസിക്കാമോ സ്വപ്നത്തെ?
വന്നറിയിച്ച ദുരന്തമല്ലല്ലോ; സ്വപ്നമല്ലേ?
സ്വപ്നം തന്നെ ഒരു വന്നറിയിക്കലല്ലേ?
അജ്ഞാതത്തിന്റെ സന്ദേശം?
ചരിത്രാതീത ഭാഷയിൽ മനസ്സെഴുതുന്ന
ഭാവിചരിത്രമല്ലേ സ്വപ്നം?’
അതോ അരാഷ്ട്രീയത ഉറങ്ങുമ്പോൾ
രാഷ്ട്രീയതയുടെ ഉൾവിളിയോ?
പല സ്വപ്നവും അലസിയ കഥകൾ.’
ഇത്തരത്തിൽ സ്വപ്നത്തിന്റെ ന്യായത്തിലേക്കും ഘടനാപരമായ സത്തയിലേക്കും ഉൾക്കാഴ്ചയിലേക്കും കവി നമ്മെ നയിക്കുന്നു.
ഉണർന്നിട്ടുണ്ടു് തകഴി പണ്ടും ദുഃസ്വപനങ്ങൾ കണ്ടു്. ഇവിടെ കവി, ഫ്രാൻസിസ് കാഫ്കയുടെ “മെറ്റമോർഫോസിസി’ലെ മുഖ്യകഥാപാത്രമായ ഗ്രിഗർ സാംസയെ അവതരിപ്പിക്കുന്നു. പിതാവിന്റെ കടബാധ്യത തീർക്കുന്നതിനായി തനിക്കൊട്ടും ഇഷ്ടമില്ലാത്ത ഒരു വില്പനക്കാരന്റെ തൊഴിൽ സ്വീകരിച്ച സാംസ ഒരു നാൾ ഉറങ്ങിയെണീക്കുമ്പോൾ ഒരു ഭീമൻകീടമായി രൂപാന്തരപ്പെട്ടിരിക്കുന്നു. പക്ഷേ, തകഴി സ്വപ്നം കണ്ടുണരുന്നതൊക്കെയും കൂടുതൽ തകഴിയായി.
ദുഃസ്വപ്നം കണ്ടുണർന്ന തകഴിക്കു് കാണാതെ വയ്യ തന്റെ കൊയ്യാറായ വയൽ. ആഴത്തിൽ മറ്റൊരു സൂക്ഷ്മശങ്ക:
‘വയലെനിക്കയച്ച വിപൽദൂതല്ല
ഈ പേക്കിനാവെന്നാരു കണ്ടു?’
മറ്റുള്ളവരുടെ സ്വപ്നം താൻ വിശ്വസിച്ചിരുന്നു. മാർക്സ്, ലെനിൻ, ടോൾസ്റ്റോയ്, ഗോർക്കി, ബത്സാക്ക്, കേസരി, മോപ്പ്സാങ്, തകഴിയുടെ ഭാര്യ കാത്ത, കാരൂർ, ഫ്ലാബേർ, ബഷീർ, തുടങ്ങിയവരുടെ. വിവിധം, വിപുലം തകഴിയുടെ സ്വപ്നചരിത്രം. ‘രണ്ടല്ലായിരുന്നു അവർക്കെന്നപോലെ തനിക്കും സ്വപനവും ദർശനവും.’
പാതിരയ്ക്കു് തകഴി വയലിലെത്തുന്നു. കവിത സർറിയലിസ്റ്റ് മായികതയിലും. വയലിൽ നിറഞ്ഞു നിൽക്കുന്നതൊരു അസാധ്യത! പണ്ടേ മരിച്ച തകഴിയുടെ വിതക്കാരൻ, കണ്ടൻ മൂപ്പൻ. കണ്ടൻ മൂപ്പനെ കവി വിശേഷിപ്പിക്കുന്നതു് ‘കൃഷിയുടെ ഋഷി’ എന്നാണു്. ‘ചൂണ്ടുവിരലും തള്ളവിരലും ചേർന്നൊരുക്കുന്ന വിത്തുവാതിൽ’ തുറന്നുയരുന്ന വിത്തുകൾ കൃഷിപ്പാട്ടിലെ വാക്കുകൾ പോലെ കാൽ നിമിഷം വായുവിൽ തങ്ങുന്നു. വയൽക്കുളിരിൽ തനിക്കനുവദിക്കപ്പെടുന്ന കുളിരിടം കാണുന്നു. ജീവിതം അവിടെ നടുന്നു. ‘കണ്ടു കഴിഞ്ഞും കണ്ണിൽ തുടരുന്ന കണ്ടൻ മൂപ്പന്റെ ‘കൈയുടെ മാസ്മര വിതനടനം ചടുലമായ ഭാവമുദ്രകളിലൂടെ കെ. ജി. എസ്. മനോഹരമാക്കുന്നു.
തകഴിയോടു് കണ്ടൻ മൂപ്പൻ:
‘പാടത്തെന്തോ പതിവുകേടു്
തോന്നി വക്കീൽ സാറെ;
നോക്കുമ്പോൾ കുഞ്ചിനിലാവു് കുലുക്കിമേയുന്നു
കണ്ടത്തിലൊരു പരദേശി മാന്ത്രികക്കുതിര.
മൂന്നാൾ പൊക്കം, തൂവെള്ള, തീനാവു്…
ഒറ്റയ്ക്കൊരു സൈന്യം. അല്ല,
ആ ചതിക്കുതിരയിൽ നിന്നു്
ലോകത്തേക്കിറങ്ങി മാരകമൊരു
സൈന്യപ്പാതിര. അതു്
മേഞ്ഞിടം തരിശ്.’
സർറിയലിസ്റ്റ് സാധ്യതയിൽത്തന്നെ കവിത വളരുന്നു. കെ. ജി. എസ്. സമർത്ഥമായി ഉപയോഗിക്കാറുള്ള ‘അല്യൂഷൻ’ ഇവിടെയും കാണാം. ഇതിഹാസപുരാവൃത്തസ്മൃതി. ഈ കവിതയിലെ മാന്ത്രികക്കുതിര ഗ്രീക്ക് മിത്തോളജിയിലെ ട്രോജൻകുതിരയുടെ പുതുജന്മം. രണ്ടിലുമുണ്ടു് ഒളിഞ്ഞിരിക്കുന്ന ചതി. മാന്ത്രികക്കുതിരയുടെ വെള്ള നിറം വയൽ നിലാവിൽ കുതിരബിംബത്തിന്റെ മാന്ത്രിക പരിവേഷം പൂർണ്ണമാക്കുന്നു. മൂന്നാൾ പൊക്കം. തീനാവു്. സംഹാരിയുടെ ബീഭത്സ രൂപം.
നമ്മുടെ കൃഷിയെ, വ്യാപാരത്തെ എന്തിനു് നയരൂപീകരണത്തെ തന്നെ നിയന്ത്രിക്കുന്നതു് വേൾഡ് ട്രേഡ് ഓർഗനൈസേഷൻ പോലേയുള്ള ആഗോള ഭീമന്മാർക്കുള്ളിലെ ഹിംസാകാരം. വിത്തുകൾ പോലും ആഗോള കുത്തകകൾ കൈയ്യടക്കിത്തുടങ്ങി. സബ്സിഡി ഉൾപ്പെടെ കർഷകരുടെ ആനുകൂല്യങ്ങളെല്ലാം പിൻവലിക്കാൻ സർക്കാരുകൾ നിർബന്ധിതമായി. കരിനിയമങ്ങൾ നിർമ്മിക്കപ്പെടുന്നു. എല്ലാം അന്തർദേശീയ സമ്മർദ്ദങ്ങളിൽ. ഭീഷണമായ ഈ സന്ദർഭത്തിൽ, ‘മാന്ത്രികക്കുതിര’ നിസ്സംശയമായും നമ്മെ കൊള്ളയടിക്കുന്ന ആഗോള കുത്തകകളെ, സ്വദേശിയും വിദേശിയുമായ മാരകമലിനീകരണങ്ങളെ, സംസ്കാരത്തിലെ വിളനശീകരണങ്ങളെ, പ്രതിനിധാനം ചെയ്യുന്നു.
രക്ഷയ്ക്കായി കണ്ടൻ മൂപ്പൻ തന്റെ ചാത്തന്മാരെ കുഴിമാടങ്ങളിൽ നിന്നു തുറന്നു വിടുന്നു: നവയുക്തികൾ കൊന്നൊടുക്കിയ സഹജശക്തികളുടെ ആവാഹനത്തിലൂടെയുള്ള പ്രതിരോധമാണു് ലക്ഷ്യം.
‘മാഞ്ഞെന്നു് തോന്നിച്ചു മാന്ത്രികക്കുതിര,
മാനത്തേക്കോ മനസ്സിലേക്കോ? കാറ്റിൽ
ബോംബർപ്പുക പോലെ വാലു് നീണ്ടുലഞ്ഞു;
നഗരമായ പോലെന്റെ കണ്ണുകെട്ടി.’
മാന്ത്രികക്കുതിരയുടെ വിനാശകരമായ ഈ രൂപമാറ്റം വർത്തമാനകാലത്തിന്റെ ഹിംസാത്മകമായ അവസ്ഥാന്തരത്തെ സൂചിപ്പിക്കുന്നു. മണ്ണിന്റെയും മനസ്സിന്റെയും ഉള്ളടരുകളിലേക്കാണു് രാസപ്രയോഗം വഴി തരിശും ജൈവനാശവും പടരുന്നതെന്നു് കവിതയുടെ സൂക്ഷ്മവിനിമയം. ഈ വരികൾ ശ്രദ്ധിക്കുക:
‘കാഴ്ചയിലിപ്പോൾ പാടം
പീഡിത പോലെ മയക്കത്തിൽ.
ഓക്കാനിക്കുന്നതു് കണ്ണും മൂക്കും പൊള്ളിക്കും
രാസമണം.
കനകവയൽ കാർന്നൊടുക്കുമ്പോൾ
കൊള്ളക്കുതിരയൊലിപ്പിച്ച രാസ ഊറലിൽ
നെല്ലും മീനും ചീവീടും പുൽത്തളിരും ചെറുമഞ്ഞും
നീർക്കോലി, നീർത്തുമ്പിയുമവയുടെ
നേർമൊഴിയും… അടപടലേ
നീറിച്ചീയുമൊരാവാസത്തിൻ നാറ്റം.’
കൃഷിഭൂമി മനുഷ്യന്റെ മാത്രം ജീവനാലംബമല്ല. പരശ്ശതം സൂക്ഷ്മജീവികൾ സ്വതന്ത്രമായി ജീവിതോത്സവം കൊണ്ടാടുന്നൊരു ബഹുലാവാസവ്യവസ്ഥയാണതു്. കാലങ്ങളോളം ഭാവി തലമുറകൾക്കവകാശപ്പെട്ട സുഫലത. കുത്തകകളുടെ അത്യാർത്തി അവിടം തരിശാക്കി. കൊള്ളലാഭത്തിനെ അടിസ്ഥാനമാക്കി ഉരുവപ്പെട്ട പുത്തൻ കാർഷികശാസ്ത്രം കടപുഴക്കിയതു് നിരവധി നൂറ്റാണ്ടുകളിലെ അനുഭവജ്ഞാനത്തിലൂടെ നാം വളർത്തിയെടുത്ത പ്രകൃതിസൌഹൃദ കൃഷിരീതികളും അതിന്റെ സംസ്കാരരൂപങ്ങളുമാണു്. മാരക ചൂഷണങ്ങൾക്കെല്ലാമൊടുവിൽ ഇന്നു് വയലുകളുടെ ബാക്കിപത്രം ഇതാണു്:
‘കാഴ്ചയിലിപ്പോൾ ശേഷിക്കുന്നതു്
ഉൾക്കനം വാർന്നു്
വളഞ്ഞ നട്ടെല്ലു് പോലെ ചില പതിർക്കുല;
ചുമ്മാ കിലുങ്ങുന്നതു്.’

തിരിച്ചറിവോടെ, താക്കീതോടെ അവസാനിക്കുന്നു കവിത.
“തകഴിയും മാന്ത്രികക്കുതിരയും” ഫിക്ഷണൽ സ്വഭാവമുള്ള കവിതയാണു്. തകഴി മാത്രമല്ല, കണ്ടൻമൂപ്പനും സ്വപ്നം കാണുന്നു, ഒരേ സ്വപ്നം. കൊയ്യാറായ വയലും ഉർവ്വരതയും കർഷകന്റെ പ്രത്യാശയും നാട്ടറിവുകളുടെ സൂക്ഷ്മകോശങ്ങളും കൊള്ളയടിക്കപ്പെടുന്നു എന്ന ആത്മരക്ഷാ സന്ദേശമാണു് ആ സ്വപ്നത്തിന്റെ സത്ത. ആത്മ/ പ്രകൃതിരക്ഷയ്ക്കായുള്ള വംശസ്വപ്നം. അതിൽ വയലിനു് കർഷകനോടു് സൂക്ഷ്മവിനിമയം സാധ്യമാണു്.
അതിനിണങ്ങുന്ന ആഖ്യാനമാന്ത്രികതയിൽ ഈ കവിത പൊള്ളുന്ന പ്രതിരോധാനുഭവമായി ഭാവസാന്ദ്രവും ദർശനദീപ്തവുമായി വായിക്കുന്നവരിൽ സർവ്വനാശകമായ കുത്തകകൾക്കെതിരായ പ്രതിഷേധത്തിന്റെയും പ്രതിരോധത്തിന്റെയും വിത്തുകൾ വിതയ്ക്കുന്നു.
(നവംബർ 29 മുതൽ ഡിസംബർ 5 വരെ ലഭിച്ച പ്രതികരണങ്ങളാണു് ഈ ലക്കത്തിലുള്ളതു്).

‘നീ നിന്നു പ്രളയത്തിൽ,
നിൻ തോളിൽ നീ താങ്ങി
ഭൂഗോളം, അലിയാതെ
കാത്തു നീയതിനെ.’
‘നീ താങ്ങിനിർത്തി
തൂണില്ലാതെയുത്തര-
മില്ലാതെ, വാനിനെ.’

ദൈവത്തെ അറിയുന്നതിനു് ഏറ്റവും വലിയ വിഘാതം അറിവില്ലായ്മ തന്നെ:
‘ലൌകികം മായയിൽ
പെട്ട മനുഷ്യന്നു
ദൈവത്തെയതുപോലെ-
യാവില്ലയറിയുവാൻ.’
‘ആവില്ല ദൈവത്തി-
നവനേയുമറിയുവാൻ.’
അതുപോലെ ഉടലും മനസ്സും തമ്മിലുള്ള വിച്ഛേദം ഈ വചനങ്ങളിലെ ഗഹനതയാണു്:
‘എന്റെയുടലെങ്കിലിതു
പിന്തുടരുകില്ലയോ
എന്റെ മനസ്സിനെ?’
‘നിന്റെ യുടലെങ്കിലിതു
പിന്തുടരുകയില്ലയോ
നിന്റെ മനസ്സിനെ?’

തുടർന്നുള്ള വരികളിലാണു് ഈ വചനങ്ങളുടെ കാമ്പു്:
‘ഈയുടൽ നിന്റെയ,-
ല്ലെന്റെയുമല്ലിതു്.
ഹേ രാമനാഥ, ഈ
കത്തുമുലകത്തിനാൽ
നീ പണിതതിച്ചപല
ദുർബ്ബലമാമുടൽ.’
‘ഒരു തീ
വാക്കിൽ, നോക്കിൽ, ചെയ്തിയി-
ലോരോന്നിലുമൊരു തീ
ആണിനും അവന്റെ പെണ്ണിനുമിടയിൽ
ഒരു തീ
കാത്തിരുന്നു തിന്നുതീർത്ത
തീൻ കിണ്ണത്തിൽ ഒരു തീ
നേടിയതിലും പോയതിലും
ഒരു തീ
ഇണചേരുംകാമത്തിൽ
ഒരു തീ
അഞ്ചു തീ നീ തന്നു ഞങ്ങൾ-
ക്കെന്റെ രാമനാഥാ!’
ഇത്തരത്തിൽ സർവ്വവ്യാപിയാണു് വചനങ്ങളിൽ തീ. ലൌകികവും ക്ഷണികവുമായ കാമനകളെ ഇല്ലായ്മ ചെയ്തു് കർമ്മശുദ്ധി വരുത്തുന്നു തീ.
ദാർശനികതയുടെ അഗാധ തലങ്ങളിലേക്കാഴ്‌ന്നിറങ്ങുന്ന ചില ചോദ്യങ്ങളും വചനങ്ങളിലുണ്ടു്.
‘എന്തിനെനിക്കു കഠാരി,
ശിവാ, ഞാ-,
നെന്തിൽ കുത്തും,
എന്തിൽ നിന്നതു്
പിന്നെ വലിച്ചൂരും,
നീയല്ലോ സർവ്വരും,
എന്തിനെനിക്കു കഠാരി?’…
‘ഞാൻ നിന്നു കാണുന്നുവെല്ലാം
നിന്നിൽ നിറവു ലോകങ്ങൾ
പിന്നെന്റെ രാമനാഥാ ഞാൻ
എങ്ങിനെ, ആരെ, ദ്രോഹിക്കാൻ?’

ചുരുക്കത്തിൽ സമാധാനത്തിന്റെ വഴികൾ നമുക്കു മൂന്നിൽ തുറക്കുകയാണു് ഈ വചനങ്ങൾ. നിന്റെ ഭക്തർക്കു് ഞാനെന്നും ഒരു കവചം; ഞാൻ നിന്റെ വെറുമൊരു ദാസൻ, കവൽക്കാരൻ, അടിമ.
‘നിന്റെ ഭക്തർക്കു് ഞാൻ കാള
നിന്റെ ഭക്തർക്കു ഞാൻ ഭൃത്യൻ
പിന്നെപ്പടിക്കൽ ഞാൻ കാവൽ
നിന്നിടും നായ, അടിമ.’

ഈ ഭൂമി നിന്റെ ദാനം, ധാന്യവും നിന്റെ ദാനം, ഇവിടെ വീശുന്ന തെന്നലും നിൻ ദാനം. ഭൂമിയും പ്രാണനുമുൾപ്പെടെ പ്രപഞ്ചത്തിൽ എല്ലാത്തിലും നീയുണ്ടു്. ആദി രഹസ്യവും നീതന്നെ. ആദി രഹസ്യത്തിനെന്റെ പ്രണാമം. തുടർന്നുള്ള വരികൾ ശിവൻ സർവ്വവ്യാപിയെന്നു് സ്ഥാപിക്കുന്നു.
‘ശിവനിൽ ലയിച്ചവർ-
ക്കില്ലാ പുലരികൾ,
ഇല്ലമാവാസി,
ഇല്ലുച്ച സംക്രന്തിയും,
ഇല്ലില്ല പൌർണ്ണമി,
ഇല്ലസ്തമയവും
രാമനാഥാ നിന്റെ
മുറ്റമല്ലാതില്ല
മറ്റൊരു കാശിയും
ദേഹമെന്റേതു,
നിന്റേതാണു് ദേഹി, യെൻ
ദേഹരഹസ്യം നിനക്കറിയാം
നിന്റെ ദേഹിയുടേതെനിക്കും…’

ഇപ്രകാരം ദേഹവും ദേഹിയും അകവും പുറവും ക്ഷണികതയും അനശ്വരതയും ലൌകികവും അലൌകികവുമായ ദ്വന്ദങ്ങളെ മനോഹരമായി പ്രയോഗിച്ചിരിക്കുന്നു, ഈ വചനങ്ങളിൽ.
ദേവര ദാസിമയ്യയുടെ വചനങ്ങളിൽ ഉടലിനെക്കുറിച്ചുള്ള വ്യക്തമായ കാഴ്ചയുണ്ടു്. പത്താം നൂറ്റാണ്ടിലെ സമൂഹം ഇത്തരത്തിൽ മനുഷ്യശരീരത്തിനെ ചർച്ചാവിഷയമാക്കിയിരുന്നുവെന്നതു് അതിശയം തന്നെ. ഉടലിനെ മറയ്ക്കാൻ ശീലിച്ച ആധുനികരിൽ നിന്നും മധ്യകാല സമൂഹം വ്യതിരിക്തമായി നിലകൊള്ളുന്നു.
‘ഉടലുള്ളവർക്കു പശിക്കും
ഉടലുള്ളവർ നുണകൾ പറയും
ഉടലുള്ളോനെന്നോതിയെന്നെ-
പ്പരിഹസിക്കേണ്ട, കുത്തേണ്ടാ.’

ഉടലും രൂപവും പരസ്പര പൂരകങ്ങളാണു്. പണിതില്ലെങ്കിൽ വീടിനകത്താവില്ലാ സ്ഥലം. കണ്ണുകൾകൊണ്ടു് കണ്ടില്ലെങ്കിൽ മനസ്സിൽ രൂപം തെളിഞ്ഞുവരില്ല. അപരനിൽ എത്തിച്ചേരണമെങ്കിൽ വഴി വേണം. കാറ്റില്ലാതെ തീയ്യിനു് ചലിക്കാനാവില്ല. അതു പോലെ കാറ്റിനു തീയ്യില്ലാതെ കത്തുവാനുമാകില്ല.
‘അറിവും പ്രവൃത്തിയു-
മിങ്ങിനെ, അറിവതാർ.’
സ്ത്രീ-പുരുഷ ഉടലുകൾ തമ്മിലുള്ള വ്യത്യാസം ഭൌതിക/ശാരീരിക തലത്തിൽ മാത്രമാണെന്ന തിരിച്ചറിവു് ദേവര ദാസിമയ്യയുടെ ഒരു സവിശേഷതയാണു്, ഈ വരികൾ വ്യക്തമാക്കുന്നതു പോലെ:
‘മുലകൾ, നീൾമുടിയിവ
വരവുണ്ടു്, പെണ്ണെ-
ന്നതിനെ വിളിക്കുന്നു
അവർ, രാമ നാഥാ
ഒരു താടി, മീശയും
വരവെങ്കിൽ ആണെന്നു
പറയുന്നു അതിനെയവർ
ഹേ രാമനാഥാ
അതിനിടെപ്പാറി
നടക്കുമാത്മാവു പെ-
ണ്ണതുമല്ല, ആണുമ-
ല്ലെൻ രാമനാഥാ!’
ഒരു മുളയുടെ ബിംബമുപയോഗിച്ചു് സ്ത്രീ-പുരുഷ ദ്വന്ദങ്ങൾ ഉടലിൽ/ദേഹത്തിൽ മാത്രമെന്നു പറയുന്ന വചനക്കാരൻ ദേഹിയിൽ അവ ഒന്നാണെന്നു് നിരീക്ഷിക്കുന്നു ദേഹിയുടെ ഭാവം ഏകവും അനശ്വരവുമാണെന്ന തിരിച്ചറിവോടേയാണു് വചനങ്ങൾ അവസാനിക്കുന്നതു്.
‘ഒരു മുള മുറിക്കുക
രണ്ടാക്കി, മുകൾ വശം
പുരുഷനാക്കുക, താഴെ
യുള്ളതൊരു സ്ത്രീയും
അവ കൂട്ടിയുരസുക
തീ വരും വരെ, പറ-
കതിൽ നിന്നുയർന്ന തീ
സ്ത്രീയോ പുരുഷനോ?
ഹേ രാമനാഥാ!’
കവി സച്ചിദാനന്ദന്റെ പക്വമായ തർജ്ജമയ്ക്കു് ദൃശ്യചാരുത നൽകുന്ന കലിഗ്രഫിയോടെ വായനക്കാരിലേക്കു് ഈ വചനാനുഭവം എത്തിക്കുന്നതു് സായാഹ്നയാണു്. എല്ലാവരും അഭിനന്ദനമർഹിക്കുന്നു.
(ഡിസംബർ 6 മുതൽ 12 വരെ ലഭിച്ച പ്രതികരണങ്ങളാണു് ഈ ലക്കത്തിലുള്ളതു്).

“വിളിച്ചുണർത്തണോ വള്ളക്കാരനെ?
വിശ്വസിക്കാമോ സ്വപ്നത്തെ?
വന്നറിയിച്ച ദുരന്തമല്ലല്ലോ, സ്വപ്നമല്ലേ?
സ്വപ്നം തന്നെ ഒരു വന്നറിയിക്കലല്ലേ?
അജ്ഞാതത്തിന്റെ സന്ദേശം?
ചരിത്രാതീത ഭാഷയിൽ മനെസ്സഴുതുന്ന
ഭാവിചരിത്രമല്ലേ സ്വപ്നം?
അതോ അരാഷ്ട്രീയത ഉറങ്ങുമ്പോൾ
രാഷ്ട്രീയതയുടെ ഉൾവിളിയോ?
…
വയെലനിക്കയച്ച വിപൽദൂതല്ല ഈ പേക്കിനാവെന്നാരു് കണ്ടു?”
സ്വപ്നമോ യാഥാർഥ്യമോ, വർത്തമാനമോ, ഭൂതമോ ഭാവിയോ എന്നറിയാത്ത, ബോധമോ അബോധമോ എന്നു് വേർതിരിക്കാനാവാത്ത, എല്ലാം കെട്ടു് പിണഞ്ഞ ഒരു സ്വപ്നസ്ഥലിയിലൂടെയാണു് തകഴിയുടെ സഞ്ചാരം. സ്വപ്നത്തിൽ തന്നെ സ്വപ്നവിശകലനവും നടക്കുന്നു. സ്വപ്നത്തിനുള്ളിലെ സ്വപ്നത്തിലേക്കും കഥയ്ക്കുള്ളിലെ കഥയിലേക്കും ഓർമ്മയ്ക്കുള്ളിലെ എതിർ-ഓർമ്മകളിലേക്കും, പ്രജ്ഞയ്ക്കുള്ളിലെ എതിർപ്രജ്ഞയിലേക്കും, വർത്തമാനത്തിൽ നിന്നു് തെറ്റി ഭൂതഭവിഷ്യങ്ങളിലേക്കും നീളുന്നു ഈ സ്വപ്ന സഞ്ചാരം.
സ്വപ്നം/അബോധം അരുളുന്ന രാഷ്ട്രീയ പ്രബുദ്ധതയിലേക്കാണു് ഈ ദുഃസ്വപ്നം കവിതയെ ഉണർത്തുന്നതു്. ബോധാബോധങ്ങളുടെ വരമ്പത്തു കൂടിയുള്ള ഈ സ്വപ്നാടനത്തിനിടെ, സ്വപ്നത്തിന്റെ, അബോധത്തിന്റെ, മനഃശാസ്ത്ര-രാഷ്ട്രീയ വിശകലനത്തിലേർപ്പെടുന്നുണ്ടു് കവിതയിലെ തകഴി.
സ്വപ്നത്തെ തള്ളുന്നതിനു പകരം സ്വപ്നത്തിന്റെ വിശ്വസനീയതയെ പ്രതിജ്ഞാപനം ചെയ്യുകയാണു് കർഷകകർത്തൃസ്വരൂപമായ തകഴി ഇവിടെ. സ്വപ്നം ഒരു വന്നറിയിക്കലല്ലേ? അജ്ഞാതത്തിന്റെ സന്ദേശമല്ലേ? സ്വപ്നവും ജാഗ്രത്തും ഭാവിയും ഭൂതവും വർത്തമാനവും എല്ലാം പ്രശ്നവൽക്കരിക്കപ്പെടുകയാണിവിടെ. ചരിത്രത്തെ, ബോധത്തെ, പിളർന്നുയരുന്ന പ്രബുദ്ധമായിത്തീരലിന്റെ സംഭവമാണു് സ്വപ്നം എന്ന വെളിപാടിലേക്കു് ചോദ്യങ്ങൾ വളർന്നു് മുറുകുന്നു. ‘ചരിത്രാതീതഭാഷയിൽ മനസ്സെഴുതുന്ന ഭാവിചരിത്രം’ സ്വപ്നമെന്നു്, ജാഗ്രദവസ്ഥ അരാഷ്ട്രീയതയുടെ നിദ്രാടനമാവുമ്പോൾ, ‘രാഷ്ട്രീയതയുടെ ഉൾവിളി’, അധിക ഉണർവ്വാകുന്നു, സ്വപ്നമെന്നു് തകഴിമൊഴികളിലൂടെ കവിത പുനർനിർവ്വചിക്കുന്നു. വയലിനെ നെഞ്ചിൽ ച്ചേർത്ത കർഷകന്റെ ആധിയുടെയും ആഗ്രഹത്തിന്റെയും പ്രകാശനമെന്നു്, വയലയച്ചു് തന്ന വിപൽ സന്ദേശമെന്നു്, ഈ ദുഃസ്വപ്നത്തെ തകഴി വായിക്കുന്നു.
കർഷകകർത്തൃത്വത്തിന്റെ സ്വപ്നോന്മുഖത്വത്തിലേക്കു് തുടരെത്തുടരെ ടോർച്ചടിക്കുന്നു തകഴിയുടെ ആത്മഗതങ്ങൾ.
“ഉണരാറുണ്ടു് പണ്ടും ഞാൻ ദുഃസ്വപ്നം കണ്ടു്.
എന്നുണരുന്നതും കൂടുതൽ തകഴിയായിട്ടു്”
ബോധത്തെ ഞെട്ടിയുണർത്തുന്ന, ഭാവിയുടെ കിളിവാതിൽ വെട്ടിത്തുറക്കുന്ന, വംശത്തിന്റെ എതിർ സ്മൃതികൾ തിരിച്ചു് പിടിക്കുന്ന, അബോധത്തിന്റെ ആന്തരിക ആഘാതവിദ്യയാണു് തകഴിയ്ക്കു് ദുഃസ്വപ്നം. ഓരോ ദുഃസ്വപ്നവും ഈ കർത്തൃത്വത്തെ കൂടുതൽ ഉണർവ്വിലേക്കാണു് നയിക്കുന്നതു്. ദുഃസ്വപ്നത്തിന്റെ പത്മവ്യൂഹത്തിൽ ഗ്രിഗർ സാംസയെപ്പോലെ തിരിച്ചു വരാനാവാത്ത വിധം ബന്ധിയാവുന്നില്ല കർഷക സത്വനായ തകഴി. ദുഃസ്വപ്നത്തിൽ നിന്നു് ജാഗ്രത്തിലേക്കു് കൂടുതൽ ശക്തനായാണയാൾ മടങ്ങിവരുന്നതു്. ഓരോ ദുഃസ്വപ്നത്താലും നവീകരിക്കപ്പെടുന്ന, രൂപാന്തരീകരിക്കപ്പെടുന്ന ഒരു കർത്തൃപ്രവാഹത്തെയാണു് തകഴി എന്നു് കവിത നാമകരണം ചെയ്യുന്നതു്. സ്വപ്നവിരുദ്ധനല്ല ബഹു-സ്വപ്നവിശ്വാസിയാണു് തകഴി. സ്വകാര്യമായ ഫാന്റസിയല്ല, യാഥാർഥ്യത്തിൽ നിന്നുള്ള ഒളിച്ചോട്ടമല്ല, സുഖസാന്ത്വനമല്ല, നഷ്ടപരിഹാരമല്ല തകഴിയുടെ സ്വപ്നം. വംശത്തിന്റെ രാഷ്ട്രീയ ജാഗ്രതയാണതു്. വിപ്ലവത്തിന്റെയും, വിമോചനത്തിന്റെയും, വംശീയസ്വപ്നങ്ങളുടെ രാഷ്ട്രീയാഘോഷകനാണു്, ബഹു-കാല-ലോക-സ്വപ്നപ്രബുദ്ധനാണു് തകഴി.
“ഉണരാറുണ്ടു് പണ്ടും ഞാൻ ദുഃസ്വപ്നം കണ്ടു്.
എന്നുണരുന്നതും കൂടുതൽ തകഴിയായിട്ടു്;
ഭീമൻകീടമായിട്ടല്ല, ഗ്രിഗർ സാംസെയേപ്പാലെ.
മറ്റുള്ളോരുടെ സ്വപ്നം ഞാൻ വിശ്വസിച്ചു. പല കാലം.
മാർക്സ്, ലെനിൻ, ടോൾസ്റ്റോയ്, ഗോർക്കി, ബൽസാക്ക്,
കേസരി, മോപ്പസാങ്, എന്റെ ഭാര്യ കാത്ത,
കാരൂർ, ഫ്ലാബേർ, ബഷീർ… സ്വപ്നങ്ങൾ.
രണ്ടല്ലായിരുന്നു സ്വപ്നവും ദർശനവുമെനിക്കു്”
വംശീയ-അബോധത്തിന്റെ/സ്വപ്നത്തിന്റെ പ്രതിജ്ഞാപനമാണു് കർഷകനെ സംബന്ധിച്ചിടത്തോളം രാഷ്ട്രീയം എന്നു് തകഴിയുടെ വാക്കുകളിലൂടെ കാവ്യാഖ്യാതാവു് വെളിപ്പെടുത്തുന്നു. സ്വപ്നവും ദർശനവും തനിക്കു് രണ്ടല്ലെന്ന തകഴിയുടെ ആത്മനിർവ്വചനം ശ്രദ്ധേയമാവുന്നതിവിടെയാണു്.
ബോധാബോധങ്ങളുടെ വരമ്പത്തു കൂടി നടന്നു് നടന്നു് വയലിലെത്തിച്ചേരവേ വീണ്ടും മറ്റൊരു സ്വപ്നത്തിലേക്കു് ഞെട്ടിയുണരുകയാണു് തകഴി. പണ്ടേ മരിച്ച കണ്ടൻ മൂപ്പൻ എന്ന വിതക്കാരൻ, കർഷക ഋഷി, പൂർണ്ണചൈതന്യവാനായി മുന്നിൽ പ്രത്യക്ഷനാവുന്നു. വയൽ നിറഞ്ഞു നിൽക്കുന്ന അസാധ്യതയായി, അസാധ്യത്തിന്റെ ദർശനമായി, സംഭവമായി, സ്വപ്നം തകഴിയെ വീണ്ടും ഞെട്ടിക്കുന്നു. മണ്മറഞ്ഞ വംശനായകന്റെ ഉയർത്തെണീപ്പു്. സ്വപ്നത്തിന്റെ വയൽസ്ഥലിയിൽ നിതാന്ത ജാഗ്രതയോടെ നിദ്രാരഹിതനായി, പാറാവു് നിൽക്കുന്ന മരണമില്ലാത്ത വംശ രക്ഷകൻ, ജീവന്റെ വിതക്കാരൻ. സ്വപ്നം വംശകാലത്തിലേക്കു് വർദ്ധമാനമാകുന്നു. വംശീയമായ എതിർ സ്മൃതികൾ ചരിത്രകാലത്തെ, ഭേദിച്ചു് വയലിന്റെ സ്വപ്ന സ്ഥലിയിൽ മാന്ത്രിക യാഥാർഥ്യം രചിക്കുന്നു. രേഖീയകാലത്തെ ബോധത്തെ തകർത്തു് ഭൂതഭാവികളുടെ, ബോധാബോധങ്ങളുടെ, ജാഗ്രത്സ്വപ്നസുഷുപ്തികളുടെ അതിർവരമ്പുകൾ മായ്ച്ചു് വംശത്തിന്റെ ശാശ്വതകാലം വർത്തമാനത്തെ കയ്യേറുകയും യാഥാർത്ഥ്യത്തെ മാറ്റിയെഴുതുകയും ചെയ്യുന്നു. സ്വപ്നത്തിന്റെ മൃണാള നാളത്തിലൂടെ സഞ്ചരിച്ചു് വംശ തുരീയത്തിലെത്തിച്ചേരുന്ന തകഴിയ്ക്കുമുന്നിൽ വംശനേതാവായ കണ്ടൻ മൂപ്പൻ ചിരഞ്ജീവിയായി, അതിമാനവനായി, അമൃതസ്വരൂപനായി, വെളിപ്പെടുന്നു. സ്വപ്നകാലം വംശത്തിന്റെ തുരീയകാലത്തിലേക്കു് മുറുകുന്നു. ബോധാന്തരീകരണത്തിന്റെ, രൂപാന്തരീകരണത്തിന്റെ നാലാം കാലം. നിലയില്ലാത്ത നാലാം നില. ചരിത്രവും ചരിത്രാതീതവും ഘർഷണം ചെയ്യുന്ന, ഭൂതഭാവികൾ, ഭൗമാഭൗമങ്ങൾ, പകർന്നാടുന്ന, വംശ രാത്രിയുടെ തുരീയ വെളിവിൽ വയൽ ഒരു നടനവേദിയായിമാറുന്നു. എതിരോർമ്മയുടെ മാന്ത്രികമുകുരത്തിൽ കണ്ടൻ മൂപ്പന്റെ കയ്യിലെ മാസ്മര വിതമുദ്ര നവനടന മുദ്രയായി തെളിയുന്നു. വംശകാലത്തിന്റെ വ്യതിരാവർത്തനമായി, ശാശ്വതികമായ പുനരാഗമനത്തിന്റെ സംഭവമായി (eternal recurrence) കണ്ടൻ മൂപ്പന്റെ വിത നടനം ഒരിക്കൽ കൂടി അരങ്ങേറുകയാണു്. കണ്ടു് കഴിഞ്ഞാലും കണ്ണിൽ തുടരുന്ന ശാശ്വതമായ വംശസംഭവം.
“വയലിലെത്തിയതും തകഴി ഞെട്ടി:
വയൽ നിറഞ്ഞു് നിൽക്കുന്നെ
താരസാധ്യത:
കണ്ടൻ മൂപ്പൻ; പണ്ടേ മരിച്ച വിതക്കാരൻ.
കൃഷിയുടെ ഋഷി.
(എത്ര കണ്ടതാ ഞാനാ
കൈയുടെ മാസ്മര വിതമുദ്ര.
ചൂണ്ടുവിരലും തള്ളവിരലും
ചേർന്നൊരുക്കുന്ന
വിത്തുവാതിൽ കടന്നു്
നെന്മണികൾ വായുവിലുയരും
വിതപ്പാട്ടിലെ വാക്കുകൾ പോലെ
ചിറകു് വീശും
കാൽനിമിഷം വായുവിൽ തങ്ങും
ഓരോ വിത്തും വയൽനെഞ്ചിൽ
സ്വന്തം ഇടം കാണും
ആ കുളിരിലേക്കു് താണിറങ്ങും.
കണ്ടു് കഴിഞ്ഞും കണ്ണിൽ തുടരും
കണ്ടൻ മൂപ്പന്റെ വിതനടനം.)”
ജീവന്റെ, ഭാവിയുടെ, വിത്തു വിതയ്ക്കുന്ന ജീവ രാഷ്ട്രീയ (bio+zoe politics) നടനമാണു് നമുക്കു് മുന്നിൽ നമുക്കു് പിന്നിൽ. കൃഷിയുടെ ഋഷിയും രക്ഷകനും മാന്ത്രികനും നട്ടവനുമായ കണ്ടൻ മൂപ്പന്റെ വംശനൃത്തം നടരാജ നൃത്തത്തെയും കവിയുന്നു. അനുഗ്രഹ മുദ്രയ്ക്കു് പകരം ജീവന്റെ വിതമുദ്ര. വിതയെറിയുന്ന വിരലിന്റെ ചിന്മുദ്ര. ചൂണ്ടു് വിരലും തള്ളവിരലും ചേർന്നൊരുക്കിയ വിത്തു് വാതിൽ ഭേദിച്ചു് വായുവിലേക്കു ഉയർന്നുയരുന്ന നെന്മണിക്കുരുന്നുകൾ, വിതപ്പാട്ടിലെ വാക്കുകൾ പോലെ നെന്മണികളുടെ ചിറകു വീശിപ്പറക്കൽ, കാൽ നിമിഷം വായുവിൽ തങ്ങി, വയൽ നെഞ്ചിൽ സ്വന്തം ഇടം കണ്ടെത്തി, നെഞ്ചിന്റെ കുളിരിലേക്കു് താണിറങ്ങുന്ന നെന്മണിപ്പറവകൾ. ഇതാണു് ജീവന്റെ, ഭാവിയുടെ, വിത നടനം. വിതക്കാരനും, വിത്തായ നെന്മണിപ്രാക്കളും, വിതപ്പാട്ടുകാരും, വയൽ നെഞ്ചും കുളിർവായുവും വംശമൊന്നാകെയും പകർന്നാടുന്ന ജീവന്റെ സംഘനൃത്തം.
കൃഷി ഒരു കായികാദ്ധ്വാനമല്ല. ഒരു മാസ്മര സർഗ്ഗനടനമാണു്. പ്രകൃതിയും മനുഷ്യനും ജീവജാലങ്ങളും പങ്കെടുക്കുന്ന സംഘകലയാണു്, ജീവ രാഷ്ട്രീയത്തിന്റെ വംശോൽസവമാണു്.
അനന്തരം, കർഷകന്റെ ഇതിഹാസകാരനും അഭിഭാഷകനുമായ തകഴി സാറിനോടു് വംശ രക്ഷകനായ കണ്ടൻ മൂപ്പൻ ആസന്നമായ മഹാവിപത്തിന്റെ വൃത്താന്തം നാടോടിക്കഥനത്തിന്റെ സ്വപ്നമൊഴികളിലൂടെ റിപ്പോർട്ട് ചെയ്യുന്നു.
പാടത്തെന്തോ പന്തികേടു് തോന്നി നോക്കുമ്പോൾ, കണ്ടത്തിൽ കുഞ്ചിനിലാവു കുലുക്കി മേയുന്ന പരദേശി മാന്ത്രികക്കുതിര. ‘ന്നാൾ പൊക്കം, തൂവെള്ള. തീനാവ്’. പ്രലോഭനീയം. ‘ഒറ്റയ്ക്കൊരു സൈന്യം’. ‘ആ ചതിക്കുതിരയിൽ നിന്നു് മാരകമൊരു സൈന്യപ്പാതിര ലോകത്തേയ്ക്കിറങ്ങുന്നു’. മേഞ്ഞിടം തരിശാക്കിക്കൊണ്ടു്.
കുഴിമാടങ്ങളിൽ കാവൽ നിൽക്കുന്ന ചാത്തന്മാരെ കണ്ടൻ മൂപ്പൻ തുറന്നു വിട്ടു. വംശാബോധത്തിന്റെ പ്രവിശ്യകൾ കാക്കുന്ന നാട്ടുരക്ഷാസൈന്യം. മാന്ത്രികക്കുതിര തൽക്കാലം മാഞ്ഞെന്നു് തോന്നിച്ചെങ്കിലും, മായാരൂപമാർന്നു് മണ്ണിലേക്കോ മാനത്തിലേക്കോ മനസ്സിലേക്കോ അതു് അധിനിവേശം ചെയ്തു. അതിന്റെ വാൽ ബോംബർപ്പുക പോലെ കാറ്റിൽ നീണ്ടുലഞ്ഞു. നഗരമായ കൊണ്ടു് അതു് മൂപ്പന്റെ കണ്ണുകെട്ടി. അരൂപിയും മായാവിയുമായ ഒരു മാരക ശത്രുവംശത്തിനെതിരെ മായികമായ ആക്രമണം അഴിച്ചു വിട്ടിരിക്കുന്നു. രാസവിഷം തുപ്പുന്ന ചതിക്കുതിര. കൊള്ളക്കുതിര. മായാവിക്കുതിര.
“കാഴ്ചയിലിപ്പോൾ പാടം
പീഡിത പോലെ മയക്കത്തിൽ.
ഓക്കാനിക്കുന്നതു് കണ്ണും മൂക്കും പൊള്ളിക്കും
രാസമണം.
കനകവയൽ കാർന്നൊടുക്കുമ്പോൾ
കള്ളക്കുതിരെയൊലിപ്പിച്ച രാസ ഊറലിൽ
നെല്ലും മീനും ചീവീടും പുൽത്തളിരും ചെറുമഞ്ഞും
നീർക്കോലി, നീർത്തുമ്പിയുമവയുടെ
നേർമൊഴിയും… അടപടലേ
നീറിച്ചീയുമൊരാവാസത്തിൻ നാറ്റം.
കാഴ്ചയിലിപ്പോൾ ശേഷിക്കുന്നതു്
ഉൾക്കനം വാർന്നു്
വളഞ്ഞ നട്ടെല്ലു് പോലെ ചില പതിർക്കുല;
ചുമ്മാ കിലുങ്ങുന്നതു്.”
പിന്നെക്കാണുന്നതു് പീഢിതയായി മയങ്ങുന്ന പാടത്തെയാണു്. അതിന്റെ ഓക്കാനം കണ്ണും മൂക്കും പൊള്ളിക്കുന്ന രാസ മണം. കൊള്ളക്കുതിര കനകവയൽ കാർന്നെടുക്കുന്നു. അതിന്റെ രാസവിഷ സർജ്ജനത്തിൽ ‘നെല്ലും മീനും ചീവീടും പുൽത്തളിരും ചെറുമഞ്ഞും നീർക്കോലി നീർത്തുമ്പികളും അവയുടെ നേർമൊഴികളും’ ആഘോഷപൂർവ്വം സഹവസിക്കുന്ന വയലിന്റെ ആവാസവ്യവസ്ഥയാകെ പൊള്ളിനീറിച്ചീഞ്ഞു നാറുകയാണു്. ഇപ്പോളുയരുന്നതു് വംശനാശത്തിന്റെ ദുസ്സഹമായ നാറ്റം മാത്രം. ഉൾക്കനം വാർന്ന, നട്ടെല്ലു വളഞ്ഞു ചുമ്മാ കുലുങ്ങുന്ന ചില പതിർക്കുലകൾ മാത്രമേ ഇനി അവശേഷിക്കുന്നുള്ളു. ജീവന്റെ, ഭാവിയുടെ, വിതക്കാരൻ, വംശമൂർത്തിയായ കണ്ടൻ മൂപ്പൻ, വർത്തമാന അവസ്ഥയെ, വിലയിരുത്തുന്നതിങ്ങനെ. ഉൾക്കനമില്ലാത്ത, നട്ടെല്ലു വളഞ്ഞ, ചുമ്മാ കുലുങ്ങിച്ചിലമ്പുന്ന പതിർക്കുലകൾ, സമകാലീന കേരളീയ സമൂഹമുല്പാദിപ്പിക്കുന്ന ദീനകർത്തൃത്വങ്ങളുടെ ഗുണനിലവാരത്തെയല്ലേ രൂപകം ചെയ്യുന്നതു്?
മാന്ത്രികക്കുതിരയുടെ നാടോടി കഥനപ്രമേയത്തിലുടെ, നാട്ടുജനതയ്ക്കുമേൽ നടക്കുന്ന അദൃശ്യവും അന്യാദൃശവും മായികവുമായ ഒരു ആക്രമണത്തിന്റെ ചരിത്രവും അതിന്റെ ദുരന്തപരിണതികളുമാണു് കണ്ടൻ മൂപ്പൻ ആഖ്യാനം ചെയ്യുന്നതു്. കർഷകർക്കുമേൽ, കർഷകവൃത്തിയ്ക്കും ആവാസവ്യവസ്ഥയ്ക്കും മേൽ ആഗോള കോർപ്പറേറ്റ് സാമ്രാജ്യം നടത്തുന്ന പ്രഛന്നവും മാരകവുമായ അധിനിവേശ ആക്രമണത്തെ സൂക്ഷ്മമായി തിരിച്ചറിയുകയും ചെറുത്തുനിൽക്കുകയും ചെയ്യുന്ന കർഷകന്റെ അബോധ രാഷ്ട്രീയ നേരിടലുകളെയാണു്, സ്വപ്നപുരുഷനായ കണ്ടൻ മൂപ്പൻ മാന്ത്രികവും ഗൂഢവുമായ കഥനരീതിയിൽ മൊഴിയുന്നതു്. ചരിത്രപരവും രാഷ്ട്രീയപരവും ആയ ഒരു പ്രഛന്നാധിനിവേശ പീഢാനുഭവത്തിന്റെ സത്യവാങ്മൂലം. പ്രാദേശിക കാർഷിക സമ്പദ്വ്യവസ്ഥകളെ, സമൂഹങ്ങളെ, സാംസ്ക്കാരങ്ങളെ, പരിസ്ഥിതിയെ, കൊള്ള ചെയ്തു് കാർന്നു് തിന്നുന്ന, വിഷാണമായ ആഗോള കോർപ്പറേറ്റ് ബയോരാഷ്ട്രീയ സാമ്രാജ്യത്തിന്റെ മായാസ്വരൂപത്തെയാണു് ഈ പരദേശിമാന്ത്രികക്കുതിര, പ്രതിനിധാനം ചെയ്യുന്നതു്. ആധുനിക-ധുനികോത്തരസാങ്കേതികവിദ്യയുടെ, ശാസ്ത്രവിജ്ഞാനീയത്തിന്റെ, നവചൂഷണവിദ്യകളുടെ, പടക്കോപ്പണിഞ്ഞ, ഈ മാന്ത്രിക അശ്വയന്ത്രം ദക്ഷിണേഷ്യയുടെ, ഇന്ത്യയുടെ, പ്രത്യേകിച്ചു് കേരളത്തിന്റെ പ്രകൃതിയെ, കാർഷികാവാസവ്യവസ്ഥയെ സാംസ്ക്കാരിക സാമൂഹ്യ മണ്ഡലത്തെ വിഷസേചനംചെയ്തു് തരിശാക്കിയതെങ്ങനെ എന്നു് ഹരിതവിപ്ലവകാലം മുതലുള്ള ചരിത്രം പരിശോധിച്ചാൽ വ്യക്തമാകും. നാട്ടുമണ്ണിൽ, കൃത്രിമ വിത്തിന്റെ, രാസവളത്തിന്റെ, കീടനാശിനികളുടെ, ബഹുരാഷ്ട്ര കുത്തകക്കമ്പനികളുടെ പടയോട്ടക്കഥ. ബയോ ടെക്നോളജി, ബയോ എഞ്ചിനീയറിംഗ്, ജെനെറ്റിക്സ്, എന്നീ ശാസ്ത്ര-സാങ്കേതികവിദ്യകളുടെ, ദുരുപയോഗത്തിലൂടെ, അതിയന്ത്രവൽക്കരണത്തിലൂടെ, അദൃശ്യശക്തിയായി മാറിയ ആഗോള ബയോ-രാഷ്ട്രീയ സാമ്രാജ്യം കർഷക ജനതയ്ക്കു് മേൽ നടത്തിയ മായികവും പ്രഛന്നവുമായ സൂക്ഷ്മയുദ്ധങ്ങളുടെ കഥ.
ഇതു് കൃഷിക്കാരന്റെ ദുരന്തകഥമാത്രമല്ല, കേരളത്തിന്റെ ദുരന്ത ചരിത്രം കൂടിയാണു്. പ്രലോഭനീയമായ ഈ ആഗോള മാന്ത്രികാശ്വയന്ത്രത്തിന്റെ തേരോട്ടത്തിൽ തകർന്നടിഞ്ഞതു് വയലേലകളും സമൃദ്ധ ഹരിതകങ്ങളും കർഷകസമൂഹങ്ങളും മാത്രമല്ല, കേരളത്തിന്റെ സാമ്പത്തിക-സാമൂഹ്യ-സാംസ്ക്കാരിക-ആവാസവ്യവസ്ഥയാകെയും, രാഷ്ട്രീയ-സ്വയം നിർണ്ണായകതയും, സാമ്പത്തിക സ്വയം പര്യാപ്തിയും, നട്ടെല്ലു വളയാത്ത കർത്തൃസ്വരൂപങ്ങളുമാണു്. അന്നവിളകളിൽ നിന്നു് നാണ്യ വിളകളിലേക്കു് കർഷകർ മാർഗ്ഗം കൂടിയതും, നെൽ വയലുകളെ, കോൺക്രീറ്റ് കെട്ടിടങ്ങൾ, പാർപ്പിട സമുച്ചയങ്ങൾ, കയ്യേറ്റം ചെയ്തതും, കൃഷിയുടെയും കർഷകന്റെയും വിലയിടിഞ്ഞു് ചോരവാർന്നു്, ആത്മഹത്യ കർഷന്റെ ആത്മാവിഷ്ക്കാരമാർഗ്ഗമായതും, മണ്ണും മനവും മാനവും തോടും പുഴയും മലയും, മാലിന്യവിഷാസിക്തമായതും, അന്നവും പൊറുതിയും മുട്ടി അഭയാർഥികളായി യുവാക്കൾ അന്യരാജ്യങ്ങളിലേക്കു് കുടിമാറേണ്ടി വന്നതും, രാഷ്ട്രീയം വിത്തെടുത്തു് ഉണ്ണലും, നാടിനെ വിറ്റുമുടിക്കലായതും എല്ലാം ഈ ആധിനിവേശ ദുരന്തകഥയുടെ അനന്തരപർവ്വങ്ങൾ മാത്രം.
കർഷകന്റെ, ബോധാബോധങ്ങളിൽ അധിനിവേശം ചെയ്ത ഈ ബയോ സാമ്രാജ്യ അശ്വയന്ത്രത്തിനെതിരേ, അബോധത്തിന്റെ, സ്വപ്നത്തിന്റെ, പ്രതിരോധ സൈന്യങ്ങളെ, സംവിധാനങ്ങളെ, വീണ്ടെടുക്കലാണു് തകഴിയുടെ ദുഃസ്വപ്നത്തിലൂടെ, കണ്ടൻ മൂപ്പന്റെയും നാട്ടുചാത്തന്മാരുടെയും അബോധ-രാഷ്ട്രീയ പ്രതിരോധത്തിലൂടെ, കവിത ചെയ്യുന്നതു്: ഒരു എതിർ-ആഭിചാരം, ഒരു സ്വപ്നാഘാതപ്രയോഗം, ഒരു ബദൽ കർത്തൃ നിർമ്മിതി. ജീവനെ, ഭാവിയെ, വിതയ്ക്കുന്നവരെന്ന നിലയിൽ, അന്ന നിർമ്മാതാക്കളെന്ന നിലയിൽ ജീവശക്തിയെ (power as puissance) സമാഹരിക്കുകയും ഉല്പാദിപ്പിക്കുകയും ചെയ്യുന്ന കലാ-കായിക-ബൗദ്ധിക-സർഗ്ഗ വൃത്തിയിലേർപ്പെട്ട കർഷകരാണു് ഭരണകൂടത്തിന്റെയും, കോർപ്പറേറ്റ് ബയോ-സാമ്രാജ്യശക്തികളുടെയും അധികാരത്തിനെ ചെറുക്കുവാൻ, അതിവർത്തിക്കുവാൻ ജന്മനാ പ്രാപ്തരായ മുഖ്യ ബദൽ രാഷ്ട്രീയ ശക്തിയെന്നു്, കവിത സൂചിപ്പിക്കുന്നു. ആധുനികോത്തരബൗദ്ധികത്തൊഴിലാളികളാണു്, ബയോരാഷ്ട്രീയ കർത്തൃത്വങ്ങളെന്നും ബയോ രാഷ്ട്രീയവിപ്ലവത്തിന്റെ മുന്നണിപ്പടയാളികൾ എന്നും ഉള്ള അന്റോണിയോ നെഗ്രിയുടെ ‘ജനസഞ്ചയ’ സങ്കല്പത്തെ ഈ ഉൾക്കാഴ്ചകൾ തിരുത്തിക്കുറിക്കുന്നു. സ്വപ്നത്തെ, വിശ്വാസത്തെ, പ്രതിജ്ഞാപനം ചെയ്യുന്ന അബോധത്തിന്റെ രാഷ്ട്രീയമാണു് ഈ ബദൽ രാഷ്ട്രീയത്തിന്റെ രഹസ്യശക്തിയെന്നും കവിത ആത്യന്തികമായും പ്രതിജ്ഞാപനം ചെയ്യുന്നു. സ്വപ്നത്തിന്റെ അബോധത്തിന്റെ, വിശ്വാസത്തിന്റെ ഈ സൂക്ഷ്മരാഷ്ട്രീയമണ്ഢലത്തിൽ നിന്നുള്ള വിഛേദനമാണു് മലയാളിയുടെ രാഷ്ട്രീയ അപചയത്തിന്റെ മുഖ്യകാരണമെന്നു് ഭംഗ്യന്തരേണ കവിത സൂചിപ്പിക്കുന്നുണ്ടു്.
ഉത്തരേന്ത്യയിലെ മഹാശൈത്യത്തെയും കൊറോണാ മഹാമാരിയുടെ ഭീഷണിയെയും, ഭരണകൂടത്തിന്റെ സൈനികശക്തിയെയും വെല്ലുവിളിച്ചു് കൊണ്ടു്, ആഗോള കോർപ്പറേറ്റ് ബയോസാമ്രാജ്യത്തിന്റെ അശ്വയന്ത്രങ്ങളെ പിടിച്ചു കെട്ടുവാൻ തലസ്ഥാനനഗരിയെ വളഞ്ഞു നിൽക്കുന്ന ലക്ഷക്കണക്കിനു കർഷകർ പ്രഖ്യാപിക്കുന്നതും ഇതാണു്: ജീവന്റെയും ഭാവിയുടെയും വിത്തു് വിതക്കാരും, അന്ന ദാതാക്കളുമായ കർഷകരാണു് ഇന്ത്യൻ വിപ്ലവത്തിന്റെ, ബദൽ ജീവരാഷ്ട്രീയത്തിന്റെ മുഖ്യശക്തി, മുഖ്യകർത്തൃത്വം. സ്വപ്നത്തിന്റെയും വിശ്വാസത്തിന്റെയും അബോധത്തിന്റെയും രാഷ്ട്രീയത്തെ സംബന്ധിച്ചു് കവിത നൽകുന്ന ഉൾക്കാഴ്ചകളെ ചരിത്രപരമായി ന്യായീകരിക്കുകയും സാക്ഷാത്ക്കരിക്കുകയും വിപുലീകരിക്കുകയും ചെയ്യുന്നു ഈ മഹാസമരയജ്ഞം. ജനങ്ങളുടെ അന്തസ്ഥിത ശക്തി (immanent power as potentia), ജീവരാഷ്ട്രീയ ശക്തിക്കു, മുന്നിൽ ഭരണകൂടാധികാരം നിസ്തേജമെന്നു് ഈ സമരം തെളിയിക്കുന്നു. തകഴിയുടെയും കണ്ടൻ മൂപ്പന്റെയും സ്വപ്നവിവേകത്തെ സാക്ഷാത്ക്കാരത്തിലേക്കു് നയിക്കാനെന്ന വണ്ണം, വന്ദ്യവയോധികരായ ലക്ഷക്കണക്കിനു കർഷിക ഋഷിമാർ ഈ മഹാസമരയജ്ഞത്തിൽ അണിനിരക്കുന്നതു് നാം കാണുന്നു. ഗുരുനാനാക്കിന്റെയും ഗുരു തേജ്ബഹദൂറിന്റെയും സാത്വികവും ആഗ്നേയവും സാമ്രാജ്യവിദ്ധ്വംസകവുമായ സ്വപ്നങ്ങളുടെ തലപ്പാവുകളിഞ്ഞ സിഖ് കർഷകർ ദില്ലിയിലേക്കുള്ള ദേശീയപാതകളെ രാഷ്ട്രീയവും ആദ്ധ്യാത്മികവുമായ പ്രബുദ്ധതകളുടെ സംഗമസ്ഥലികളാക്കി മാറ്റിയിരിക്കുന്നു. ജയ് കിസാൻ.
(ഡിസംബർ 13 മുതൽ 25 വരെ ലഭിച്ച പ്രതികരണങ്ങളാണു് ഈ ലക്കത്തിലുള്ളതു്).

മധു,
വിചിത്ര ഗഹനം,
ഈ ദൃശ്യവാഹിനി.

നേരത്തിന്റെ
നേരിന്റെ
കയ്പ്പും
കണ്ണീരും
കടഞ്ഞതിനു
നന്ദി മാഷെ…

എങ്കിലും തെരയാതെങ്ങനെ?
എവിടെയുമാഴുമൊടുക്കത്തിൽ
എല്ലാറ്റിലുമുള്ള കയത്തിൽ
കരിവെയിലെരിയും മൌനത്തിൽ
കൂനിയിരിക്കുന്നുണ്ടാവാം
കാണാതായ മുതിർന്നോർ.
തുടർന്നുള്ള പ്രയോഗം ഹൃദത്തിന്റെ അടിത്തട്ടിൽ നിന്നു വരുന്നതു്:
മൃതിയിലുമൊരു കളിമൈതാനം
കണ്ടു് കിടാങ്ങൾ
കളിയാടുകയാവാമവിടെ.
തെരയാതെങ്ങനെ?
ഒന്നും കിട്ടാനിടയില്ലെങ്കിലും പ്രതീക്ഷയുടെ തെരച്ചിൽ തുടർന്നുകൊണ്ടിരിക്കുന്നു.
ഒടുവിൽ നേരേതെന്നറിയാത്ത സമൂഹത്തിനു നേരെ മൂർച്ചയേറിയ ചോദ്യശരങ്ങൾ ഉതിർക്കുകയാണു് കവി.
ഒച്ചയിലുയരും മൂകത നേരോ?
ചിരിയിലൊലിക്കും കണ്ണീർ നേരോ?
വിരിയലിൽ വിളയും കരിയൽ നേരോ?
നേരോ, കുതികളിലുറയുമനങ്ങായ്ക?
അറിവേക്കാൾ അറിവില്ലായ്കകൾ
വാഴും പുരമോ നമ്മുടെ പ്രജ്ഞ?
ഇതിനുള്ള ഉത്തരങ്ങൾ നമുക്കറിയാം. നാം അതെല്ലാം കണ്ടില്ലെന്നും കേട്ടില്ലെന്നും നടിക്കുകയാണു്. അതാണു് ഉപഭോഗാർത്തി നിയന്ത്രിക്കാനാവാത്ത നമുക്കു് പ്രിയം. ഭരണകൂടത്തിനു് കോർപ്പറെറ്റ് താല്പര്യങ്ങളൊഴിഞ്ഞ നേരവുമില്ല. അങ്ങനെ വരുമ്പോൾ പെട്ടിമുടി പ്രകൃതിദുരന്ത ചരിത്രത്തിലെ മറ്റൊരു ദുരന്തമായി, അടുത്ത ദുരന്തമുണ്ടാകും വരെ, മാത്രം നാം ഓർക്കുന്നു. അവിടെ അവശേഷിക്കുന്ന ജീവിതങ്ങളെ സംരക്ഷിക്കാൻ, ഇനിമറ്റൊരു ദുരന്തം ആവർത്തിക്കാതിരിക്കാൻ നമ്മുടെ ഭരണകൂടത്തിനു് ഉത്തരവാദിത്ത്വം ഉണ്ടാകേണ്ടതല്ലെ. പെൺപിളൈ സമരം രാഷ്ട്രീയ കുതന്ത്രങ്ങൾകൊണ്ടു് പരാജയപ്പെടുത്തിയതാണു് നമ്മുടെ രാഷ്ട്രീയ ദുഷ്പ്രഭുത്വ ഗരിമ.
എല്ലാം കൊണ്ടും ഇരുണ്ട കാലം: സംഭവിച്ചതിലും സംഭവിച്ചുകൊണ്ടിരിക്കുന്നതിലും എല്ലാം ഒരേ കയ്പു്. അതാണു് കെ. ജി. എസ്സിന്റെ കവിത നമ്മെ ഓർമ്മിപ്പിച്ചുകൊണ്ടിരിക്കുന്നതു്. എല്ലാ കെ. ജി. എസ്. കവിതകളേയും പോലെ ‘കയ്പും’ ഒരു പാരിസ്ഥിതിക, മാനവീക കവിതയാണു്. അതിജീവനത്തിന്റേയും!
ശ്രീ എ. പ്രതാപന്റെ വായനാനുഭവം ഹൃദ്യമായി. അദ്ദേഹം പറയുന്നതുപോലെ കെ. ജി. എസ്. ചരിത്രത്തിന്റെ പൊരുൾ ഭൂതകാലത്തിൽ നിന്നു കുഴിച്ചെടുക്കുകയാണു്. ‘മണ്ണിന്നടിയിൽ അടക്കംചെയ്യപ്പെട്ട പൗരാണിക നഗരങ്ങളെന്നപോലെ, ഓർമ്മയിൽ പുതഞ്ഞുകിടക്കുന്നു നമ്മുടെ അനുഭവങ്ങൾ. മറവുചെയ്യപ്പെട്ട സ്വന്തം ഭൂതകാലത്തെ സമീപിക്കുന്ന ഒരുവനു കുഴിവെട്ടുകാരനെ പോലെ ആകാത വയ്യ… കവിതയും ഒരു ഖനനമാണു്. കെ. ജി. എസ്സിന്റെ കവിതയിൽ ആ കിളയ്ക്കൽ ചരിത്രത്തിന്റെ മേൽമണ്ണു നീക്കുന്ന ഉദാസീന ക്രിയ അല്ല. ആഴത്തിലാഴത്തിൽ വീണ്ടെടുപ്പാനുള്ള മിടിപ്പുകൾ ഇനിയും ബാക്കിയുണ്ടോ എന്ന അവസാനിക്കാത്ത തെരച്ചിലാണതു്. വീട്ടുമുറ്റത്തെ കിണറ്റിൽനിന്നു് മോഹൻജൊദാരോവിലെ മരിച്ചവരുടെ മേട്ടിലെ പുഷ്കരത്തോളം എത്തുന്ന ഒന്നു്.’
മേൽപ്പുര കീഴ്പ്പുര പോയൊരു ജന്നൽ
തല വിട്ടു് തുറിച്ചൊരു കണ്ണായ്.
പഴയൊരു കാളി ക്ഷേത്രത്തിന്റെ മുമ്പിൽ നിന്നും ഓടി രക്ഷപ്പെടുന്ന സ്വപ്നം, എല്ലാ വരികളും ഇല്ലാത്ത വാതിൽ ഒച്ചവെക്കുന്ന പോലെ…
അസാധ്യ കവിത!
ഭാവിയിലേക്കു് കുതിച്ച പദങ്ങൾ
പ്രാചീനതയിൽ ചിന്നിച്ചിതറി.
ഉയരത്തിനൊരുങ്ങിയതെല്ലാം
പാതാളത്തിലടങ്ങിയമർന്നു.
പ്രാചീനതയും പാതാളവും നമുക്കു് അത്രമാത്രം അരുകിലാണു്!
(ഡിസംബർ 26 മുതൽ ജനുവരി 16 വരെ ലഭിച്ച പ്രതികരണങ്ങളാണു് ഈ ലക്കത്തിലുള്ളതു്).

കെ. ജി. എസ്സിന്റെ ‘കയ്പു്’ എന്ന കവിതയും കയ്പിന്റെ രാഷ്ട്രീയ-ലാവണ്യ വിവക്ഷകളിലേക്കു് സഞ്ചരിക്കുന്ന എ. പ്രതാപന്റെ അനുഭവക്കുറിപ്പും ശ്രദ്ധേയമായി. മലയാള ഭാവുകത്വത്തിലെ നിർണ്ണായകമായ ഒരു രുചിമാറ്റത്തെയാണു് ഈ കവിതയും അതിന്റെ ഉജ്ജ്വലമായ നിരൂപണവും അടയാളപ്പെടുത്തുന്നതു്.
പെട്ടിമുടിദുരന്തം സൃഷ്ടിച്ച മഹാഘാതത്തെ മുറവിളിയും ഒപ്പാരും കൊണ്ടു് ഒഴിപ്പിച്ചു കളയാതെ, വിരേചനമോ സാന്ത്വനമോ അനുവദിക്കാതെ, ഉടലിൽ, ഉയിരിൽ, ചിന്തയിൽ, വാക്കിൽ, വംശപ്രജ്ഞയിൽ ഉണങ്ങാത്ത ഒരു മുറിപ്പാടായി എന്നെന്നേക്കുമായി കൊത്തിവയ്ക്കുകയാണു് കെ. ജി. എസ്സിന്റെ കവിത. നേരും നേരവും, ദുരന്തവും ഖേദവും, കണ്ണീരും ക്രോധവും, ചോദ്യവും മൗനവും വാറ്റി നീറ്റിയെടുത്ത ഒരു കടുംകയ്പ്പു് കഷായം അതു് നമുക്കു് പകരുന്നു. പ്രതാപൻ സൂചിപ്പിക്കുന്നതു് പോലെ, നമ്മുടെ ഈച്ചയാർക്കുന്ന ശർക്കരഭാവുകത്വത്തിനു്, മധുരാതുരത്വത്തിനു്, മറുമരുന്നായി.
മണ്ണിനടിയിൽ ജീവനോടെ മറവു് ചെയ്യപ്പെട്ട ഉറ്റവരെയും ഊരിനെയും, തെരയുവാൻ ജെ. സി. ബിയ്ക്കൊപ്പം, മണ്ണു മാന്തികൾക്കൊപ്പം, രക്ഷാപ്രവർത്തകർക്കൊപ്പം കവിതയുമുണ്ടു്. രക്ഷാസംഘം തിരിച്ചു പോയാലും കവിതയുടെ തെരച്ചിൽ, അവസാനിക്കുന്നില്ല. നിർത്താതെ തുടരുന്ന രക്ഷാപ്രവർത്തനമാണു് കവിത. ‘അടയാളങ്ങൾ മറഞ്ഞാലും ആശയിരുണ്ടാലും, കിട്ടുന്നതു കീറർത്ഥങ്ങളും കയ്ക്കുന്ന സൂചനകളാണെങ്കിലും കവിതയുടെ രക്ഷാദൗത്യത്തിനു് അറുതിയില്ല. ‘വരുമാരെങ്കിലുമെന്ന’ ജീവന്റെ മിടിപ്പിനായി പ്രതീക്ഷയോടെ കാതോർത്തു് കൊണ്ടു് കവിതയുടെ രക്ഷായന്ത്രമുണ്ടാവും യുഗാന്ത്യത്തോളം. കാലത്തിന്റെ ഉരുൾപൊട്ടലുകളിൽ മണ്മറഞ്ഞു പോയ ഉറ്റവരെ, ഊരുകളെ, ഭൂമിയിലെ പറുദീസകളെ, മറവിയുടെ തമോഗർത്തങ്ങളിൽ പൂണ്ടു് പോയ മഹാനാഗരികതകളെ, സംസ്കൃതികളെ, ജനപദങ്ങളെ, ജീവന്റെ, ഓർമ്മയുടെ, തുടിപ്പുകളെ, മൺ കൂനകൾ അടർത്തി മാറ്റി, വീണ്ടെടുക്കുന്ന സാംസ്ക്കാരികവും, ഭാവുകപരവുമായ രക്ഷാപ്രവർത്തനമാണു് ഇവിടെ കവിത.
രക്ഷാപ്രവർത്തകനു്, നേരിടുന്നവനു്, ഊർജ്ജം നൽകുന്ന (“മഹാ”)രോഗ്യ പാനീയമാണു് ഈ തിക്തകം. ദുരന്തത്തിൽ പൂണ്ടുപോയ ഉറ്റവരെയും ഊരിനെയും നെഞ്ചിന്റെ മിടിപ്പുകളെയും തേടൽ മാത്രമല്ല, നാഗരികമായ നമ്മുടെ നേരത്തിന്റെ നേരിനെ ആരായൽ കൂടിയാണു് കവിത. ഘനമൂകവും ശോകസാന്ദ്രവുമായ അന്തർശ്രുതിയിൽ വിലാപവും വിമർശവും വിചാരണയും കെട്ടു് പിണയുന്നു. ദുരന്തത്തിന്റെ കാര്യകാരണങ്ങളിലേക്കു് നീളുന്ന അന്തർവിചാരണ.
നാഗരികാർത്തികൾ പൊന്മുട്ടകൾ
തേടിത്തോണ്ടിയ ഖനികൾ
നാടിൻ കൂട്ട മൃതിക്കുഴിയായി.
യാദൃഛികമായ ഒരു പ്രകൃതി ദുരന്തമല്ല പെട്ടിമുടിയിൽ സംഭവിച്ചതു്. മനുഷ്യസൃഷ്ടമായ, ചരിത്രജന്യമായ ദുരന്തം. നാഗരികത തന്നെയാണു് ഇവിടെ പ്രതിക്കൂട്ടിൽ. അതിനാൽ നാഗരികരായ നമ്മുടെ ക്ഷണിക വിലാപങ്ങളിൽ, രോഷങ്ങളിൽ നുരയുന്നതു് കാപട്യവും ആത്മവഞ്ചനയുമാണു് എന്ന കയ്ക്കുന്ന വെളിവിൽ വിലാപവും ക്രോധവും മന്ത്രസ്ഥായിയിലേക്കു് വലിയുന്നു.
നാഗരികരുടെ അത്യാർത്തികൾ പൊൻമുട്ടകൾക്കായി തോണ്ടിയെടുത്ത ഖനികളാണു് നാട്ടുകാർക്കായി ഈ കൂട്ടമൃതിക്കുഴി ഒരുക്കിയിരിക്കുന്നതു്. ‘കള്ളിമാലി’, ‘കവളപ്പാറ’, ‘പൂത്തുമല’, ‘പെട്ടിമുടി’… ഈ ദുരന്ത പരമ്പരകൾ ആസൂത്രിതമാണു്. നാഗരികതയുടെ ഓരങ്ങളിലേക്കു് തള്ളപ്പെട്ട ദളിതരും ആദിവാസികളും ദരിദ്രരും തോട്ടപ്പണിക്കാരുമൊക്കെയടങ്ങിയ അപ്രധാനരും അർദ്ധ പൗരന്മാരുമായ കോളണി മനുഷ്യരാണു് ഇത്തരം ദുർമരണശിക്ഷയ്ക്കു് വിധിക്കപ്പെട്ടവർ. പ്രകൃതിയുടെ കുഴി തോണ്ടുന്ന നാഗരികദുരയുടെ ഇരകളാണിവർ.
ഈ ദുരന്തങ്ങൾ അപവാദങ്ങളല്ല. പ്രകൃതി നിയമങ്ങളല്ല. ചരിത്ര നിയമങ്ങളാണു്. നാഗരിക ചരിത്രത്തെ അനിവാര്യമായും പിന്തുടരുന്ന, പൂർവ്വ നിർണ്ണീതമായ ദുരന്തങ്ങൾ. പുരോഗതിയുടെ വിജയയജ്ഞത്തിനായി സമർപ്പിക്കപ്പെടുന്ന ജീവബലികൾ. നാഗരികതയുടെ ഈ ദുരന്ത ഗാഥയും വിലാപവും വിചാരണയും നാലുവരികളിൽ സംഗ്രഹിക്കപ്പെടുന്നു:
ഭാവിയിലേക്കു് കുതിച്ച പദങ്ങൾ
പ്രാചീനതയിൽ ചിന്നിച്ചിതറി.
ഉയരത്തിനൊരുങ്ങിയതെല്ലാം
പാതാളത്തിലടങ്ങിയമർന്നു.
പെട്ടിമുടിയ്ക്കു് മാത്രം ബാധകമായ ഒന്നല്ല ഈ ദുരന്ത തത്വം. ചരിത്ര പുരോഗതിയുടെ പൊതു നിയമമാണിതു്.
നാഗരികതയുടെ നേരിന്നു് നേർക്കു് നേർ നിന്നു് കൊണ്ടു് നേരിനെത്തന്നെ വിചാരണ ചെയ്യുകയാണു് തുടർന്നുള്ള ചോദ്യങ്ങൾ. പ്രത്യക്ഷമായ സത്യത്തിനു്, കാണപ്പെടുന്ന, പറയപ്പെടുന്ന, സത്യത്തിനു്, നേർ വിപരീതമാണു് സത്യത്തിന്റെ സത്യം എന്ന വിരോധഭാസവെളിവിലാണു് ഈ നേർവിചാരണ എത്തിച്ചേരുന്നതു്.
ഒച്ചയിലുയരും മൂകത നേരോ?
ചിരിയിലൊലിക്കും കണ്ണീർ നേരോ?
വിരിയലിൽ വിളയും കരിയൽ നേരോ?
നേരോ, കുതികളിലുറയുമനങ്ങായ്ക?
അറിവേക്കാൾ അറിവില്ലായ്കകൾ
വാഴും പുരമോ നമ്മുടെ പ്രജ്ഞ?
ഒച്ചയല്ല, മൂകതയാണു്, ചിരിയല്ല, കണ്ണീരാണു്, വിരിയലല്ല, കരിയലാണു്, കുതികളല്ല അനങ്ങായ്കയാണു്, അറിവല്ല അറിവില്ലായ്മയാണു്, മധുരമല്ല മധുരത്തിലൊളിക്കുന്ന കയ്പാണു് നാഗരികമായ നമ്മുടെ നേരത്തിന്റെ നേരു് എന്നു് കവിത നിർവ്വചിക്കുന്നു. അജ്ഞതകൾ, അന്ധതകൾ, അനീതികൾ, ഭരിക്കുന്ന നഗരപ്രജ്ഞയുടെ അന്തർവൈരുദ്ധ്യങ്ങളിലേക്കു്, വിരോധാഭാസങ്ങളിലേക്കു്, നെറികേടിലേക്കു് വിരൽ ചൂണ്ടുന്നു അഹിതകരമായ ഈ ചോദ്യങ്ങൾ. അറിവിനെക്കാൾ അറിവില്ലായ്മ വാഴുന്ന നഗരമാണു് നമ്മുടെ പ്രജ്ഞ എന്ന കയ്ക്കുന്ന പ്രബുദ്ധതയിലേക്കാണു് ഈ ചോദ്യപരമ്പരകൾ നമ്മെ നയിക്കുന്നതു്.
കെ. ജി. എസ്സിനും, പ്രതാപനും സായാഹ്നയ്ക്കും അഭിവാദ്യങ്ങൾ.
(ജനുവരി 17 മുതൽ 30 വരെ ലഭിച്ച പ്രതികരണങ്ങളാണു് ഈ ലക്കത്തിലുള്ളതു്).
(ജനുവരി 31 മുതൽ ഫെബ്രുവരി 6 വരെ ലഭിച്ച പ്രതികരണങ്ങളാണു് ഈ ലക്കത്തിലുള്ളതു്.)

(ഫെബ്രുവരി 7 മുതൽ 20 വരെ ലഭിച്ച പ്രതികരണങ്ങളാണു് ഈ ലക്കത്തിലുള്ളതു്.)

(ഫെബ്രുവരി 21 മുതൽ മാർച്ച് 13 വരെ ലഭിച്ച പ്രതികരണങ്ങളാണു് ഈ ലക്കത്തിലുള്ളതു്).

(മാർച്ച് 14 മുതൽ 20 വരെ ലഭിച്ച പ്രതികരണങ്ങളാണു് ഈ ലക്കത്തിലുള്ളതു്.)

“നീ പറയുന്നതു് കേൾക്കാൻ വന്നവരേക്കാളേറേപ്പേർ
നീ കുരിശേറുന്നതു് കാണാൻ വന്നു.
അതിലുമേറേപ്പേർ നിന്നെ
മനസ്സിലണിയാൻ വന്നു.
അതിലുമേറേപ്പേർ നിന്നെ
സിനിമയിൽ കാണാൻ വന്നു.”
(യേശുവേ നീ ഉയിർത്തു് വളർന്നതു്: കെ. ജി. എസ്. കവിതകൾ, 1997–2007.)
(മാർച്ച് 21 മുതൽ ഏപ്രിൽ 10 വരെ ലഭിച്ച പ്രതികരണങ്ങളാണു് ഈ ലക്കത്തിലുള്ളതു്.)

(ഏപ്രിൽ 10 മുതൽ 17 വരെ ലഭിച്ച പ്രതികരണങ്ങളാണു് ഈ ലക്കത്തിലുള്ളതു്.)

(ഏപ്രിൽ 18 മുതൽ മെയ് 29 വരെ ലഭിച്ച പ്രതികരണങ്ങളാണു് ഈ ലക്കത്തിലുള്ളതു്.)

സായാഹ്നയുടെ ശബ്ദതാരാവലി ഗ്രൂപ്പിൽ വന്ന തിരഞ്ഞെടുത്ത ചില പ്രതികരണങ്ങൾ
സായാഹ്നയുടെ ശബ്ദതാരാവലി ഗ്രൂപ്പിൽ വന്ന തിരഞ്ഞെടുത്ത ചില പ്രതികരണങ്ങൾ
സായാഹ്ന ഗ്രൂപ്പ് മുകളിൽ പറഞ്ഞ നയത്തിൽ നിന്നും ഒട്ടും തന്നെ വ്യതിചലിച്ചിട്ടില്ല.
ദാമോദർ പ്രസാദ് വിയോജിപ്പു് രേഖപ്പെടുത്തിയ നേരത്തു് ഹുസൈൻ മാഷിന്റെ ഫോർവേഡിനെകുറിച്ചു് അദ്ദേഹമടങ്ങുന്ന അഡ്മിൻമാർക്കു മാത്രമായുള്ള ഗ്രൂപ്പിൽ ഇതിന്റെ ചർച്ച നടക്കുകയായിരുന്നു. അതുകൊണ്ടാണു് ഈ പ്രതികരണം വൈകിയതു്.
സായാഹ്ന ഗ്രൂപ്പിന്റെ മുകളിൽ സൂചിപ്പിച്ച നിലപാടുകളോടു് വിയോജിപ്പുള്ളതിനാൽ ഹുസൈൻ മാഷ് ഗ്രൂപ്പ് വിടുകയും ചെയ്തു. ഈ അവസരത്തിൽ മറ്റു് അംഗങ്ങൾ ഒരു ഗ്രൂപ്പ് നല്ല രീതിയിൽ നടത്തിക്കൊണ്ടു പോകുമ്പോഴുണ്ടാവുന്ന ബുദ്ധിമുട്ടുകൾ തിരിച്ചറിയുകയും അഡ്മിൻമാരെ സുഗമയാത്രയ്ക്കു സഹായിക്കുകയും ചെയ്യണമെന്നു സവിനയം അഭ്യർത്ഥിക്കട്ടെ. ഏവരും സഹകരിക്കും എന്ന വിശ്വാസത്തോടെ,
– സായാഹ്ന ഗ്രൂപ്പ് അഡ്മിൻമാർക്കു വേണ്ടി രാധാകൃഷ്ണൻ
പ്രിയ ഹുസൈൻ, വരൂ.
മറക്കാം കയ്പ്പുകൾ.
ഗംഭീരമാക്കാം, സായാഹ്ന.
സായാഹ്നയുടെ ശബ്ദതാരാവലി ഗ്രൂപ്പിൽ വന്ന തിരഞ്ഞെടുത്ത ചില പ്രതികരണങ്ങൾ
