
തലയിലൊന്നുമില്ലെങ്കിൽ (തൊപ്പി നീട്ടി)
ഇതുകൊണ്ടു മറച്ചുവെയ്ക്കാം
മുഖം മുഴുവൻ വായയാക്കി
മുഖപ്രസംഗം തട്ടിവിടാം.
(സൂട്ടിട്ട ഒരു മുതലാളി പൊയ്മുഖം വാങ്ങി അണിയുന്നു.)
പണിയന്റെ കരളെനിക്കത്താഴം
പണിയന്റെ ചോരയതെൻ വീഞ്ഞും
സമരമിരമ്പി വരുമ്പോഴോ
ജയജയ, ജയജയ, ജയ ഗാന്ധി!
(പ്രതിമപൊട്ടിച്ചിരിക്കുന്നു. എല്ലാവരുംതിരിഞ്ഞുനോക്കുമ്പോൾ ‘പ്രതിമ’ നിശ്ശബ്ദം)
പശുവിനെ വന്ദിച്ചേ പോകാവൂ
പറയനെപ്പടിയിലേ നിർത്താവൂ
മനുവിന്റെ കാലത്തേ കഴിയാവൂ
പെരുവിരലേ ഗുരുദക്ഷിണ വാങ്ങാവൂ.
പോരാ പോരാ നാളിൽ നാളിൽ
ദൂര ദൂരമുയരട്ടെ
ഭാരതാംബ വാങ്ങിയോരിപ്പൊൻ പതാകകൾ!
നാല്പത്തിയേഴിൻ നവവത്സരദിനം, തെരു-
വൊക്കെയും രക്തം—പൂവിൽ,
ഇലയിൽ, പുതുമഞ്ഞിൽ
രക്തത്തിൻ മണം;
വാക്കിനൊക്കെയും കിനാവുകൾ-
ക്കൊക്കെയും, രക്തത്തിന്റെ രുചി;
ചെന്നായെപ്പോലെ-
യെത്തുന്നു നവഖലിഗ്രാമത്തിൽ മുരളുന്ന
മൃത്യു; മൃത്യുവെ വെല്ലും ദുഃഖം പോൽ,
വാത്സല്യം പോ-
ലെത്തുന്നിതവിടത്തിലൊറ്റയ്ക്കു ധീരം ഗാന്ധി.


‘ദുഃഖേഷു അനുദ്വിഗ്ന മനാ
സുഖേഷു വിഗതസ്പുറുഹാ
വത രാഗ ഭയ ക്രോധ
സ്ഥിതധീർ മുനിരുച്യതേ’
നിൻ വിളിയാരും കേൾപ്പിലെങ്കിൽ…
പോവുക ഒറ്റയ്ക്കൊറ്റയ്ക്ക്,
ഭീകരമാം മതിൽ കണ്ടു ഭയന്നവർ
മൂകം നിന്നു വിറയ്ക്കുന്നെങ്കിൽ,
ഭാഗ്യം കെട്ടവനേ
നീ നിന്നുള്ളു തുറക്കുക
സംസാരിക്കുക, ഒറ്റയ്ക്കൊറ്റയ്ക്ക്,
മുഖം തിരിച്ചിടുമവരെങ്കിൽ,
വിജനത താണ്ടും നേരം സകലരു-
മോടിപ്പോമെങ്കിൽ,
ഭാഗ്യം കെട്ടവനേ,
നിൻ കാൽക്കീഴിലെ മുള്ളുകളൊക്കെയു-
മാഞ്ഞുചവിട്ടിയരച്ചാച്ചോര-
ത്തുള്ളികളെഴുതും വഴിയിൽക്കൂടി-
ച്ചെല്ലുകയൊറ്റയ്ക്കൊറ്റയ്ക്ക്.
ഇരവിൽ ചുഴലികൾ ചീറിയടിക്കെ-
ത്തിരികൾ കൊളുത്താനാളില്ലെങ്കിൽ,
ഭാഗ്യം കെട്ടവനേ,
വേദനതന്നിടിമിന്നൽപ്പിണരാൽ
ആളിക്കത്തിക്കുക നിൻ ഹൃദയം
നാളമതെരിയട്ടേ, ഒറ്റയ്ക്കൊറ്റയ്ക്കു,
ഒറ്റയ്ക്കൊറ്റയ്ക്കു,
ഒറ്റയ്ക്കൊറ്റയ്ക്കു,
(ശബ്ദം താണുനിലയ്ക്കുന്നു. പിൻതിരശ്ശീല നിശ്ചലം. വെളിച്ചം മങ്ങുന്നു. ഗാന്ധി കത്തെഴുത്തു് നിർത്തി ചിന്താധീനനാകുന്നു. പതുക്കെ, ഇരുട്ട്.)

വേനലിൽ കത്തുന്ന ദില്ലിയിലെത്തി
വേവും ഹൃദയവുമായി ഗാന്ധി
ഈച്ചകൾക്കൊപ്പമൊരീച്ചയെപ്പോലെയീ-
ത്തോട്ടികൾക്കൊപ്പം കഴിഞ്ഞു ഗാന്ധി.
ഞെട്ടീ പൂണുനൂലിട്ടവ,രിന്നാടു
കുട്ടിച്ചോറാക്കുമിവനെന്നായ്
ചണ്ഡാലികയുടെ മക്കളിലിന്ത്യയെ
ക്കണ്ടവനുണ്ടോ കൂസുന്നു!
പിന്നാലെ വന്നു ഖദറിട്ട ശിഷ്യന്മാർ,
ഉള്ളിലോ കോട്ടും പാപ്പാസും,
“ഇന്ത്യ സ്വതന്ത്രയാമിപ്പോ,ളതിൽ ഞങ്ങൾ
മന്ത്രിമാർ” എന്നു നുണച്ചിരുന്നോർ.
മുപ്പതു വെള്ളിയ്ക്കൊരാശാനെ വിറ്റതു
നിക്ഷേപമാക്കിപ്പലിശവാങ്ങി
കാറിൽ പറക്കുവാൻ കാത്തിരുന്നോർ—അതി-
നേതൊരുവേഷവും കെട്ടുന്നോർ.
(അർദ്ധനഗ്നനായ ഗാന്ധി “ഭങ്ഗി”കളുടെ കോളനിയിൽ. ചുറ്റിലും ഒരു കൂട്ടം ഖദർ ധാരികൾ. എല്ലാവരും ഗാന്ധിത്തൊപ്പിയണിഞ്ഞിട്ടുണ്ടു്. ഗാന്ധിയെപ്പോലെ കണ്ണടയും മീശയും വെച്ചിരിക്കുന്നു.)
അല്ലേ, മോനേ?

‘ഊർദ്ധ്വബാഹൂർ വിരൗമ്യേഷ
ന ച കശ്ചിൽ ശൃണോതി മേ’:
കൈകളുയർത്തിത്തലയിൽ വെച്ചിങ്ങനെ
നീറിക്കരയുന്നതാരാരു്?
രണ്ടായ് പിളരുന്ന നാടിനെനോക്കിത്ത-
ന്നുള്ളു വേവുന്നവനാരാരു്?
എല്ലാത്തലയും കുലുങ്ങുമ്പോൾ തൻതല,
ലജ്ജിച്ചുതാഴ്ത്തിയതാരാരു്?
എല്ലാവരും പുത്തനുടുപ്പുകൾ തയ്ക്കുമ്പോ-
ളൊന്നുമിടാത്തൊരാളാരാരു്?

ലാത്തികൾ കൈകളൊടിച്ചാലും
തോക്കുകൾ ചീറിയടുത്താലും
തൂക്കുമരങ്ങൾ വിളിച്ചാലും
ഒറ്റയ്ക്കു പോകുന്നു ഗാന്ധി,
ഒറ്റ,യ്ക്കൊറ്റ,യ്ക്കൊറ്റയ്ക്ക്!
കാട്ടുതീയിൻ നടുക്കൊറ്റയ്ക്ക്
കൂറ്റനിരുട്ടത്തുമൊറ്റയ്ക്ക്
ആഴക്കടൽ നടുക്കൊറ്റയ്ക്ക്
ചീറും കൊടുങ്കാറ്റിലൊറ്റയ്ക്കു്
ഒറ്റയ്ക്കൊറ്റയ്ക്കൊറ്റയ്ക്ക്.
ആരും വിളികേൾക്കാനില്ലെന്നോ,
ആരുമൊപ്പം വരാനില്ലെന്നോ
ഒറ്റയ്ക്കൊറ്റയ്ക്കൊറ്റയ്ക്ക്!
ചോരപ്പുഴയിലുമൊറ്റയ്ക്ക്
ഭ്രാന്തിൻ മലയിലുമൊറ്റയ്ക്ക്
കാടന്റെ കുന്തത്തിലൊറ്റയ്ക്കു്
കടുവാതൻ കോർമ്പല്ലിലൊറ്റയ്ക്ക്
ഒറ്റയ്ക്കു പോകുന്നു ഗാന്ധി,
ഒറ്റയ്ക്കൊറ്റയ്ക്കൊറ്റയ്ക്ക്!…!
ഒറ്റയ്ക്കൊറ്റയ്ക്കൊറ്റയ്ക്ക്!…!
(പതുക്കെ ഇരുട്ടു്)

(സ്ക്രീനിൽ വിഭജനകാല ദൃശ്യങ്ങൾ)
കത്തിക്കൊണ്ടെന്നപോൽ വീടു പിളർന്നപ്പോൾ
അച്ഛൻ മകനോടെന്തു പറഞ്ഞു?
‘ഞാൻ വടക്കേപ്പുറം
നീ തെക്കേപ്പുറം’.
അമ്മായിയമ്മമാരെന്തു പറഞ്ഞു?
‘പോ മരുമക്കളേ,
പുത്തൻവീട്ടിൽ!’
ഭൂമി കുലുങ്ങിയീ നാടു പിളർന്നപ്പോൾ
കാമുകൻ പെണ്ണിനോടെന്തു പറഞ്ഞു
‘ഇനി നമ്മൾ കാണില്ല
കരളേ നീയിവിടെങ്കിൽ!’
പട്ടി തൻ പൂച്ചയോടെന്തു പറഞ്ഞു?
‘ഭൗ, ഭൗ, പോടാ പോ
പാകി-സ്ഥാനിൽ!’
ചട്ടി കലത്തിനോടെന്തു പറഞ്ഞു?
‘തറവാടി ഹിന്ദു ഞാൻ
ഇവിടെ വീണുടയും!’
അവസാനമൊന്നിച്ചു ഫോട്ടോയെടുക്കുവാ-
നയൽവാസികൾക്കൊക്കെയവസരം കിട്ടിയോ?
അയൽവാസിക്കയൽവാസി
ശത്രുവായാൽ പിന്നെ
അയൽവക്കം കടലുവിഴുങ്ങിയാലെന്തു്?
* * *
രണ്ടായ് പിളർന്നു ചുവരുകളെല്ലാം
രണ്ടായ് പിളർന്നു മേൽക്കൂര
രണ്ടായ് പിളർന്നു തലച്ചോറും നട്ടെല്ലും
രണ്ടായ് പിളർന്നു ഹൃദയങ്ങൾ
വലതുകൈ ഇടതുകയ്യോടു പറഞ്ഞു:
‘പോകട്ടെ പോകട്ടുടപ്പിറപ്പേ!’
വലതുകണ്ണിടതുകണ്ണോടു പറഞ്ഞു:
‘ഇതിലേ ഞാ, നതിലേ നീ കൂട്ടുകാരി!’
ഒരു ചെവി മറുചെവിയോടു പറഞ്ഞു:
‘ഇരു ചെവിയറിയാതെ-
യിണ പിരിഞ്ഞാലോ?’

ഒരു കാൽ പടിഞ്ഞാറോ-
ട്ടൊരുകാൽ കിഴക്കോട്ടും,
വഴിതാണ്ടാനാവാതെ
കുഴയുന്നു നാട്ടാർ.
(ഒരു മുസ്ലീം ഭവനം. ഉമ്മയും രണ്ടു മക്കളും.)
(ഡെൽഹിയിലെ ഒരു ഗവൺമെന്റോഫീസ്)

സത് ശ്രീ അകാൽ!
അള്ളാഹു അക്ബർ!
ജയ് ശ്രീറാംജി, ജയ് ശ്രീറാം!
(ആവർത്തിക്കുന്നു)
ഓ… ജൂലൈ, ജൂലൈമാസം!
രക്തത്തിൻ ജൂലൈമാസം!
അമൃതസരസ്സിനെ
മൃതിയുടെ മരുവായ് മാറ്റിയ ജൂലൈ!
അറ്റ ശിരസ്സുകളുരുളുന്നു
പാതിരയും പകലാക്കിത്തെരുവിൽ
വാളുകൾ, വാളുകൾ, മിന്നുന്നു!
(വെളിച്ചം തെളിയുമ്പോൾ ഒരുകൂട്ടം സിഖുക്കാരെ അഭിസംബോധന ചെയ്യുന്ന മാസ്റ്റർ താരാസിങ്.)

രണ്ടു നാളുകൾ മാത്രം സ്വാതന്ത്ര്യത്തിലേയ്ക്കിനി-
യിന്ത്യക്ക്—പൊങ്ങും ശവക്കൂനയ്ക്കുമീതേ സൂര്യൻ
എത്തുകയായീ കാളീഘട്ടത്തിൽ ഗാന്ധി;
മാറിൽ
രക്തമിറ്റിടും ശിരസ്സുകൾ മാലയായ് കോർത്തും.
നേത്രത്തിൽ തീപാറിയും വാൾചുഴറ്റിയും, നിണ-
ദംഷ്ട്രയും നാവും നീട്ടി കൽക്കത്തയെതിരേറ്റു.
(കൽക്കത്ത. ഹൈദരീ ഹൗസ്. കാറിൽ നിന്നിറങ്ങി ഹൈദരീ ഹൗസിലേയ്ക്കു പോകുന്ന ഗാന്ധി. ഗാന്ധിയുടെ നേരെ പാഞ്ഞുവരുന്ന കല്ലുകളും ചെരുപ്പുകളും പഴത്തൊലികളും. ആൾക്കൂട്ടത്തിന്റെ ശബ്ദങ്ങൾ.)
ഗാന്ധി തിരിച്ചുപോവുക!
ഗാന്ധി ഹിന്ദുക്കളുടെ ഘാതകൻ!
ഗാന്ധി മുസ്ലീങ്ങളുടെ രക്ഷകൻ!
പോവുക പോവുക ഹിന്ദുക്കൾതൻ
ജീവൻ കാക്കാൻ, നവഖലിയിൽ!
ഞങ്ങളെ നോക്കാൻ ഞങ്ങൾക്കറിയാം
വേണ്ടാ കിഴവാ സുവിശേഷം!
(ഗാന്ധി ഒരു കയ്യുയർത്തുന്നു. പിന്നീടു് ജനക്കൂട്ടത്തെ തൊഴുന്നു. ശബ്ദങ്ങൾ താണുവരുന്നു.)

‘നേരം പുലർന്നുവോ?’ ചോദിപ്പൂ പാടത്തു
ചേറിൽ നിന്നും തളർന്നായിരം മൈനകൾ.
‘നേരം പുലർന്നതാർക്കെ’ന്നു ചോദിച്ചു
പാറുന്നു യന്ത്രശാലയ്ക്കകം കാക്കകൾ.
‘വയ്യ വയ്യിന്നിയും ഭാരം’, അമറുന്നു
എല്ലുന്തി വേർത്താർത്തുവേച്ചു പോം കാളകൾ.
ഏറെയുണ്ടേറെക്കിനാക്കൾ: ഉദിക്കുന്ന-
താരാണു ധീരർതൻ ചോരയിൽ, രാത്രിയോ?
ഈ നാടകത്തിന്റെ നായകനാരിതിൻ
സാരമെ,ന്തെന്തിതിന്നന്ത്യത്തിൽ, മൃത്യുവോ?
(ഒരു ഗ്രാമീണകുടുംബം വഴിയോരത്തെ ഒരു കലുങ്കിൽ)
കരിയുറുമ്പണി ചേർന്നു് പോയ് പടയ്ക്ക്
കരയിലും കടലിലും പൊരുതി നിന്നൂ
കരളിലും കുടലിലും പൊരുതി നിന്നു
കുടിയും വയലും തിരിച്ചെടുത്തു
തുടിയും ചുവടും തിരിച്ചെടുത്തു
മലയും പുഴയും തിരിച്ചെടുത്തു
മഴയും മൊഴിയും തിരിച്ചെടുത്തു
കുളമേഴിലും പോയ് കുളിച്ചുവന്നു
അഴകിൽ കിരീടമണിയുവാനായ്
കരിയുറുമ്പണിചേർന്നു ചെന്ന നേരം…
കരിയുറുമ്പണിചേർന്നു ചെന്ന നേരം
കളവുപോയ് കളവുപോയാക്കിരീടം
ചതിയിലെതിരാളി കൈക്കലാക്കി…
(തലകുനിച്ചു് നടക്കുന്നു. മറ്റുള്ളവരും. ഇരുട്ട്.)



നിന്നെയൊരു നോക്കു കാണുവാനേ
പൊന്നനിയാ ഞാൻ വിരുന്നു വന്നു.
നിന്നെച്ചുമന്ന തയമ്പു കാണു-
മെന്റെ ചുമലെല്ലിലിന്നു പോലും.
നമ്മളൊരാപ്പിളിനായ് വഴക്കി-
ട്ടന്നു കടിച്ചു നീയെന്നെ യാപ്പാ-
ടിന്നുമുണ്ടെന്റെയിടതുകയ്യിൽ.
പിന്നെയവയോർത്തെത്ര നീ കരഞ്ഞു!
ഒന്നിച്ചു നാമെത്ര കുന്നുകേറി!
ഒന്നിച്ചു താഴെപ്പുഴയിൽ നീന്തി!
ഉമ്മയ്ക്കു കണ്ണായ് നീ, ഞാൻ വലതു-
കയ്യായി; പിന്നെപ്പിരിഞ്ഞു നമ്മൾ.
ഭാഗം പിരിഞ്ഞാലും കുഞ്ഞനിയൻ
പോകുമോ ചേട്ടന്റെ നെഞ്ചിൽ നിന്നും?
മുൾവേലിക്കെട്ടിനു സോദരരെ-
ത്തമ്മിലകറ്റുവാനാകുമെന്നോ?
നീയുണ്ടതിർത്തിയിലെന്നു കേട്ടേ
ഞാനെത്തി മഞ്ഞിൻ മലകൾ താണ്ടി.
ചീനാർ മരത്തിന്റെ ചോട്ടിൽ നിന്നു
നീ തന്നെയെന്നു ഞാൻ തീർച്ചയാക്കി.
പിന്നിൽ നിന്നെത്തി ഞാൻ കണ്ണുപൊത്താൻ
കുഞ്ഞായിരുന്നപ്പോഴെന്ന പോലെ.
നിന്നെയൊന്നാഞ്ഞു പുണരുവാനേ
പൊന്നനിയാ ഞാൻ വിരുന്നു വന്നു.
എൻ നെഞ്ചിൽ നിന്നുമൊഴുകി വീഴും
ചെഞ്ചോര നിന്നെ പുണർന്നിടട്ടെ.
മൃത്യുവിൽ നീലിച്ച ചുണ്ടുകൊണ്ടാ
നെറ്റിയൊന്നേട്ടൻ മുകർന്നിടട്ടെ.
(പിന്നിൽ നിന്നു് ഒരുപാടു പട്ടാളബൂട്ടുകളുടെ ശബ്ദം. അതു് ഉച്ചസ്ഥായിയിലെത്തിയപ്പോൾ, ഇരുട്ടു്.)

പൂനയിലന്നേരമെന്തു നടന്നു?
പൂനയിൽ മറ്റൊരു മേള നടന്നു.
മേളയിലാരാരു വന്നു നിരന്നു?
മാളത്തിൽ നിന്നു കരിമൂർഖൻ വന്നു.
കണ്ണീരൊഴുക്കി മുതലകൾ വന്നു
പൊന്തയിളക്കിക്കുറുക്കന്മാർ വന്നു.
ചീങ്കണ്ണി സ്രാവിനോടെന്തു പറഞ്ഞു?
‘ഈ രാജ്യം നമ്മുടെ മാത്രം’
അപ്പോൾ പെരിച്ചാഴിയെന്തു പറഞ്ഞു?
‘നമ്മൾ മനുവിൻ ശരിപ്പിന്മുറക്കാർ’.
ചാണകപ്പുഴുവപ്പോഴെന്തുമൊഴിഞ്ഞു?
‘ചാണക്യസൂത്രം നടപ്പാക്കും നമ്മൾ’.
കാട്ടെലി കോക്കാനോടോതി: ‘ഞാനിപ്പോൾ
ഹിറ്റ്ലറെപ്പോലെ പറന്നുകാണിക്കാം’.
വെറ്റിലപ്പാമ്പും മുസ്സോലിനിയായി,
കുട്ടിത്തേവാങ്കുകൾ മീശപിരിച്ചു.
(പൂനയിലെ ഒരു രഹസ്യ കേന്ദ്രം. കാക്കി നിക്കറും ഷർട്ടുമിട്ടു് കയ്യിൽ ലാത്തികളുമായി ഒരു കൂട്ടമാളുകൾ ഡ്രിൽ നടത്തുന്നു. ഡ്രിൽ അവസാനിക്കുമ്പോൾ ഗോദ്സേ കൊടിമരത്തിൽ പതാകയുയർത്തുന്നു. പതാകയുടെ നിറം ഓറഞ്ചു് സ്വസ്തിക.)
(പിന്നിലത്തെ സ്ക്രീനിൽ: ‘ഹൈദരീ ഹൗസ്,
കൽക്കത്ത’ പുലരി.)
എല്ലാവീട്ടിലും ദീപാവലി,യെന്നാ-
ലിങ്ങൊരു വീട്ടിലിരുട്ടെന്നോ?
എല്ലാ ഹൃദയവുമൂഞ്ഞാലിലാടുമ്പോ-
ഴിങ്ങൊരു നെഞ്ചം കുരിശിലെന്നോ?
എമ്പാടും ചെണ്ടയും പൂരക്കൊടികളു-
മിങ്ങൊരാൾക്കില്ലെന്തേ മിണ്ടാട്ടം?


ബുദ്ധനെ നാടുകടത്തി ഞങ്ങൾ–ഓഹൊ!
ക്രിസ്തുവിനേകി പിറന്നാൾ സമ്മാനം-
ഒരു പുത്തൻ കുരിശ്!—ഓഹൊ!
എന്തിനുപോയീ ബനിയാ-നീ
ആഫ്രിക്കൻ കാട്ടിൽ?-ആവോ!
എന്തിനു ചുമലിൽ വലിച്ചു കയറ്റി
സ്വാതന്ത്ര്യത്തിൽ സമരം-ആവോ!
നിന്റെ കുലത്തൊഴിൽ കച്ചവടം-അതുപോരേ?
പണ്ടം പണയം വാങ്ങി,പ്പലിശയുമെണ്ണി-
ക്കാൽപ്പെട്ടിയ്ക്കരികിലിരുന്നാൽ പോരേ!
അല്ലേൽ വക്കീൽപ്പണിചെയ്തീ നാട്ടിൽ
കള്ളമാരെക്കാത്താൽപ്പോരേ?
ഛായ്, പൊല്ലാപ്പ്.
നിന്നെത്തട്ടാൻ നല്ലൊരു വഴി
കാണാതെ, കണ്ടെത്താതെ,യിരുന്നിടുമെന്നോ
അദ്വൈതത്തിൻ നാട്ടാർ?
വിഷം-അല്ലെങ്കിൽ കുരിശു്.
കുരിശല്ലെങ്കിൽ കയറു്
കയറല്ലെങ്കിൽ തോക്ക്! ഹാ, നിറതോക്കു്!
(വെളിച്ചം മങ്ങുന്നു)

പള്ളിയിലാണു ദൈവം,
പാർക്കുവതെങ്കിൽ പാരി-
ലുള്ള മറ്റിടങ്ങളി-
ലാരുവാൻ പാർത്തീടുന്നു?
വിഗ്രഹം തന്നിൽ പുണ്യ-
സ്ഥലത്തിലേവം രാമൻ
ഉണ്ടാവില്ലൊരേനേരം
രണ്ടിടത്തൊരേമട്ടിൽ.
ഹരിയോ കിഴക്കുതാൻ,
‘അള്ളാ’യോ പടിഞ്ഞാറും-
പൊളിയാണിതു, തേടു
നിൻ കരൾക്കകം തന്നിൽ
രാമനും റഹിമാനും
നിത്യമായ് വസിക്കുന്ന-
തേതിടത്തെന്നോ? നിന്റെ
പാവനഹൃദയത്തിൽ.
(വെളിച്ചം മങ്ങുന്നു.)

അങ്ങു മരിക്കരുത്, ബാപ്പു, അങ്ങു മരിച്ചാൽ പിന്നെ ഞങ്ങൾക്കാരുണ്ടു്? ഹിന്ദുക്കൾ ഞങ്ങളെ ജീവനോടെ വച്ചേക്കുമോ?(കുട്ടികളേപ്പോലെ വിതുമ്പുന്നു.)

പനിനീരിലാദ്യം കിളിർത്ത മൊട്ടു
വിരിയുവാനവർ കാത്തുനിന്നതില്ല
വയലിൽ നീർതേവി നനച്ച നെല്ലിൽ
കതിരിൻ കനകം വിളഞ്ഞതില്ല
കടുകിന്റെ പാടങ്ങൾ പൂത്തതില്ല
മധുരം കരിമ്പിൽ നിറഞ്ഞതില്ല
അതിനുമുമ്പല്ലോ മരണമെത്തി
അയൽ കത്തി, തീ സ്വന്തം പുരയിലെത്തി
ഇടതു കൈവെള്ളയിൽ പ്രാണനേറ്റി
വലതുകയ്യിൽ പൊന്നുമോളെയേറ്റി
പടിപൂട്ടിയൊന്നു തിരിഞ്ഞുനോക്കി-
ച്ചെറുമുറ്റത്തൊരു കണ്ണീർ തുള്ളി വീഴ്ത്തി
വഴിയിൽകഴിക്കാനുണക്കറൊട്ടി-
പ്പൊതിയും ലൊടുക്കും തടുക്കുമേറ്റി
ഹൃദയത്തിൽ സ്വപ്നത്തിൻ ചിതകളേറ്റി
നിണമൊലിക്കും വേരറുത്തുമാറ്റി
സ്മരണയിൽ താരാട്ടുപൂത്തിറങ്ങി
എവിടേയ്ക്കെന്നില്ലാതെയിവരിറങ്ങി.
ഒരു കത്തിമുനയിലൂടിവർനടപ്പാ-
ണൊരു തണൽ തേടി, വെയിലിലൂടെ
അവമതിതൻ ചോരകഴുകുവാനാ-
യൊരു പുഴതേടി മണലിലൂടെ.
അങ്ങോട്ടുപോകുവോർ കേട്ടുനില്പാ-
ണിങ്ങോട്ടുപോരുവോർ തൻ കരച്ചിൽ
ഇങ്ങോട്ടുപോരുവോർ കണ്ടു നില്പാ-
ണങ്ങോട്ടുപോകുവോർ തൻ പിടച്ചിൽ.
(സ്ക്രീനിൽ: “ന്യൂ ഡെൽഹി, 1947 സെപ്തം. 9”)
കത്തുന്നു ദില്ലി, ഗാന്ധി
വിതുമ്പും മനസ്സുമാ-
യെത്തുന്നു കൊലക്കൊതി-
യലറും വഴികളിൽ.
വിഷമേ വെള്ളത്തിലും
കാറ്റിലും; വിദ്വേഷത്തിൽ,
വിഷമേ വിചാരത്തിൽ,
വാക്കിലും കർമ്മത്തിലും.
(ഗാന്ധി കൂക്കിവിളിക്കുന്ന ഒരാൾക്കൂട്ടത്തിനു നടുവിൽ)
രഘുപതി രാഘവരാജാറാം
പതീത പാവന സീതാറാം.
ഈശ്വര് അള്ളാ തേരേ നാം
സബ്കോ സൻമതി ദേ ഭഗവാൻ.
(കുറേപ്പേർ ഏറ്റു പാടുന്നു)
ഒലിവുമലകളിലൊരുനാൾകണ്ണീ-
രൊഴുക്കിയൊരുവൻ പ്രാർത്ഥിച്ചൂ
തിരിച്ചെടുക്കുക തിരിച്ചെടുക്കുക
ചവർപ്പു മുറ്റിടുമീക്കോപ്പ.
തിരിച്ചെടുക്കുകയെനിക്കുവേണ്ടി
നിറച്ചുവെച്ച വിഷക്കോപ്പ…
(സ്ക്രീനിൽ ഒലിവുമലയിലെ ക്രിസ്തുവിന്റെ ചിത്രം)
(നെഹ്റുവും പട്ടേലും പ്രവേശിക്കുന്നു, കയ്യിൽ പൂച്ചെണ്ടുകൾ)
(ഗായകസംഘം പാടുന്നു)
പടയോട്ടമെല്ലാം, ജയിക്കുന്നതാരു്?—ആണു്
കനകസിംഹാസനം കയറുന്നതാരു്?—ആണു്, ആണു്
പടകളെപ്പാലൂട്ടിപ്പോറ്റിയതാരു്?—പെണ്ണു്
പണയമായ് പലകമേൽ വീഴുന്നതാരു്?
—പെണ്ണു്, പെണ്ണു്.
നായകൻ വീരപ്പതക്കങ്ങൾ വാങ്ങാൻ
രാജകൊട്ടാരത്തിൻ കോണി കേറുമ്പോൾ
താഴെ വിധവതൻ വെള്ളവസ്ത്രത്തിൽ
മൂടിത്തലതാഴ്ത്തിത്തേങ്ങുന്നതാരു്?—പെണ്ണു്, പെണ്ണു്
പ്രണയവും യാചിച്ചുവന്നെത്തുവോൾതൻ
മുലകളും മൂക്കും മുറിക്കുന്നതാരു്?—ആണു്, ആണു്
അരചനാം പുരുഷന്റെയന്തസ്സു് കാക്കാൻ
നിറവയറായ് കാട്ടിലലയുന്നതാരു്?—പെണ്ണു്, പെണ്ണു്.
മുറുകുന്നോരടരിന്റെ കഥകേട്ടു കേട്ടു്
പുളകമണിയാൻ മനയിലാർ നിന്നു?—ആണു്, ആണു്
ചുടുചോരയിൽ വീണു മക്കൾ പിടഞ്ഞ
പടനിലപ്പൊടിയിലുരുണ്ടവളാരു്?—പെണ്ണു്, പെണ്ണു്
കണവി മരിച്ചാലാരെരിയുന്നു ചിതയിൽ?
—പെണ്ണതു പെണ്ണു്
കണവൻ മരിച്ചാലാരെരിയുന്നു ചിതയിൽ?
പെണ്ണതു പെണ്ണു്
ലഹളയിൽ മാനംകെട്ടുഴലുന്നതാരു്?
—പെണ്ണാണു്, പെണ്ണു്
അവളെ വിലകെട്ടി വാങ്ങുന്നതാരു്?
—ആണാ,ണൊരാണു്.
ഖിമ വിഹുനെ ഖാപ് ഗായെ
ഖുഹനീ ലാഖ് അസംഖ്…
ക്ഷമകൈവിട്ടവർ നാശമടഞ്ഞവർ അസംഖ്യലക്ഷങ്ങൾ;
പരമാത്മാവിനെയറിഞ്ഞ മുക്തർ ബന്ധനമറിയാത്തോർ…

(സ്ക്രീനിൽ: പൂന, 47 നവംമ്പർ 1)
കത്തിരാവുകയാണു നാടിൻ
ശത്രു: കരുതിയിരിക്കുക!
സ്വസ്തികക്കൊടി പൊക്കിയാദൂർ-
ബുദ്ധി: കരുതിയിരിക്കുക!
മൂടുമേ മിഴി വീരഗാഥകൾ
പാടി: കരുതിയിരിക്കുക!
ഗീതയോതി വിഷം നിറയ്ക്കും
ചോര: കരുതിയിരിക്കുക!
പൂണുനൂലാൽ കുരലറുക്കും
ജാതി: കരുതിയിരിക്കുക!


അപരരുടെ വേദനകളവനവന്റേതെന്നു
കരുതുന്നതാർ, ആരു ദുരിതങ്ങൾ പേറുന്ന
മനുജരെയഹംഭാവമില്ലാതെ സേവിപ്പ-
തവനീശ്വരന്നുപ്രിയങ്കരൻ, വൈഷ്ണവൻ.
ഒരുവനെയുമവമതിയ്ക്കാത്തതാർ, അതിരറ്റ
വിനയമാകുന്നതാർ, സാത്വികൻ, സ്ഥിരവാക്കു,
സ്ഥിരചിത്തനാർ-ഇത്തരം മർത്ത്യരെപ്പെറ്റ
ജനനിമാരേ ഭാഗ്യവതികളീയൂഴിയിൽ
അവനില്ല ലോഭം; എല്ലാ സ്ത്രീയുമവനമ്മ.
അവനാണു നേരിന്റെ വഴിയിൽചരിപ്പവൻ
അപരന്റെ സ്വത്തിൽ തൊടാത്തവൻ, നിർമ്മമൻ,
ഇഹലോകമധുരങ്ങളിൽ മയങ്ങാത്തവൻ
അവനാഗ്രഹങ്ങളെ ജയിച്ചവ, നൊരാളെയും
ചതിയിൽ വീഴ്ത്താത്തവൻ, രാഗവും കോപവും
അവനി,ല്ലവൻ ദൈവചിന്തയിൽ ലയിച്ചവൻ
പറയുന്നു നരസിംഹ, മവനിലെപുണ്യവും
പരിശുദ്ധിയും വീണ്ടുമുണരുന്നു, ദൈവത്വ-
മുടലാർന്നതാണവൻ അവനെ ദർശിപ്പതേ-
യനുഭൂതി, വംശാവലിയ്ക്കുബോധോദയം
കുളിരിന്റെ കൊമ്പുള്ള ജനുവരിക്കാറ്റിന്റെ
മുതുകേറിയണയുന്നു മരണം
യമദൂതുമായൊത്തു കൂടുന്നു നാലുപേർ
തലവന്റെ സന്നിധാനത്തിൽ
ഹരിതമാം ശാന്തിതൻ സ്വപ്നങ്ങളരിയുന്ന
കരവാൾ തിളക്കിക്കിലുക്കി.
പിറുപിറുക്കുന്നു പ്രണയികൾ പോലവർ-
മരണസല്ലാപമെന്താവാം?
എന്താവാം?




ഗുരുവായി മറ്റാരുമില്ലാത്തോ-
നൊരു ഗുരു സ്വന്തം മനസ്സല്ലോ.
അനുയായിയായാരുമില്ലാത്തോ-
നനുയായി തന്റെ കാലടിയല്ലോ
വാക്കിനു മുന്നാലെ ചിന്തിച്ചാൽ
വാക്കൊഴിവാക്കുവാൻ കഴിയില്ല
വാക്കിനുപിന്നാലെ ചിന്തിച്ചാൽ
വാക്കുമാറ്റാതെയും വഴിയില്ലാ
തെറ്റുകളൊന്നും പറയാത്തോ-
രൊന്നും പറയാത്തോരാണല്ലോ.
തെറ്റുകളൊന്നുമേ ചെയ്യാത്തോ-
രൊന്നുമേ ചെയ്യാത്തോരാണല്ലോ
അമ്മ പെറ്റുള്ളവനാണല്ലോ ഗാന്ധിയും
മണ്ണിൽ മുതിർന്നവനാണല്ലോ
ഏറെക്കുറവുള്ളോനാണെന്നാൽ
ഏറെ നിറവുള്ളോനാണല്ലോ
ഒരു കണ്ണീർക്കടലുകുടിച്ചോനായ്
ഒരുതുള്ളിക്കണ്ണീർ പൊഴിച്ചാലും!
ഒരു കാട്ടുതീയിലെരിഞ്ഞോനായ്
ഒരു കൊള്ളി ഉള്ളിലെരിച്ചാലും!
എത്രയെളുപ്പം വിമർശിക്കാൻ!
എത്ര പ്രയാസം പ്രവർത്തിക്കാൻ!
(ബിർളാമന്ദിരം ഒരു പ്രാർത്ഥനായോഗം ഗാന്ധിജി ഒരു കമ്പിളി പുതച്ചു് കസേരയിലിരിക്കുന്നു.)
“എങ്ങനെ ഞാനതു ചൊല്ലുന്നു വ്യക്തമായ്
എങ്ങും നിഗൂഢമായ് വർത്തിക്കുമാപ്പദം
ഇങ്ങനെയല്ലപോൽ, ഇങ്ങനെയാണുപോൽ,
ഇങ്ങനെയെല്ലാം പറയുന്നതെങ്ങനെ!
എന്നിലാണുള്ളതെന്നോതിയാലപ്പോഴേ
നിർണ്ണയം നാണിച്ചുപോമീ പ്രപഞ്ചവും.
എന്നിലല്ലെൻ പുറത്താണെന്നു
ചൊൽകിൽ, അ-
തൊന്നാന്തരം നുണയാണെന്നു വന്നിടും…
ലീനവുമല്ല, വിശദവുമല്ലതു
നൂനം വെളിപ്പെടി,ല്ലല്ലാ മറഞ്ഞൂമേ.”

(പിൻതിരശ്ശീലയിൽ, ‘താനാ, ബോംബേ’)
പല്ലുകൊഴിഞ്ഞോ കടുവകൾ,ക്കിന്നിയീ
പ്പൊല്ലാപ്പുവേണ്ടെന്നു വെച്ചെന്നോ?
ഇല്ലില്ലം ചോരക്കൊതിയുമായ് പിന്നെയും
കൊല്ലാനവരൊത്തു ചേർന്നല്ലോ
ഇക്കുറി തോൽക്കില്ല തോൽക്കില്ലയെന്നവർ
രക്തപ്രതിജ്ഞയെടുത്തല്ലോ.
ഒറ്റയ്ക്കു വീരപുരുഷനാകാനൊരാൾ
തറ്റുമുടുത്തു കുതിച്ചല്ലോ
എല്ലാപ്പയറ്റിലും തോറ്റവനീക്കുറി
വെള്ളിവാളേറ്റിയുറഞ്ഞല്ലോ.

ഉമ്മവെയ്ക്കുക മൂർദ്ധാവിൽ
നിന്നയൽക്കാരെയൊക്കെയും
ക്രിസ്ത്യൻ, മുസ്ലിം, ശിഖൻ, ബുദ്ധൻ,
ഹിന്ദു, പാഴ്സി, നിരീശ്വരൻ,
ഒരേ തായ്ത്തടിയിൽനിന്നു
വിരിഞ്ഞുണ്ടായ ചില്ലകൾ
ഒരേ മണ്ണിൻ നൂറൊരൊറ്റ
ക്കടലിന്നുപ്പുമുണ്ണുവോർ.
ഇതൈക്യത്തിൻ പെരുന്നാൾ, നാം
മാറു മാറോടണയ്ക്കുക.
സ്നേഹത്തിൻ മിഴിനീർപെയ്താ-
ച്ചോരക്കറകൾ മായ്ക്കുക
ഒരേ രക്ത,മൊരേ സ്വപ്നം
ഒരേചുവ,ടൊരേ സ്വരം
ഒരേ മന,മൊരേ ഗാനം
നമുക്കെന്നു സ്മരിക്കുക!
ഇതൈക്യത്തിൻ തിരുനാൾ, നാം
തോളുതോളോടുചേർക്കുക.

ചൽ ചൽ ചൽ!
ഊർധ്വഗഗനേ ബാജേ മാദൽ
നിമ്നേ ഉതലാ ധരണീതൽ
അരുൺ പ്രാതേർ തരുൺദൽ
ചർലേ, ചർലേ, ചൽ!
(കൈകോർത്തുപിടിച്ചുപോകുന്നു)

കുളിരിന്റെ കൊമ്പുള്ള ജനുവരിക്കാറ്റിന്റെ
മുതുകേറിയണയുന്നു മരണം
പുതുമണ്ണിൽ, തായ്വേരിൽ, തളിരിലും ചെഞ്ചോര
ചിതറിത്തെറിപ്പിക്കും മരണം.
പുതുമഞ്ഞിൻ പുലരിയിൽ,
സന്ധ്യയിൽ ചാവിന്റെ
മണവുമായണയുന്ന മരണം.
വചനത്തിൽ ഗാനത്തിൽ, മൗനത്തിലും നിറ-
ഞ്ഞുറയും ചിലമ്പുമായ് മരണം.
കുളിരിന്റെ കൊമ്പുള്ള ജനുവരിക്കാറ്റിന്റെ
മുതുകേറിയണയുന്നു മരണം.
വിശ്രമമരുതേ പോരാളി, അതി-
ഹ്രസ്വം ഭൂമിയിൽ വാസം!
വിശ്രമമരുതേ തേരാളി, അതി-
ദീർഘം ദുർഗ്ഗമമീ മാർഗ്ഗം.
“രാത്രി കാവൽക്കാരനെത്ര ദീർഘം, ക്ഷീണ
യാത്രികന്നോ പഥം ദീർഘം
ധീരന്നു മിന്നൽപ്പിണർ പോലെ ജീവിതം,
പാതിരാ ഭീരുവിന്നെന്നും!”
നീലവാനു പിളർന്നുവന്നൊരു
ധൂമകേതുവിൽ നിന്റെ വീടു തകർന്നു വീഴുമ്പോൾ,
തീരുമാനിക്കൂ, ദൈവം വരികയായ്
നിന്നരികിലെന്നു്.
വൻദുരന്തമുയർന്നു നിന്നെത്തൂത്തുമായ്ക്കുമ്പോൾ
കേവലം ദൈവവും നീയും ബാക്കിയാകുമ്പോൾ
തീരുമാനിക്കൂ, ദൈവം വരികയായ്
നിന്നരികിലെന്നു്.
നുണകളെന്നെന്നേയ്ക്കുമൂരിയെറിഞ്ഞു നിന്നുടെ
വചനമാകെ നഗ്നമാകുമ്പോൾ
തീരുമാനിക്കൂ, ദൈവം വരികയായ്
നിന്നരികിലെന്നു്.
നൂറുനൂറായ് നിന്റെ ജീവൻ വീണുടഞ്ഞെങ്കിൽ,
വീണ്ടുമൊന്നായ് കൂട്ടിവെയ്ക്കാൻ
വഴിയുമില്ലെങ്കിൽ,
തീരുമാനിക്കൂ, ദൈവം വരികയായ്
നിന്നരികിലെന്നു്.
ആശയൊക്കെയുമറ്റുവെങ്കിൽ,
സ്വന്തമെന്നുപറഞ്ഞിടാനായൊന്നു-
മില്ലാതായിയെങ്കിൽ,
തീരുമാനിക്കൂ, ദൈവം വരികയായ്
നിന്നരികിലെന്നു്.
ഉലകമാകെ നിനക്കു മുമ്പിൽ
പടികൾകൊട്ടിയടച്ചുവെങ്കിൽ
അപ്പൊഴും നിൻ വചനചാതുരി
നിർഭയം നിന്നൊപ്പമെങ്കിൽ,
തീരുമാനിക്കൂ ദൈവം വരികയായ്
നിന്നരികിലെന്നു്.

(പ്രകാശം. ‘പ്രതിമ’യുടെ ശൂന്യമായ പീഠം കാണിക്കുന്നു. ‘പ്രതിമ’ ഇപ്പോൾ കുട്ടികളുടെ തോളിൽ കയ്യിട്ടു് പതുക്കെ നടക്കുകയാണു്. പിറകിൽനിന്ന്:)
ഞങ്ങൾ വരും
ഒരു പുതിയ തലമുറ
ചക്രവർത്തിയുടെ മേൽമീശയും യുദ്ധമുദ്രകളുമായല്ല
ഭൂഖണ്ഡങ്ങളിലെ കണ്ണീർ പ്രവാഹങ്ങളിൽനിന്നു്
ഊറ്റിയെടുത്ത രോഷത്തിന്റെ വൈദ്യുതിയുമായി വരും
അയൽക്കാരന്റെ സ്വാതന്ത്ര്യത്തിനുമീതേ
ഉരുളുന്ന പീരങ്കിയായല്ല ഞങ്ങൾ വരിക
നെടുവീർപ്പുകളുടെ കുതിരപ്പുറത്തു്
നീതിയുടെ ദൂതുമായി വരും
കൊലപാതകിയുടെ വാൾത്തിളക്കവും
ചാരന്റെ വിഷം നിറച്ച മൗനവുമായല്ല ഞങ്ങൾ വരിക
അനാഥനിൽ നിന്നു് അനാഥനിലേക്കു്
കൈമാറപ്പെടുന്ന
രഹസ്യസ്വപ്നമായി വരും
കറുത്തവനും കറുത്തവനും ആശ്ലേഷിച്ചുണ്ടാകുന്ന
വർണ്ണമഹിമയെ ചാമ്പലാക്കുന്ന ഇടിമിന്നലായിവരും
സ്ത്രീസ്ത്രീയുടെ കാതിൽ മന്ത്രിക്കുന്ന വൃഥകളുടെ
തിരമാലകളിൽനിന്നു്
ഞങ്ങൾ അമൃതുപോലെ പൊന്തിവരും
വെടിയേറ്റ കുഞ്ഞിന്റെ കയ്യിൽനിന്നു് തെറിച്ചുവീണ
കളിപ്പാട്ടം പോലെ ചിതറിപ്പോയ
ഞങ്ങളുടെ നാടുകളിൽ നിന്നു്
ഞങ്ങൾ പരസ്പരം മൂറിപ്പാടുകൾ നിറഞ്ഞകൈനീട്ടും
ഇല്ല, സ്വർണ്ണത്തിന്റേയും ദുരധികാരത്തിന്റേയും പകൽ
നീണ്ടുനിൽക്കുകയില്ല
അഭയാർത്ഥികളുടേയും അനാഥന്റേയും
രാത്രിയും നീണ്ടുനിൽക്കുകയില്ല
ഞങ്ങൾ ഭൂമിയെ അവകാശമാക്കും
തത്തകൾക്കും മണ്ണിരകൾക്കും
ഒലീവുമരങ്ങൾക്കുമൊപ്പം
ഞങ്ങൾ.
കർട്ടൻ
കലിഗ്രഫി: എൻ. ഭട്ടതിരി
ചിത്രങ്ങൾ: മധുസൂദനൻ, വി. ആർ. സന്തോഷ്
മലയാളത്തിലെ പ്രമുഖ കവിയായ സച്ചിദാനന്ദൻ (ജനനം: മേയ് 28, 1946) തൃശൂർ ജില്ലയിലെ കൊടുങ്ങല്ലൂരിലാണ് ജനിച്ചത്. ജനകീയ സാംസ്കാരിക വേദിയിലെ സജീവ പങ്കാളിയായിരുന്ന സച്ചിദാനന്ദൻ കേന്ദ്ര സാഹിത്യ അക്കാദമിയുടെ സെക്രട്ടറിയായും പ്രവർത്തിച്ചിട്ടുണ്ട്. 2010–ൽ കേരളസാഹിത്യ അക്കാദമി വിശിഷ്ടാംഗത്വം നൽകി ആദരിച്ചു. 2012-ൽ കേന്ദ്രസാഹിത്യ അക്കാദമി അവാർഡ് മറന്നു വച്ച വസ്തുക്കൾ എന്ന കവിതാസമാഹാരത്തിനു ലഭിച്ചു. കേന്ദ്രസാഹിത്യ അക്കാദമി പ്രസിദ്ധീകരണമായ ഇന്ത്യന്‍ ലിറ്ററേച്ചറിന്റെ എഡിറ്ററായിരുന്നു.
സച്ചിദാനന്ദന്‍ തർജ്ജമകളടക്കം അമ്പതോളം പുസ്തകങ്ങൾ രചിച്ചു. തന്റെ തനതായ ശൈലിയിലൂടെ, വിശ്വസാഹിത്യത്തിലെ പുരോഗമന ശബ്ദങ്ങളായ അന്റോണിയോ ഗ്രാംഷി, പാബ്ലോ നെരൂദ, മെഹ്മൂദ് ഡാർവിഷ്, യെഹൂദ അമിച്ചായി, യൂജിനിയോ മൊണ്ടേൽ തുടങ്ങിയവരുടെ രചനകളെ, കേരളത്തിലെ സാഹിത്യ പ്രേമികൾക്കു പരിചയപ്പെടുത്തി. 1989, 1998, 2000, 2009, 2012 വർഷങ്ങളിൽ കേരള സാഹിത്യ അക്കാദമി അവാർഡിന് അർഹനായി. 1995 വരെ ഇരിങ്ങാലക്കുട ക്രൈസ്റ്റ് കോളെജിൽ ഇംഗ്ലിഷ് പ്രൊഫെസർ ആയി ജോലി നോക്കി. 1996 മുതൽ 2006 വരെ കേന്ദ്ര സാഹിത്യ അക്കാദമിയുടെ സെക്രട്ടറിയായി സേവനമനുഷ്ഠിച്ചു. ഇപ്പോൾ ഇന്ദിരാഗാന്ധി ഓപ്പൺ യൂണിവേർസിറ്റിയിൽ ട്രാൻസ്ലേഷൻ വകുപ്പിൽ പ്രൊഫസ്സറും വകുപ്പു മേധാവിയും.
എഴുത്തച്ഛനെഴുതുമ്പോൾ, സച്ചിദാനന്ദന്റെ കവിതകൾ, ദേശാടനം, ഇവനെക്കൂടി, കയറ്റം, സാക്ഷ്യങ്ങൾ, അപൂർണ്ണം, വിക്ക്, മറന്നു വച്ച വസ്തുക്കൾ, വീടുമാറ്റം, മലയാളം, കവിബുദ്ധൻ, സംഭാഷണത്തിനൊരു ശ്രമം, അഞ്ചു സൂര്യൻ, പീഡനകാലം, വേനൽമഴ, തുടങ്ങി ഇരുപത് കവിതാസമാഹാരങ്ങൾ; 1965 മുതൽ 2005 വരെ എഴുതിയ തെരഞ്ഞെടുത്ത കവിതകളുടെ സമാഹാരങ്ങളായ അകം, മൊഴി എന്നിവ; കവിതയും ജനതയും, അന്വേഷണങ്ങൾ, പാബ്ലോ നെരൂദാ എന്നീ പഠനങ്ങള്‍; കുരുക്ഷേത്രം, സംവാദങ്ങൾ സമീപനങ്ങൾ, സംസ്കാരത്തിന്റെ രാഷ്ട്രീയം, വീണ്ടുവിചാരങ്ങൾ, മാർക്സിയൻ സൗന്ദര്യശാസ്ത്രം: ഒരു മുഖവുര, തുടങ്ങിയ ലേഖനസമാഹാരങ്ങൾ എന്നിവ പ്രധാന കൃതികളാണ്.
(വിക്കിപ്പീഡിയയോട് കടപ്പാട്)

